EESchema Schematic File Version 4
EELAYER 30 0
EELAYER END
$Descr A3 16535 11693
encoding utf-8
Sheet 2 2
Title "Raspberry Pi Amplifier Shield"
Date "2020-12-28"
Rev "1.0"
Comp "Tijl Schepens"
Comment1 ""
Comment2 ""
Comment3 ""
Comment4 ""
$EndDescr
$Comp
L Connector_Generic:Conn_01x06 J?
U 1 1 603736F9
P 15200 1900
AR Path="/603736F9" Ref="J?"  Part="1" 
AR Path="/602EDC29/603736F9" Ref="J7"  Part="1" 
F 0 "J7" H 15150 2200 50  0000 L CNN
F 1 "SPI" H 15150 1500 50  0000 L CNN
F 2 "Phoenix_Contact:PTSA-2.5mm-6pins" H 15200 1900 50  0001 C CNN
F 3 "~" H 15200 1900 50  0001 C CNN
	1    15200 1900
	1    0    0    -1  
$EndComp
$Comp
L Device:C C?
U 1 1 603736FF
P 14600 1350
AR Path="/603736FF" Ref="C?"  Part="1" 
AR Path="/602EDC29/603736FF" Ref="C21"  Part="1" 
F 0 "C21" H 14715 1396 50  0000 L CNN
F 1 "1uF" H 14715 1305 50  0000 L CNN
F 2 "Capacitor_SMD:C_0603_1608Metric" H 14638 1200 50  0001 C CNN
F 3 "~" H 14600 1350 50  0001 C CNN
F 4 "C0603C105K4RACTU" H 14600 1350 50  0001 C CNN "PartNumber"
	1    14600 1350
	1    0    0    -1  
$EndComp
$Comp
L power:+3V3 #PWR?
U 1 1 60373705
P 14900 1050
AR Path="/60373705" Ref="#PWR?"  Part="1" 
AR Path="/602EDC29/60373705" Ref="#PWR0165"  Part="1" 
F 0 "#PWR0165" H 14900 900 50  0001 C CNN
F 1 "+3V3" H 14915 1223 50  0000 C CNN
F 2 "" H 14900 1050 50  0001 C CNN
F 3 "" H 14900 1050 50  0001 C CNN
	1    14900 1050
	1    0    0    -1  
$EndComp
$Comp
L power:GND #PWR?
U 1 1 6037370B
P 14600 1500
AR Path="/6037370B" Ref="#PWR?"  Part="1" 
AR Path="/602EDC29/6037370B" Ref="#PWR0166"  Part="1" 
F 0 "#PWR0166" H 14600 1250 50  0001 C CNN
F 1 "GND" H 14605 1327 50  0000 C CNN
F 2 "" H 14600 1500 50  0001 C CNN
F 3 "" H 14600 1500 50  0001 C CNN
	1    14600 1500
	1    0    0    -1  
$EndComp
Text Label 11750 1900 0    50   ~ 0
MOSI
Text Label 11750 1800 0    50   ~ 0
MISO
Text Label 11750 2000 0    50   ~ 0
SCLK
$Comp
L power:GND #PWR?
U 1 1 60373714
P 14900 2300
AR Path="/60373714" Ref="#PWR?"  Part="1" 
AR Path="/602EDC29/60373714" Ref="#PWR0167"  Part="1" 
F 0 "#PWR0167" H 14900 2050 50  0001 C CNN
F 1 "GND" H 14905 2127 50  0000 C CNN
F 2 "" H 14900 2300 50  0001 C CNN
F 3 "" H 14900 2300 50  0001 C CNN
	1    14900 2300
	1    0    0    -1  
$EndComp
Wire Wire Line
	14900 2300 14900 2200
Wire Wire Line
	14900 2200 15000 2200
Text Label 11750 2100 0    50   ~ 0
CS
Wire Wire Line
	14600 1200 14600 1100
Wire Wire Line
	14600 1100 14900 1100
Wire Wire Line
	14900 1100 14900 1050
Wire Wire Line
	14900 1100 14900 1700
Wire Wire Line
	14900 1700 15000 1700
Connection ~ 14900 1100
$Comp
L power:GND #PWR?
U 1 1 60373723
P 13450 3350
AR Path="/60373723" Ref="#PWR?"  Part="1" 
AR Path="/602EDC29/60373723" Ref="#PWR0168"  Part="1" 
F 0 "#PWR0168" H 13450 3100 50  0001 C CNN
F 1 "GND" H 13455 3177 50  0000 C CNN
F 2 "" H 13450 3350 50  0001 C CNN
F 3 "" H 13450 3350 50  0001 C CNN
	1    13450 3350
	1    0    0    -1  
$EndComp
$Comp
L power:+5V #PWR?
U 1 1 6037372F
P 14050 2500
AR Path="/6037372F" Ref="#PWR?"  Part="1" 
AR Path="/602EDC29/6037372F" Ref="#PWR0169"  Part="1" 
F 0 "#PWR0169" H 14050 2350 50  0001 C CNN
F 1 "+5V" H 14065 2673 50  0000 C CNN
F 2 "" H 14050 2500 50  0001 C CNN
F 3 "" H 14050 2500 50  0001 C CNN
	1    14050 2500
	1    0    0    -1  
$EndComp
$Comp
L Device:C C?
U 1 1 60373735
P 14350 2900
AR Path="/60373735" Ref="C?"  Part="1" 
AR Path="/602EDC29/60373735" Ref="C26"  Part="1" 
F 0 "C26" H 14465 2946 50  0000 L CNN
F 1 "220nF" H 14465 2855 50  0000 L CNN
F 2 "Capacitor_SMD:C_0603_1608Metric" H 14388 2750 50  0001 C CNN
F 3 "~" H 14350 2900 50  0001 C CNN
	1    14350 2900
	1    0    0    -1  
$EndComp
Wire Wire Line
	13450 3300 14350 3300
Wire Wire Line
	14050 2500 14050 2550
Connection ~ 14050 2550
Wire Wire Line
	14050 2550 14050 2600
Wire Wire Line
	13450 3250 13450 3300
Connection ~ 13450 3300
Wire Wire Line
	13450 3300 13450 3350
Wire Wire Line
	13400 1800 13400 2600
Wire Wire Line
	13400 1800 15000 1800
Wire Wire Line
	13550 1900 13550 2600
Wire Wire Line
	13550 1900 15000 1900
Wire Wire Line
	13700 2000 13700 2600
Wire Wire Line
	13700 2000 15000 2000
Wire Wire Line
	13850 2600 13850 2100
Wire Wire Line
	13850 2100 15000 2100
$Comp
L ON_Semiconductor:NL27WZ17DFT2G U?
U 1 1 603ACD1D
P 13950 7950
AR Path="/603ACD1D" Ref="U?"  Part="3" 
AR Path="/602EDC29/603ACD1D" Ref="U16"  Part="1" 
F 0 "U16" H 14250 8000 50  0000 L CNN
F 1 "NL27WZ17DFT2G" H 14008 7905 50  0001 L CNN
F 2 "Package_TO_SOT_SMD:SOT-363_SC-70-6" H 13900 8200 50  0001 C CNN
F 3 "https://www.onsemi.com/pub/Collateral/NL27WZ17-D.PDF" H 13900 8200 50  0001 C CNN
	1    13950 7950
	-1   0    0    -1  
$EndComp
$Comp
L ON_Semiconductor:NL27WZ17DFT2G U?
U 2 1 603ACD3B
P 13300 8050
AR Path="/603ACD3B" Ref="U?"  Part="3" 
AR Path="/602EDC29/603ACD3B" Ref="U16"  Part="2" 
F 0 "U16" H 12900 8100 50  0000 L CNN
F 1 "NL27WZ17DFT2G" H 12650 7750 50  0000 L CNN
F 2 "Package_TO_SOT_SMD:SOT-363_SC-70-6" H 13250 8300 50  0001 C CNN
F 3 "https://www.onsemi.com/pub/Collateral/NL27WZ17-D.PDF" H 13250 8300 50  0001 C CNN
	2    13300 8050
	-1   0    0    -1  
$EndComp
Wire Wire Line
	9150 9950 9150 10200
Wire Wire Line
	9150 10500 9150 10750
Text Label 12550 7950 0    50   ~ 0
DC_PROT1
Text Label 2300 2150 0    50   ~ 0
LDOUT
Text Label 2300 2250 0    50   ~ 0
LCLK
Text Label 12250 6600 0    50   ~ 0
ISO_OUT2
Text Label 12550 8050 0    50   ~ 0
DC_PROT2
Text Label 12550 8150 0    50   ~ 0
SPK_ON1
Text Label 12550 8250 0    50   ~ 0
SPK_ON2
Text Label 2300 2350 0    50   ~ 0
LCS
Text Label 2300 2050 0    50   ~ 0
LDIN
Text Label 12250 6150 0    50   ~ 0
ISO_OUT1
Wire Wire Line
	7700 9550 7350 9550
$Comp
L ON_Semiconductor:NL27WZ17DFT2G U?
U 1 1 603DD5CC
P 13850 8150
AR Path="/603DD5CC" Ref="U?"  Part="2" 
AR Path="/602EDC29/603DD5CC" Ref="U15"  Part="1" 
F 0 "U15" H 13550 8200 50  0000 C CNN
F 1 "NL27WZ17DFT2G" H 13900 8324 50  0001 C CNN
F 2 "Package_TO_SOT_SMD:SOT-363_SC-70-6" H 13800 8400 50  0001 C CNN
F 3 "https://www.onsemi.com/pub/Collateral/NL27WZ17-D.PDF" H 13800 8400 50  0001 C CNN
	1    13850 8150
	1    0    0    -1  
$EndComp
$Comp
L ON_Semiconductor:NL27WZ17DFT2G U?
U 2 1 603DD5D2
P 13200 8250
AR Path="/603DD5D2" Ref="U?"  Part="1" 
AR Path="/602EDC29/603DD5D2" Ref="U15"  Part="2" 
F 0 "U15" H 13600 8300 50  0000 C CNN
F 1 "NL27WZ17DFT2G" H 13250 8424 50  0001 C CNN
F 2 "Package_TO_SOT_SMD:SOT-363_SC-70-6" H 13150 8500 50  0001 C CNN
F 3 "https://www.onsemi.com/pub/Collateral/NL27WZ17-D.PDF" H 13150 8500 50  0001 C CNN
	2    13200 8250
	1    0    0    -1  
$EndComp
$Comp
L ON_Semiconductor:NL27WZ17DFT2G U?
U 3 1 603DD5D8
P 10950 10350
AR Path="/603DD5D8" Ref="U?"  Part="2" 
AR Path="/602EDC29/603DD5D8" Ref="U15"  Part="3" 
F 0 "U15" H 10800 10400 50  0000 C CNN
F 1 "NL27WZ17DFT2G" H 10600 10300 50  0000 C CNN
F 2 "Package_TO_SOT_SMD:SOT-363_SC-70-6" H 10900 10600 50  0001 C CNN
F 3 "https://www.onsemi.com/pub/Collateral/NL27WZ17-D.PDF" H 10900 10600 50  0001 C CNN
	3    10950 10350
	-1   0    0    -1  
$EndComp
Wire Wire Line
	12950 8050 12550 8050
Wire Wire Line
	13600 8150 12550 8150
Wire Wire Line
	12950 8250 12550 8250
$Comp
L Connector_Generic:Conn_01x04 J?
U 1 1 604760ED
P 5900 5750
AR Path="/604760ED" Ref="J?"  Part="1" 
AR Path="/602EDC29/604760ED" Ref="J12"  Part="1" 
F 0 "J12" H 5850 5950 50  0000 L CNN
F 1 "UART" H 5850 5450 50  0000 L CNN
F 2 "Phoenix_Contact:PTSA-2.5mm-4pins" H 5900 5750 50  0001 C CNN
F 3 "~" H 5900 5750 50  0001 C CNN
	1    5900 5750
	1    0    0    -1  
$EndComp
$Comp
L power:GND #PWR?
U 1 1 604760F3
P 5600 6050
AR Path="/604760F3" Ref="#PWR?"  Part="1" 
AR Path="/602EDC29/604760F3" Ref="#PWR0177"  Part="1" 
F 0 "#PWR0177" H 5600 5800 50  0001 C CNN
F 1 "GND" H 5605 5877 50  0000 C CNN
F 2 "" H 5600 6050 50  0001 C CNN
F 3 "" H 5600 6050 50  0001 C CNN
	1    5600 6050
	1    0    0    -1  
$EndComp
$Comp
L power:+3V3 #PWR?
U 1 1 604760F9
P 5600 5000
AR Path="/604760F9" Ref="#PWR?"  Part="1" 
AR Path="/602EDC29/604760F9" Ref="#PWR0178"  Part="1" 
F 0 "#PWR0178" H 5600 4850 50  0001 C CNN
F 1 "+3V3" H 5615 5173 50  0000 C CNN
F 2 "" H 5600 5000 50  0001 C CNN
F 3 "" H 5600 5000 50  0001 C CNN
	1    5600 5000
	1    0    0    -1  
$EndComp
Wire Wire Line
	5700 5950 5600 5950
Wire Wire Line
	5600 5950 5600 6050
$Comp
L Device:C C?
U 1 1 60476103
P 5300 5300
AR Path="/60476103" Ref="C?"  Part="1" 
AR Path="/602EDC29/60476103" Ref="C34"  Part="1" 
F 0 "C34" H 5415 5346 50  0000 L CNN
F 1 "1uF" H 5415 5255 50  0000 L CNN
F 2 "Capacitor_SMD:C_0603_1608Metric" H 5338 5150 50  0001 C CNN
F 3 "~" H 5300 5300 50  0001 C CNN
F 4 "C0603C105K4RACTU" H 5300 5300 50  0001 C CNN "PartNumber"
	1    5300 5300
	1    0    0    -1  
$EndComp
$Comp
L power:GND #PWR?
U 1 1 60476109
P 5300 5450
AR Path="/60476109" Ref="#PWR?"  Part="1" 
AR Path="/602EDC29/60476109" Ref="#PWR0179"  Part="1" 
F 0 "#PWR0179" H 5300 5200 50  0001 C CNN
F 1 "GND" H 5305 5277 50  0000 C CNN
F 2 "" H 5300 5450 50  0001 C CNN
F 3 "" H 5300 5450 50  0001 C CNN
	1    5300 5450
	1    0    0    -1  
$EndComp
Wire Wire Line
	5700 5650 5600 5650
Wire Wire Line
	5600 5000 5600 5050
Wire Wire Line
	5300 5050 5600 5050
Wire Wire Line
	5300 5050 5300 5150
Connection ~ 5600 5050
Wire Wire Line
	5600 5050 5600 5650
$Comp
L ON_Semiconductor:NL27WZ17DFT2G U?
U 1 1 604C718D
P 13050 1800
AR Path="/604C718D" Ref="U?"  Part="1" 
AR Path="/602EDC29/604C718D" Ref="U6"  Part="1" 
F 0 "U6" H 12800 1850 50  0000 C CNN
F 1 "NL27WZ17DFT2G" H 13100 1974 50  0001 C CNN
F 2 "Package_TO_SOT_SMD:SOT-363_SC-70-6" H 13000 2050 50  0001 C CNN
F 3 "https://www.onsemi.com/pub/Collateral/NL27WZ17-D.PDF" H 13000 2050 50  0001 C CNN
	1    13050 1800
	-1   0    0    -1  
$EndComp
Connection ~ 13400 1800
$Comp
L ON_Semiconductor:NL27WZ17DFT2G U?
U 3 1 604DE2EF
P 9000 1800
AR Path="/604DE2EF" Ref="U?"  Part="1" 
AR Path="/602EDC29/604DE2EF" Ref="U6"  Part="3" 
F 0 "U6" H 9150 1900 50  0000 C CNN
F 1 "NL27WZ17DFT2G" H 9050 1974 50  0001 C CNN
F 2 "Package_TO_SOT_SMD:SOT-363_SC-70-6" H 8950 2050 50  0001 C CNN
F 3 "https://www.onsemi.com/pub/Collateral/NL27WZ17-D.PDF" H 8950 2050 50  0001 C CNN
	3    9000 1800
	1    0    0    -1  
$EndComp
Wire Wire Line
	13300 1800 13400 1800
Wire Wire Line
	12700 1900 13550 1900
Connection ~ 13550 1900
Wire Wire Line
	13700 2000 13300 2000
Connection ~ 13700 2000
Wire Wire Line
	13850 2100 12700 2100
Connection ~ 13850 2100
Wire Wire Line
	12700 1800 11750 1800
Wire Wire Line
	12100 1900 11750 1900
Wire Wire Line
	12700 2000 11750 2000
Wire Wire Line
	11750 2100 12100 2100
$Comp
L Device:C C?
U 1 1 6051DD69
P 10150 1800
AR Path="/6051DD69" Ref="C?"  Part="1" 
AR Path="/602EDC29/6051DD69" Ref="C25"  Part="1" 
F 0 "C25" H 10265 1846 50  0000 L CNN
F 1 "100nF" H 10265 1755 50  0000 L CNN
F 2 "Capacitor_SMD:C_0603_1608Metric" H 10188 1650 50  0001 C CNN
F 3 "~" H 10150 1800 50  0001 C CNN
	1    10150 1800
	1    0    0    -1  
$EndComp
$Comp
L power:GND #PWR?
U 1 1 6051DD75
P 10600 2200
AR Path="/6051DD75" Ref="#PWR?"  Part="1" 
AR Path="/602EDC29/6051DD75" Ref="#PWR0180"  Part="1" 
F 0 "#PWR0180" H 10600 1950 50  0001 C CNN
F 1 "GND" H 10605 2027 50  0000 C CNN
F 2 "" H 10600 2200 50  0001 C CNN
F 3 "" H 10600 2200 50  0001 C CNN
	1    10600 2200
	1    0    0    -1  
$EndComp
Wire Wire Line
	10600 1400 10150 1400
Wire Wire Line
	10150 1400 10150 1650
$Comp
L ON_Semiconductor:NL27WZ17DFT2G U?
U 3 1 6051DD7E
P 10600 1800
AR Path="/6051DD7E" Ref="U?"  Part="3" 
AR Path="/602EDC29/6051DD7E" Ref="U5"  Part="3" 
F 0 "U5" H 10658 1846 50  0000 L CNN
F 1 "NL27WZ17DFT2G" H 10658 1755 50  0000 L CNN
F 2 "Package_TO_SOT_SMD:SOT-363_SC-70-6" H 10550 2050 50  0001 C CNN
F 3 "https://www.onsemi.com/pub/Collateral/NL27WZ17-D.PDF" H 10550 2050 50  0001 C CNN
	3    10600 1800
	1    0    0    -1  
$EndComp
Wire Wire Line
	10150 1950 10150 2200
Wire Wire Line
	10150 2200 10600 2200
Connection ~ 10600 2200
$Comp
L Device:C C?
U 1 1 6052DF57
P 9350 1800
AR Path="/6052DF57" Ref="C?"  Part="1" 
AR Path="/602EDC29/6052DF57" Ref="C24"  Part="1" 
F 0 "C24" H 9465 1846 50  0000 L CNN
F 1 "100nF" H 9465 1755 50  0000 L CNN
F 2 "Capacitor_SMD:C_0603_1608Metric" H 9388 1650 50  0001 C CNN
F 3 "~" H 9350 1800 50  0001 C CNN
	1    9350 1800
	1    0    0    -1  
$EndComp
$Comp
L power:GND #PWR?
U 1 1 6052DF63
P 9800 2200
AR Path="/6052DF63" Ref="#PWR?"  Part="1" 
AR Path="/602EDC29/6052DF63" Ref="#PWR0181"  Part="1" 
F 0 "#PWR0181" H 9800 1950 50  0001 C CNN
F 1 "GND" H 9805 2027 50  0000 C CNN
F 2 "" H 9800 2200 50  0001 C CNN
F 3 "" H 9800 2200 50  0001 C CNN
	1    9800 2200
	1    0    0    -1  
$EndComp
Wire Wire Line
	9350 1400 9350 1650
$Comp
L ON_Semiconductor:NL27WZ17DFT2G U?
U 2 1 6052DF6C
P 12350 2100
AR Path="/6052DF6C" Ref="U?"  Part="3" 
AR Path="/602EDC29/6052DF6C" Ref="U5"  Part="2" 
F 0 "U5" H 12650 2150 50  0000 L CNN
F 1 "NL27WZ17DFT2G" H 12408 2055 50  0001 L CNN
F 2 "Package_TO_SOT_SMD:SOT-363_SC-70-6" H 12300 2350 50  0001 C CNN
F 3 "https://www.onsemi.com/pub/Collateral/NL27WZ17-D.PDF" H 12300 2350 50  0001 C CNN
	2    12350 2100
	1    0    0    -1  
$EndComp
Wire Wire Line
	9350 1950 9350 2200
Wire Wire Line
	9350 2200 9800 2200
$Comp
L Device:C C?
U 1 1 605338B1
P 8550 1800
AR Path="/605338B1" Ref="C?"  Part="1" 
AR Path="/602EDC29/605338B1" Ref="C23"  Part="1" 
F 0 "C23" H 8665 1846 50  0000 L CNN
F 1 "100nF" H 8665 1755 50  0000 L CNN
F 2 "Capacitor_SMD:C_0603_1608Metric" H 8588 1650 50  0001 C CNN
F 3 "~" H 8550 1800 50  0001 C CNN
	1    8550 1800
	1    0    0    -1  
$EndComp
$Comp
L power:+3V3 #PWR?
U 1 1 605338B7
P 9000 1400
AR Path="/605338B7" Ref="#PWR?"  Part="1" 
AR Path="/602EDC29/605338B7" Ref="#PWR0182"  Part="1" 
F 0 "#PWR0182" H 9000 1250 50  0001 C CNN
F 1 "+3V3" H 9015 1573 50  0000 C CNN
F 2 "" H 9000 1400 50  0001 C CNN
F 3 "" H 9000 1400 50  0001 C CNN
	1    9000 1400
	1    0    0    -1  
$EndComp
$Comp
L power:GND #PWR?
U 1 1 605338BD
P 9000 2200
AR Path="/605338BD" Ref="#PWR?"  Part="1" 
AR Path="/602EDC29/605338BD" Ref="#PWR0183"  Part="1" 
F 0 "#PWR0183" H 9000 1950 50  0001 C CNN
F 1 "GND" H 9005 2027 50  0000 C CNN
F 2 "" H 9000 2200 50  0001 C CNN
F 3 "" H 9000 2200 50  0001 C CNN
	1    9000 2200
	1    0    0    -1  
$EndComp
Wire Wire Line
	9000 1400 8550 1400
Wire Wire Line
	8550 1400 8550 1650
$Comp
L ON_Semiconductor:NL27WZ17DFT2G U?
U 1 1 605338C6
P 12950 2000
AR Path="/605338C6" Ref="U?"  Part="3" 
AR Path="/602EDC29/605338C6" Ref="U5"  Part="1" 
F 0 "U5" H 13250 2050 50  0000 L CNN
F 1 "NL27WZ17DFT2G" H 13008 1955 50  0001 L CNN
F 2 "Package_TO_SOT_SMD:SOT-363_SC-70-6" H 12900 2250 50  0001 C CNN
F 3 "https://www.onsemi.com/pub/Collateral/NL27WZ17-D.PDF" H 12900 2250 50  0001 C CNN
	1    12950 2000
	1    0    0    -1  
$EndComp
Wire Wire Line
	8550 1950 8550 2200
Wire Wire Line
	8550 2200 9000 2200
$Comp
L Device:R R84
U 1 1 60580D01
P 9500 1150
F 0 "R84" H 9570 1196 50  0000 L CNN
F 1 "DNP" H 9570 1105 50  0000 L CNN
F 2 "Resistor_SMD:R_0603_1608Metric" V 9430 1150 50  0001 C CNN
F 3 "~" H 9500 1150 50  0001 C CNN
	1    9500 1150
	1    0    0    -1  
$EndComp
$Comp
L Device:R R85
U 1 1 6057AA94
P 9800 1150
F 0 "R85" H 9870 1196 50  0000 L CNN
F 1 "0E" H 9870 1105 50  0000 L CNN
F 2 "Resistor_SMD:R_0603_1608Metric" V 9730 1150 50  0001 C CNN
F 3 "~" H 9800 1150 50  0001 C CNN
	1    9800 1150
	1    0    0    -1  
$EndComp
$Comp
L power:+5V #PWR?
U 1 1 6056DAC3
P 9500 1000
AR Path="/6056DAC3" Ref="#PWR?"  Part="1" 
AR Path="/602EDC29/6056DAC3" Ref="#PWR0184"  Part="1" 
F 0 "#PWR0184" H 9500 850 50  0001 C CNN
F 1 "+5V" H 9515 1173 50  0000 C CNN
F 2 "" H 9500 1000 50  0001 C CNN
F 3 "" H 9500 1000 50  0001 C CNN
	1    9500 1000
	1    0    0    -1  
$EndComp
$Comp
L power:+3V3 #PWR?
U 1 1 6052DF5D
P 9800 1000
AR Path="/6052DF5D" Ref="#PWR?"  Part="1" 
AR Path="/602EDC29/6052DF5D" Ref="#PWR0185"  Part="1" 
F 0 "#PWR0185" H 9800 850 50  0001 C CNN
F 1 "+3V3" H 9815 1173 50  0000 C CNN
F 2 "" H 9800 1000 50  0001 C CNN
F 3 "" H 9800 1000 50  0001 C CNN
	1    9800 1000
	1    0    0    -1  
$EndComp
Wire Wire Line
	9500 1400 9350 1400
Wire Wire Line
	9800 1400 9500 1400
Connection ~ 9500 1400
Wire Wire Line
	9500 1300 9500 1400
Wire Wire Line
	9800 1300 9800 1350
Wire Wire Line
	10150 1400 10150 1350
Wire Wire Line
	10150 1350 9800 1350
Connection ~ 10150 1400
Connection ~ 9800 1350
Wire Wire Line
	9800 1350 9800 1400
$Comp
L ON_Semiconductor:NL27WZ17DFT2G U?
U 3 1 605E6660
P 4850 4900
AR Path="/605E6660" Ref="U?"  Part="1" 
AR Path="/602EDC29/605E6660" Ref="U8"  Part="3" 
F 0 "U8" H 5000 4950 50  0000 C CNN
F 1 "NL27WZ17DFT2G" H 4900 5074 50  0001 C CNN
F 2 "Package_TO_SOT_SMD:SOT-363_SC-70-6" H 4800 5150 50  0001 C CNN
F 3 "https://www.onsemi.com/pub/Collateral/NL27WZ17-D.PDF" H 4800 5150 50  0001 C CNN
	3    4850 4900
	1    0    0    -1  
$EndComp
$Comp
L Device:C C?
U 1 1 60625F62
P 4400 4900
AR Path="/60625F62" Ref="C?"  Part="1" 
AR Path="/602EDC29/60625F62" Ref="C33"  Part="1" 
F 0 "C33" H 4515 4946 50  0000 L CNN
F 1 "100nF" H 4515 4855 50  0000 L CNN
F 2 "Capacitor_SMD:C_0603_1608Metric" H 4438 4750 50  0001 C CNN
F 3 "~" H 4400 4900 50  0001 C CNN
	1    4400 4900
	1    0    0    -1  
$EndComp
$Comp
L power:+3V3 #PWR?
U 1 1 60625F68
P 4850 4500
AR Path="/60625F68" Ref="#PWR?"  Part="1" 
AR Path="/602EDC29/60625F68" Ref="#PWR0186"  Part="1" 
F 0 "#PWR0186" H 4850 4350 50  0001 C CNN
F 1 "+3V3" H 4865 4673 50  0000 C CNN
F 2 "" H 4850 4500 50  0001 C CNN
F 3 "" H 4850 4500 50  0001 C CNN
	1    4850 4500
	1    0    0    -1  
$EndComp
$Comp
L power:GND #PWR?
U 1 1 60625F6E
P 4850 5300
AR Path="/60625F6E" Ref="#PWR?"  Part="1" 
AR Path="/602EDC29/60625F6E" Ref="#PWR0187"  Part="1" 
F 0 "#PWR0187" H 4850 5050 50  0001 C CNN
F 1 "GND" H 4855 5127 50  0000 C CNN
F 2 "" H 4850 5300 50  0001 C CNN
F 3 "" H 4850 5300 50  0001 C CNN
	1    4850 5300
	1    0    0    -1  
$EndComp
Wire Wire Line
	4850 4500 4400 4500
Wire Wire Line
	4400 4500 4400 4750
Wire Wire Line
	4400 5050 4400 5300
Wire Wire Line
	4400 5300 4850 5300
Text Label 7350 9550 0    50   ~ 0
1Wire
Wire Wire Line
	14350 3050 14350 3300
Wire Wire Line
	14350 2750 14350 2550
Wire Wire Line
	14350 2550 14050 2550
$Comp
L ON_Semiconductor:NL27WZ07DFT2G U7
U 1 1 5FF718CC
P 3800 2050
F 0 "U7" H 4200 2100 50  0000 C CNN
F 1 "NL27WZ17DFT2G" H 3850 2224 50  0001 C CNN
F 2 "Package_TO_SOT_SMD:SOT-363_SC-70-6" H 3750 2300 50  0001 C CNN
F 3 "https://www.onsemi.com/pub/Collateral/NL27WZ17-D.PDF" H 3750 2300 50  0001 C CNN
	1    3800 2050
	-1   0    0    -1  
$EndComp
$Comp
L ON_Semiconductor:NL27WZ07DFT2G U7
U 2 1 5FF73447
P 3100 2150
F 0 "U7" H 3450 2200 50  0000 C CNN
F 1 "NL27WZ17DFT2G" H 3150 2324 50  0001 C CNN
F 2 "Package_TO_SOT_SMD:SOT-363_SC-70-6" H 3050 2400 50  0001 C CNN
F 3 "https://www.onsemi.com/pub/Collateral/NL27WZ17-D.PDF" H 3050 2400 50  0001 C CNN
	2    3100 2150
	1    0    0    -1  
$EndComp
$Comp
L ON_Semiconductor:NL27WZ07DFT2G U9
U 3 1 5FF75E07
P 3200 3400
F 0 "U9" H 3258 3446 50  0000 L CNN
F 1 "NL27WZ17DFT2G" H 3258 3355 50  0000 L CNN
F 2 "Package_TO_SOT_SMD:SOT-363_SC-70-6" H 3150 3650 50  0001 C CNN
F 3 "https://www.onsemi.com/pub/Collateral/NL27WZ17-D.PDF" H 3150 3650 50  0001 C CNN
	3    3200 3400
	1    0    0    -1  
$EndComp
$Comp
L power:+3V3 #PWR?
U 1 1 5FF908B8
P 3200 3000
AR Path="/5FF908B8" Ref="#PWR?"  Part="1" 
AR Path="/602EDC29/5FF908B8" Ref="#PWR0190"  Part="1" 
F 0 "#PWR0190" H 3200 2850 50  0001 C CNN
F 1 "+3V3" H 3215 3173 50  0000 C CNN
F 2 "" H 3200 3000 50  0001 C CNN
F 3 "" H 3200 3000 50  0001 C CNN
	1    3200 3000
	1    0    0    -1  
$EndComp
$Comp
L power:GND #PWR?
U 1 1 5FF938FC
P 3200 3800
AR Path="/5FF938FC" Ref="#PWR?"  Part="1" 
AR Path="/602EDC29/5FF938FC" Ref="#PWR0191"  Part="1" 
F 0 "#PWR0191" H 3200 3550 50  0001 C CNN
F 1 "GND" H 3205 3627 50  0000 C CNN
F 2 "" H 3200 3800 50  0001 C CNN
F 3 "" H 3200 3800 50  0001 C CNN
	1    3200 3800
	1    0    0    -1  
$EndComp
$Comp
L Device:C C?
U 1 1 5FF95FA6
P 2750 3400
AR Path="/5FF95FA6" Ref="C?"  Part="1" 
AR Path="/602EDC29/5FF95FA6" Ref="C29"  Part="1" 
F 0 "C29" H 2865 3446 50  0000 L CNN
F 1 "100nF" H 2865 3355 50  0000 L CNN
F 2 "Capacitor_SMD:C_0603_1608Metric" H 2788 3250 50  0001 C CNN
F 3 "~" H 2750 3400 50  0001 C CNN
	1    2750 3400
	1    0    0    -1  
$EndComp
$Comp
L Connector_Generic:Conn_01x06 J?
U 1 1 5FFB33E6
P 5950 2150
AR Path="/5FFB33E6" Ref="J?"  Part="1" 
AR Path="/602EDC29/5FFB33E6" Ref="J8"  Part="1" 
F 0 "J8" H 5900 2450 50  0000 L CNN
F 1 "LCD" H 5900 1750 50  0000 L CNN
F 2 "Phoenix_Contact:PTSA-2.5mm-6pins" H 5950 2150 50  0001 C CNN
F 3 "~" H 5950 2150 50  0001 C CNN
	1    5950 2150
	1    0    0    -1  
$EndComp
$Comp
L Device:C C?
U 1 1 5FFB33EC
P 5350 1600
AR Path="/5FFB33EC" Ref="C?"  Part="1" 
AR Path="/602EDC29/5FFB33EC" Ref="C22"  Part="1" 
F 0 "C22" H 5465 1646 50  0000 L CNN
F 1 "1uF" H 5465 1555 50  0000 L CNN
F 2 "Capacitor_SMD:C_0603_1608Metric" H 5388 1450 50  0001 C CNN
F 3 "~" H 5350 1600 50  0001 C CNN
F 4 "C0603C105K4RACTU" H 5350 1600 50  0001 C CNN "PartNumber"
	1    5350 1600
	1    0    0    -1  
$EndComp
$Comp
L power:GND #PWR?
U 1 1 5FFB33F8
P 5350 1750
AR Path="/5FFB33F8" Ref="#PWR?"  Part="1" 
AR Path="/602EDC29/5FFB33F8" Ref="#PWR0192"  Part="1" 
F 0 "#PWR0192" H 5350 1500 50  0001 C CNN
F 1 "GND" H 5355 1577 50  0000 C CNN
F 2 "" H 5350 1750 50  0001 C CNN
F 3 "" H 5350 1750 50  0001 C CNN
	1    5350 1750
	1    0    0    -1  
$EndComp
$Comp
L power:GND #PWR?
U 1 1 5FFB33FE
P 5650 2550
AR Path="/5FFB33FE" Ref="#PWR?"  Part="1" 
AR Path="/602EDC29/5FFB33FE" Ref="#PWR0193"  Part="1" 
F 0 "#PWR0193" H 5650 2300 50  0001 C CNN
F 1 "GND" H 5655 2377 50  0000 C CNN
F 2 "" H 5650 2550 50  0001 C CNN
F 3 "" H 5650 2550 50  0001 C CNN
	1    5650 2550
	1    0    0    -1  
$EndComp
Wire Wire Line
	5650 2550 5650 2450
Wire Wire Line
	5650 2450 5750 2450
Wire Wire Line
	5350 1450 5350 1350
Wire Wire Line
	5350 1350 5650 1350
Wire Wire Line
	5650 1350 5650 1300
Wire Wire Line
	5650 1350 5650 1950
Wire Wire Line
	5650 1950 5750 1950
Connection ~ 5650 1350
Wire Wire Line
	4450 2250 4700 2250
Wire Wire Line
	4600 2350 5000 2350
$Comp
L power:+5V #PWR?
U 1 1 5FFBD0EC
P 5650 1300
AR Path="/5FFBD0EC" Ref="#PWR?"  Part="1" 
AR Path="/602EDC29/5FFBD0EC" Ref="#PWR0194"  Part="1" 
F 0 "#PWR0194" H 5650 1150 50  0001 C CNN
F 1 "+5V" H 5665 1473 50  0000 C CNN
F 2 "" H 5650 1300 50  0001 C CNN
F 3 "" H 5650 1300 50  0001 C CNN
	1    5650 1300
	1    0    0    -1  
$EndComp
$Comp
L power:GND #PWR?
U 1 1 5FFFD1A0
P 4200 3600
AR Path="/5FFFD1A0" Ref="#PWR?"  Part="1" 
AR Path="/602EDC29/5FFFD1A0" Ref="#PWR0195"  Part="1" 
F 0 "#PWR0195" H 4200 3350 50  0001 C CNN
F 1 "GND" H 4205 3427 50  0000 C CNN
F 2 "" H 4200 3600 50  0001 C CNN
F 3 "" H 4200 3600 50  0001 C CNN
	1    4200 3600
	1    0    0    -1  
$EndComp
$Comp
L power:+5V #PWR?
U 1 1 5FFFD1A6
P 4800 2750
AR Path="/5FFFD1A6" Ref="#PWR?"  Part="1" 
AR Path="/602EDC29/5FFFD1A6" Ref="#PWR0196"  Part="1" 
F 0 "#PWR0196" H 4800 2600 50  0001 C CNN
F 1 "+5V" H 4815 2923 50  0000 C CNN
F 2 "" H 4800 2750 50  0001 C CNN
F 3 "" H 4800 2750 50  0001 C CNN
	1    4800 2750
	1    0    0    -1  
$EndComp
$Comp
L Device:C C?
U 1 1 5FFFD1AC
P 5100 3150
AR Path="/5FFFD1AC" Ref="C?"  Part="1" 
AR Path="/602EDC29/5FFFD1AC" Ref="C27"  Part="1" 
F 0 "C27" H 5215 3196 50  0000 L CNN
F 1 "220nF" H 5215 3105 50  0000 L CNN
F 2 "Capacitor_SMD:C_0603_1608Metric" H 5138 3000 50  0001 C CNN
F 3 "~" H 5100 3150 50  0001 C CNN
	1    5100 3150
	1    0    0    -1  
$EndComp
Wire Wire Line
	4200 3550 5100 3550
Wire Wire Line
	4800 2750 4800 2800
Connection ~ 4800 2800
Wire Wire Line
	4800 2800 4800 2850
Wire Wire Line
	4200 3500 4200 3550
Connection ~ 4200 3550
Wire Wire Line
	4200 3550 4200 3600
Wire Wire Line
	4450 2250 4450 2850
Wire Wire Line
	4600 2850 4600 2350
$Comp
L ON_Semiconductor:CM1213A−04S7 U11
U 1 1 5FFFD1BD
P 4500 3200
F 0 "U11" H 4900 3450 50  0000 L CNN
F 1 "CM1213A−04S7" H 4300 2950 50  0000 L CNN
F 2 "Package_TO_SOT_SMD:SOT-363_SC-70-6" H 4700 2950 50  0001 C CNN
F 3 "https://www.onsemi.com/pub/Collateral/CM1213A-D.PDF" H 4700 2950 50  0001 C CNN
	1    4500 3200
	1    0    0    -1  
$EndComp
Wire Wire Line
	5100 3300 5100 3550
Wire Wire Line
	5100 3000 5100 2800
Wire Wire Line
	5100 2800 4800 2800
Wire Wire Line
	3200 3800 2750 3800
Wire Wire Line
	2750 3800 2750 3550
Connection ~ 3200 3800
Wire Wire Line
	2750 3000 3200 3000
Wire Wire Line
	2750 3000 2750 3250
Connection ~ 3200 3000
$Comp
L Device:R R89
U 1 1 600A5056
P 5000 1450
F 0 "R89" H 5070 1496 50  0000 L CNN
F 1 "10k" H 5070 1405 50  0000 L CNN
F 2 "Resistor_SMD:R_0603_1608Metric" V 4930 1450 50  0001 C CNN
F 3 "~" H 5000 1450 50  0001 C CNN
	1    5000 1450
	1    0    0    -1  
$EndComp
$Comp
L power:+5V #PWR?
U 1 1 600B7E88
P 5000 1300
AR Path="/600B7E88" Ref="#PWR?"  Part="1" 
AR Path="/602EDC29/600B7E88" Ref="#PWR0197"  Part="1" 
F 0 "#PWR0197" H 5000 1150 50  0001 C CNN
F 1 "+5V" H 5015 1473 50  0000 C CNN
F 2 "" H 5000 1300 50  0001 C CNN
F 3 "" H 5000 1300 50  0001 C CNN
	1    5000 1300
	1    0    0    -1  
$EndComp
$Comp
L power:+5V #PWR?
U 1 1 600B8585
P 4700 1300
AR Path="/600B8585" Ref="#PWR?"  Part="1" 
AR Path="/602EDC29/600B8585" Ref="#PWR0198"  Part="1" 
F 0 "#PWR0198" H 4700 1150 50  0001 C CNN
F 1 "+5V" H 4715 1473 50  0000 C CNN
F 2 "" H 4700 1300 50  0001 C CNN
F 3 "" H 4700 1300 50  0001 C CNN
	1    4700 1300
	1    0    0    -1  
$EndComp
$Comp
L Device:R R88
U 1 1 600C60D0
P 4700 1450
F 0 "R88" H 4770 1496 50  0000 L CNN
F 1 "10k" H 4770 1405 50  0000 L CNN
F 2 "Resistor_SMD:R_0603_1608Metric" V 4630 1450 50  0001 C CNN
F 3 "~" H 4700 1450 50  0001 C CNN
	1    4700 1450
	1    0    0    -1  
$EndComp
$Comp
L Device:R R87
U 1 1 600C7837
P 4400 1450
F 0 "R87" H 4470 1496 50  0000 L CNN
F 1 "10k" H 4470 1405 50  0000 L CNN
F 2 "Resistor_SMD:R_0603_1608Metric" V 4330 1450 50  0001 C CNN
F 3 "~" H 4400 1450 50  0001 C CNN
	1    4400 1450
	1    0    0    -1  
$EndComp
$Comp
L power:+5V #PWR?
U 1 1 600C7D47
P 4400 1300
AR Path="/600C7D47" Ref="#PWR?"  Part="1" 
AR Path="/602EDC29/600C7D47" Ref="#PWR0199"  Part="1" 
F 0 "#PWR0199" H 4400 1150 50  0001 C CNN
F 1 "+5V" H 4415 1473 50  0000 C CNN
F 2 "" H 4400 1300 50  0001 C CNN
F 3 "" H 4400 1300 50  0001 C CNN
	1    4400 1300
	1    0    0    -1  
$EndComp
Wire Wire Line
	5000 1600 5000 2350
Connection ~ 5000 2350
Wire Wire Line
	5000 2350 5750 2350
Wire Wire Line
	4700 1600 4700 2250
Connection ~ 4700 2250
Wire Wire Line
	4700 2250 5750 2250
Wire Wire Line
	4400 1600 4400 2150
Connection ~ 4400 2150
Wire Wire Line
	4400 2150 5750 2150
$Comp
L ON_Semiconductor:NL27WZ07DFT2G U7
U 3 1 6011BB1E
P 1750 3400
F 0 "U7" H 1900 3450 50  0000 C CNN
F 1 "NL27WZ17DFT2G" H 1800 3574 50  0001 C CNN
F 2 "Package_TO_SOT_SMD:SOT-363_SC-70-6" H 1700 3650 50  0001 C CNN
F 3 "https://www.onsemi.com/pub/Collateral/NL27WZ17-D.PDF" H 1700 3650 50  0001 C CNN
	3    1750 3400
	1    0    0    -1  
$EndComp
$Comp
L ON_Semiconductor:NL27WZ07DFT2G U9
U 2 1 6013E180
P 3100 2350
F 0 "U9" H 3450 2400 50  0000 C CNN
F 1 "NL27WZ17DFT2G" H 3158 2305 50  0001 L CNN
F 2 "Package_TO_SOT_SMD:SOT-363_SC-70-6" H 3050 2600 50  0001 C CNN
F 3 "https://www.onsemi.com/pub/Collateral/NL27WZ17-D.PDF" H 3050 2600 50  0001 C CNN
	2    3100 2350
	1    0    0    -1  
$EndComp
$Comp
L power:+3V3 #PWR?
U 1 1 6013E186
P 1750 3000
AR Path="/6013E186" Ref="#PWR?"  Part="1" 
AR Path="/602EDC29/6013E186" Ref="#PWR0200"  Part="1" 
F 0 "#PWR0200" H 1750 2850 50  0001 C CNN
F 1 "+3V3" H 1765 3173 50  0000 C CNN
F 2 "" H 1750 3000 50  0001 C CNN
F 3 "" H 1750 3000 50  0001 C CNN
	1    1750 3000
	1    0    0    -1  
$EndComp
$Comp
L power:GND #PWR?
U 1 1 6013E18C
P 1750 3800
AR Path="/6013E18C" Ref="#PWR?"  Part="1" 
AR Path="/602EDC29/6013E18C" Ref="#PWR0201"  Part="1" 
F 0 "#PWR0201" H 1750 3550 50  0001 C CNN
F 1 "GND" H 1755 3627 50  0000 C CNN
F 2 "" H 1750 3800 50  0001 C CNN
F 3 "" H 1750 3800 50  0001 C CNN
	1    1750 3800
	1    0    0    -1  
$EndComp
$Comp
L Device:C C?
U 1 1 6013E192
P 1300 3400
AR Path="/6013E192" Ref="C?"  Part="1" 
AR Path="/602EDC29/6013E192" Ref="C28"  Part="1" 
F 0 "C28" H 1415 3446 50  0000 L CNN
F 1 "100nF" H 1415 3355 50  0000 L CNN
F 2 "Capacitor_SMD:C_0603_1608Metric" H 1338 3250 50  0001 C CNN
F 3 "~" H 1300 3400 50  0001 C CNN
	1    1300 3400
	1    0    0    -1  
$EndComp
Wire Wire Line
	1750 3800 1300 3800
Wire Wire Line
	1300 3800 1300 3550
Wire Wire Line
	1300 3000 1750 3000
Wire Wire Line
	1300 3000 1300 3250
$Comp
L ON_Semiconductor:NL27WZ07DFT2G U9
U 1 1 6014B12A
P 3700 2250
F 0 "U9" H 3400 2300 50  0000 C CNN
F 1 "NL27WZ17DFT2G" H 3500 2050 50  0000 C CNN
F 2 "Package_TO_SOT_SMD:SOT-363_SC-70-6" H 3650 2500 50  0001 C CNN
F 3 "https://www.onsemi.com/pub/Collateral/NL27WZ17-D.PDF" H 3650 2500 50  0001 C CNN
	1    3700 2250
	1    0    0    -1  
$EndComp
Wire Wire Line
	4050 2250 4450 2250
Connection ~ 4450 2250
Wire Wire Line
	4600 2350 3450 2350
Connection ~ 4600 2350
$Comp
L Device:R R86
U 1 1 6019FD54
P 2650 1400
F 0 "R86" H 2720 1446 50  0000 L CNN
F 1 "100k" H 2720 1355 50  0000 L CNN
F 2 "Resistor_SMD:R_0603_1608Metric" V 2580 1400 50  0001 C CNN
F 3 "~" H 2650 1400 50  0001 C CNN
	1    2650 1400
	1    0    0    -1  
$EndComp
$Comp
L power:+3V3 #PWR?
U 1 1 601A0E41
P 2650 1250
AR Path="/601A0E41" Ref="#PWR?"  Part="1" 
AR Path="/602EDC29/601A0E41" Ref="#PWR0202"  Part="1" 
F 0 "#PWR0202" H 2650 1100 50  0001 C CNN
F 1 "+3V3" H 2665 1423 50  0000 C CNN
F 2 "" H 2650 1250 50  0001 C CNN
F 3 "" H 2650 1250 50  0001 C CNN
	1    2650 1250
	1    0    0    -1  
$EndComp
Wire Wire Line
	3450 2050 2650 2050
Wire Wire Line
	2650 2050 2650 1550
Connection ~ 2650 2050
Wire Wire Line
	2300 2050 2650 2050
Wire Wire Line
	2300 2150 2850 2150
Wire Wire Line
	2300 2250 3450 2250
$Comp
L Connector_Generic:Conn_01x04 J14
U 1 1 6037874C
P 15200 8050
F 0 "J14" H 15150 8250 50  0000 L CNN
F 1 "GPIO" H 15150 7750 50  0000 L CNN
F 2 "Phoenix_Contact:PTSA-2.5mm-4pins" H 15200 8050 50  0001 C CNN
F 3 "~" H 15200 8050 50  0001 C CNN
	1    15200 8050
	1    0    0    -1  
$EndComp
$Comp
L Connector_Generic:Conn_01x04 J13
U 1 1 603794FD
P 11700 5200
F 0 "J13" H 11650 4900 50  0000 L CNN
F 1 "ISO_IN" H 11650 5400 50  0000 L CNN
F 2 "Phoenix_Contact:PTSA-2.5mm-4pins" H 11700 5200 50  0001 C CNN
F 3 "~" H 11700 5200 50  0001 C CNN
	1    11700 5200
	1    0    0    1   
$EndComp
$Comp
L Connector_Generic:Conn_01x03 J11
U 1 1 603C4C68
P 7900 9550
F 0 "J11" H 7850 9750 50  0000 L CNN
F 1 "1Wire" H 7850 9350 50  0000 L CNN
F 2 "Phoenix_Contact:PTSA-2.5mm-3pins" H 7900 9550 50  0001 C CNN
F 3 "~" H 7900 9550 50  0001 C CNN
	1    7900 9550
	1    0    0    -1  
$EndComp
$Comp
L Device:C C?
U 1 1 603F2793
P 7300 9100
AR Path="/603F2793" Ref="C?"  Part="1" 
AR Path="/602EDC29/603F2793" Ref="C30"  Part="1" 
F 0 "C30" H 7415 9146 50  0000 L CNN
F 1 "1uF" H 7415 9055 50  0000 L CNN
F 2 "Capacitor_SMD:C_0603_1608Metric" H 7338 8950 50  0001 C CNN
F 3 "~" H 7300 9100 50  0001 C CNN
F 4 "C0603C105K4RACTU" H 7300 9100 50  0001 C CNN "PartNumber"
	1    7300 9100
	1    0    0    -1  
$EndComp
$Comp
L power:+3V3 #PWR?
U 1 1 603F2799
P 7600 8800
AR Path="/603F2799" Ref="#PWR?"  Part="1" 
AR Path="/602EDC29/603F2799" Ref="#PWR0203"  Part="1" 
F 0 "#PWR0203" H 7600 8650 50  0001 C CNN
F 1 "+3V3" H 7615 8973 50  0000 C CNN
F 2 "" H 7600 8800 50  0001 C CNN
F 3 "" H 7600 8800 50  0001 C CNN
	1    7600 8800
	1    0    0    -1  
$EndComp
$Comp
L power:GND #PWR?
U 1 1 603F279F
P 7300 9250
AR Path="/603F279F" Ref="#PWR?"  Part="1" 
AR Path="/602EDC29/603F279F" Ref="#PWR0204"  Part="1" 
F 0 "#PWR0204" H 7300 9000 50  0001 C CNN
F 1 "GND" H 7305 9077 50  0000 C CNN
F 2 "" H 7300 9250 50  0001 C CNN
F 3 "" H 7300 9250 50  0001 C CNN
	1    7300 9250
	1    0    0    -1  
$EndComp
Wire Wire Line
	7300 8950 7300 8850
Wire Wire Line
	7300 8850 7600 8850
Wire Wire Line
	7600 8850 7600 8800
Wire Wire Line
	7600 8850 7600 9450
Connection ~ 7600 8850
Wire Wire Line
	7600 9450 7700 9450
$Comp
L power:GND #PWR?
U 1 1 604086A0
P 7600 9750
AR Path="/604086A0" Ref="#PWR?"  Part="1" 
AR Path="/602EDC29/604086A0" Ref="#PWR0205"  Part="1" 
F 0 "#PWR0205" H 7600 9500 50  0001 C CNN
F 1 "GND" H 7605 9577 50  0000 C CNN
F 2 "" H 7600 9750 50  0001 C CNN
F 3 "" H 7600 9750 50  0001 C CNN
	1    7600 9750
	1    0    0    -1  
$EndComp
Wire Wire Line
	7700 9650 7600 9650
Wire Wire Line
	7600 9650 7600 9750
Wire Wire Line
	12550 7950 13600 7950
$Comp
L power:GND #PWR?
U 1 1 6052291B
P 14350 9500
AR Path="/6052291B" Ref="#PWR?"  Part="1" 
AR Path="/602EDC29/6052291B" Ref="#PWR0206"  Part="1" 
F 0 "#PWR0206" H 14350 9250 50  0001 C CNN
F 1 "GND" H 14355 9327 50  0000 C CNN
F 2 "" H 14350 9500 50  0001 C CNN
F 3 "" H 14350 9500 50  0001 C CNN
	1    14350 9500
	1    0    0    -1  
$EndComp
$Comp
L Device:C C?
U 1 1 60522927
P 15250 9050
AR Path="/60522927" Ref="C?"  Part="1" 
AR Path="/602EDC29/60522927" Ref="C39"  Part="1" 
F 0 "C39" H 15365 9096 50  0000 L CNN
F 1 "220nF" H 15365 9005 50  0000 L CNN
F 2 "Capacitor_SMD:C_0603_1608Metric" H 15288 8900 50  0001 C CNN
F 3 "~" H 15250 9050 50  0001 C CNN
	1    15250 9050
	1    0    0    -1  
$EndComp
Wire Wire Line
	14350 9450 15250 9450
Wire Wire Line
	14950 8650 14950 8700
Connection ~ 14950 8700
Wire Wire Line
	14950 8700 14950 8750
Wire Wire Line
	14350 9400 14350 9450
Connection ~ 14350 9450
Wire Wire Line
	14350 9450 14350 9500
Wire Wire Line
	15250 9200 15250 9450
Wire Wire Line
	15250 8900 15250 8700
Wire Wire Line
	15250 8700 14950 8700
$Comp
L power:+3V3 #PWR?
U 1 1 60603CE1
P 14950 8650
AR Path="/60603CE1" Ref="#PWR?"  Part="1" 
AR Path="/602EDC29/60603CE1" Ref="#PWR0209"  Part="1" 
F 0 "#PWR0209" H 14950 8500 50  0001 C CNN
F 1 "+3V3" H 14965 8823 50  0000 C CNN
F 2 "" H 14950 8650 50  0001 C CNN
F 3 "" H 14950 8650 50  0001 C CNN
	1    14950 8650
	1    0    0    -1  
$EndComp
Connection ~ 9600 10750
Wire Wire Line
	9150 10750 9600 10750
$Comp
L ON_Semiconductor:NL27WZ17DFT2G U?
U 3 1 603ACD59
P 9600 10350
AR Path="/603ACD59" Ref="U?"  Part="3" 
AR Path="/602EDC29/603ACD59" Ref="U16"  Part="3" 
F 0 "U16" H 9658 10396 50  0000 L CNN
F 1 "NL27WZ17DFT2G" H 9658 10305 50  0000 L CNN
F 2 "Package_TO_SOT_SMD:SOT-363_SC-70-6" H 9550 10600 50  0001 C CNN
F 3 "https://www.onsemi.com/pub/Collateral/NL27WZ17-D.PDF" H 9550 10600 50  0001 C CNN
	3    9600 10350
	1    0    0    -1  
$EndComp
Connection ~ 9600 9950
Wire Wire Line
	9600 9950 9150 9950
$Comp
L power:GND #PWR?
U 1 1 603ACD50
P 9600 10750
AR Path="/603ACD50" Ref="#PWR?"  Part="1" 
AR Path="/602EDC29/603ACD50" Ref="#PWR0210"  Part="1" 
F 0 "#PWR0210" H 9600 10500 50  0001 C CNN
F 1 "GND" H 9605 10577 50  0000 C CNN
F 2 "" H 9600 10750 50  0001 C CNN
F 3 "" H 9600 10750 50  0001 C CNN
	1    9600 10750
	1    0    0    -1  
$EndComp
$Comp
L power:+3V3 #PWR?
U 1 1 603ACD4A
P 9600 9950
AR Path="/603ACD4A" Ref="#PWR?"  Part="1" 
AR Path="/602EDC29/603ACD4A" Ref="#PWR0211"  Part="1" 
F 0 "#PWR0211" H 9600 9800 50  0001 C CNN
F 1 "+3V3" H 9615 10123 50  0000 C CNN
F 2 "" H 9600 9950 50  0001 C CNN
F 3 "" H 9600 9950 50  0001 C CNN
	1    9600 9950
	1    0    0    -1  
$EndComp
$Comp
L Device:C C?
U 1 1 603ACD44
P 9150 10350
AR Path="/603ACD44" Ref="C?"  Part="1" 
AR Path="/602EDC29/603ACD44" Ref="C41"  Part="1" 
F 0 "C41" H 9265 10396 50  0000 L CNN
F 1 "100nF" H 9265 10305 50  0000 L CNN
F 2 "Capacitor_SMD:C_0603_1608Metric" H 9188 10200 50  0001 C CNN
F 3 "~" H 9150 10350 50  0001 C CNN
	1    9150 10350
	1    0    0    -1  
$EndComp
Wire Wire Line
	10500 10750 10950 10750
Wire Wire Line
	10500 10500 10500 10750
Wire Wire Line
	10500 9950 10500 10200
Wire Wire Line
	10950 9950 10500 9950
$Comp
L power:GND #PWR?
U 1 1 603ACCBA
P 10950 10750
AR Path="/603ACCBA" Ref="#PWR?"  Part="1" 
AR Path="/602EDC29/603ACCBA" Ref="#PWR0212"  Part="1" 
F 0 "#PWR0212" H 10950 10500 50  0001 C CNN
F 1 "GND" H 10955 10577 50  0000 C CNN
F 2 "" H 10950 10750 50  0001 C CNN
F 3 "" H 10950 10750 50  0001 C CNN
	1    10950 10750
	1    0    0    -1  
$EndComp
$Comp
L power:+3V3 #PWR?
U 1 1 603ACCB4
P 10950 9950
AR Path="/603ACCB4" Ref="#PWR?"  Part="1" 
AR Path="/602EDC29/603ACCB4" Ref="#PWR0213"  Part="1" 
F 0 "#PWR0213" H 10950 9800 50  0001 C CNN
F 1 "+3V3" H 10965 10123 50  0000 C CNN
F 2 "" H 10950 9950 50  0001 C CNN
F 3 "" H 10950 9950 50  0001 C CNN
	1    10950 9950
	1    0    0    -1  
$EndComp
$Comp
L Device:C C?
U 1 1 603ACCAE
P 10500 10350
AR Path="/603ACCAE" Ref="C?"  Part="1" 
AR Path="/602EDC29/603ACCAE" Ref="C42"  Part="1" 
F 0 "C42" H 10615 10396 50  0000 L CNN
F 1 "100nF" H 10615 10305 50  0000 L CNN
F 2 "Capacitor_SMD:C_0603_1608Metric" H 10538 10200 50  0001 C CNN
F 3 "~" H 10500 10350 50  0001 C CNN
	1    10500 10350
	1    0    0    -1  
$EndComp
Wire Wire Line
	6850 3850 6850 3800
Wire Wire Line
	6850 3500 6850 3450
$Comp
L Connector_Generic:Conn_01x04 J?
U 1 1 6041397F
P 7450 3600
AR Path="/6041397F" Ref="J?"  Part="1" 
AR Path="/602EDC29/6041397F" Ref="J10"  Part="1" 
F 0 "J10" H 7400 3800 50  0000 L CNN
F 1 "Supply5V" H 7400 3300 50  0000 L CNN
F 2 "Phoenix_Contact:PTSA-2.5mm-4pins" H 7450 3600 50  0001 C CNN
F 3 "~" H 7450 3600 50  0001 C CNN
	1    7450 3600
	1    0    0    -1  
$EndComp
$Comp
L power:GND #PWR?
U 1 1 60413985
P 7150 3900
AR Path="/60413985" Ref="#PWR?"  Part="1" 
AR Path="/602EDC29/60413985" Ref="#PWR0214"  Part="1" 
F 0 "#PWR0214" H 7150 3650 50  0001 C CNN
F 1 "GND" H 7155 3727 50  0000 C CNN
F 2 "" H 7150 3900 50  0001 C CNN
F 3 "" H 7150 3900 50  0001 C CNN
	1    7150 3900
	1    0    0    -1  
$EndComp
Wire Wire Line
	7250 3600 7150 3600
Wire Wire Line
	7150 3600 7150 3500
Wire Wire Line
	7250 3500 7150 3500
Connection ~ 7150 3500
Wire Wire Line
	7150 3500 7150 3450
Wire Wire Line
	7250 3700 7150 3700
Wire Wire Line
	7150 3700 7150 3800
Wire Wire Line
	7250 3800 7150 3800
Connection ~ 7150 3800
Wire Wire Line
	7150 3800 7150 3850
$Comp
L Device:C C?
U 1 1 60413995
P 6850 3650
AR Path="/60413995" Ref="C?"  Part="1" 
AR Path="/602EDC29/60413995" Ref="C32"  Part="1" 
F 0 "C32" H 6965 3696 50  0000 L CNN
F 1 "10uF" H 6965 3605 50  0000 L CNN
F 2 "Capacitor_SMD:C_0805_2012Metric" H 6888 3500 50  0001 C CNN
F 3 "~" H 6850 3650 50  0001 C CNN
F 4 "GRM21BR71A106KA73K" H 6850 3650 50  0001 C CNN "PartNumber"
	1    6850 3650
	1    0    0    -1  
$EndComp
Wire Wire Line
	6850 3450 7150 3450
Connection ~ 7150 3450
Wire Wire Line
	7150 3450 7150 3400
Wire Wire Line
	7150 3850 6850 3850
Connection ~ 7150 3850
Wire Wire Line
	7150 3850 7150 3900
$Comp
L power:+5V #PWR?
U 1 1 604139A3
P 7150 3400
AR Path="/604139A3" Ref="#PWR?"  Part="1" 
AR Path="/602EDC29/604139A3" Ref="#PWR0215"  Part="1" 
F 0 "#PWR0215" H 7150 3250 50  0001 C CNN
F 1 "+5V" H 7165 3573 50  0000 C CNN
F 2 "" H 7150 3400 50  0001 C CNN
F 3 "" H 7150 3400 50  0001 C CNN
	1    7150 3400
	1    0    0    -1  
$EndComp
$Comp
L Connector_Generic:Conn_01x04 J?
U 1 1 6049C062
P 8650 3550
AR Path="/6049C062" Ref="J?"  Part="1" 
AR Path="/602EDC29/6049C062" Ref="J9"  Part="1" 
F 0 "J9" H 8600 3750 50  0000 L CNN
F 1 "Supply3V3" H 8600 3250 50  0000 L CNN
F 2 "Phoenix_Contact:PTSA-2.5mm-4pins" H 8650 3550 50  0001 C CNN
F 3 "~" H 8650 3550 50  0001 C CNN
	1    8650 3550
	1    0    0    -1  
$EndComp
$Comp
L power:+3V3 #PWR?
U 1 1 6049C068
P 8350 3350
AR Path="/6049C068" Ref="#PWR?"  Part="1" 
AR Path="/602EDC29/6049C068" Ref="#PWR0216"  Part="1" 
F 0 "#PWR0216" H 8350 3200 50  0001 C CNN
F 1 "+3V3" H 8365 3523 50  0000 C CNN
F 2 "" H 8350 3350 50  0001 C CNN
F 3 "" H 8350 3350 50  0001 C CNN
	1    8350 3350
	1    0    0    -1  
$EndComp
$Comp
L power:GND #PWR?
U 1 1 6049C06E
P 8350 3850
AR Path="/6049C06E" Ref="#PWR?"  Part="1" 
AR Path="/602EDC29/6049C06E" Ref="#PWR0217"  Part="1" 
F 0 "#PWR0217" H 8350 3600 50  0001 C CNN
F 1 "GND" H 8355 3677 50  0000 C CNN
F 2 "" H 8350 3850 50  0001 C CNN
F 3 "" H 8350 3850 50  0001 C CNN
	1    8350 3850
	1    0    0    -1  
$EndComp
Wire Wire Line
	8450 3550 8350 3550
Wire Wire Line
	8350 3550 8350 3450
Wire Wire Line
	8450 3450 8350 3450
Connection ~ 8350 3450
Wire Wire Line
	8350 3450 8350 3400
Wire Wire Line
	8450 3650 8350 3650
Wire Wire Line
	8350 3650 8350 3750
Wire Wire Line
	8450 3750 8350 3750
Connection ~ 8350 3750
Wire Wire Line
	8350 3750 8350 3800
$Comp
L Device:C C?
U 1 1 6049C07E
P 8050 3600
AR Path="/6049C07E" Ref="C?"  Part="1" 
AR Path="/602EDC29/6049C07E" Ref="C31"  Part="1" 
F 0 "C31" H 8165 3646 50  0000 L CNN
F 1 "10uF" H 8165 3555 50  0000 L CNN
F 2 "Capacitor_SMD:C_0805_2012Metric" H 8088 3450 50  0001 C CNN
F 3 "~" H 8050 3600 50  0001 C CNN
F 4 "GRM21BR71A106KA73K" H 8050 3600 50  0001 C CNN "PartNumber"
	1    8050 3600
	1    0    0    -1  
$EndComp
Wire Wire Line
	8050 3450 8050 3400
Wire Wire Line
	8050 3400 8350 3400
Connection ~ 8350 3400
Wire Wire Line
	8350 3400 8350 3350
Wire Wire Line
	8350 3800 8050 3800
Wire Wire Line
	8050 3800 8050 3750
Connection ~ 8350 3800
Wire Wire Line
	8350 3800 8350 3850
$Comp
L ON_Semiconductor:NL27WZ17DFT2G U?
U 1 1 603ACCC3
P 12350 1900
AR Path="/603ACCC3" Ref="U?"  Part="3" 
AR Path="/602EDC29/603ACCC3" Ref="U19"  Part="1" 
F 0 "U19" H 12700 1950 50  0000 L CNN
F 1 "NL27WZ17DFT2G" H 12550 1550 50  0000 L CNN
F 2 "Package_TO_SOT_SMD:SOT-363_SC-70-6" H 12300 2150 50  0001 C CNN
F 3 "https://www.onsemi.com/pub/Collateral/NL27WZ17-D.PDF" H 12300 2150 50  0001 C CNN
	1    12350 1900
	1    0    0    -1  
$EndComp
$Comp
L ON_Semiconductor:NL27WZ17DFT2G U?
U 3 1 60D19B07
P 9800 1800
AR Path="/60D19B07" Ref="U?"  Part="1" 
AR Path="/602EDC29/60D19B07" Ref="U19"  Part="3" 
F 0 "U19" H 9950 1900 50  0000 C CNN
F 1 "NL27WZ17DFT2G" H 9850 1974 50  0001 C CNN
F 2 "Package_TO_SOT_SMD:SOT-363_SC-70-6" H 9750 2050 50  0001 C CNN
F 3 "https://www.onsemi.com/pub/Collateral/NL27WZ17-D.PDF" H 9750 2050 50  0001 C CNN
	3    9800 1800
	1    0    0    -1  
$EndComp
Connection ~ 9800 2200
Connection ~ 9800 1400
Connection ~ 9000 1400
Connection ~ 9000 2200
Connection ~ 4850 5300
Connection ~ 4850 4500
Connection ~ 1750 3800
Connection ~ 1750 3000
Connection ~ 10950 9950
Connection ~ 10950 10750
$Comp
L ON_Semiconductor:NL27WZ17DFT2G U?
U 2 1 60625F77
P 4450 5850
AR Path="/60625F77" Ref="U?"  Part="3" 
AR Path="/602EDC29/60625F77" Ref="U8"  Part="2" 
F 0 "U8" H 4100 5900 50  0000 L CNN
F 1 "NL27WZ17DFT2G" H 4508 5805 50  0001 L CNN
F 2 "Package_TO_SOT_SMD:SOT-363_SC-70-6" H 4400 6100 50  0001 C CNN
F 3 "https://www.onsemi.com/pub/Collateral/NL27WZ17-D.PDF" H 4400 6100 50  0001 C CNN
	2    4450 5850
	-1   0    0    -1  
$EndComp
Wire Wire Line
	4900 5750 4100 5750
Wire Wire Line
	3300 5750 3500 5750
Wire Wire Line
	4100 5850 3300 5850
$Comp
L ON_Semiconductor:NL27WZ17DFT2G U?
U 1 1 604E1F33
P 3750 5750
AR Path="/604E1F33" Ref="U?"  Part="2" 
AR Path="/602EDC29/604E1F33" Ref="U8"  Part="1" 
F 0 "U8" H 4100 5800 50  0000 C CNN
F 1 "NL27WZ17DFT2G" H 4000 5550 50  0000 C CNN
F 2 "Package_TO_SOT_SMD:SOT-363_SC-70-6" H 3700 6000 50  0001 C CNN
F 3 "https://www.onsemi.com/pub/Collateral/NL27WZ17-D.PDF" H 3700 6000 50  0001 C CNN
	1    3750 5750
	1    0    0    -1  
$EndComp
Text Label 3300 5850 0    50   ~ 0
RX
Text Label 3300 5750 0    50   ~ 0
TX
Wire Wire Line
	5650 8300 5650 8900
Connection ~ 5650 8300
Wire Wire Line
	5350 8300 5350 8400
Wire Wire Line
	5350 8300 5650 8300
Wire Wire Line
	5650 8250 5650 8300
Wire Wire Line
	5750 8900 5650 8900
$Comp
L power:GND #PWR?
U 1 1 60413973
P 5350 8700
AR Path="/60413973" Ref="#PWR?"  Part="1" 
AR Path="/602EDC29/60413973" Ref="#PWR0176"  Part="1" 
F 0 "#PWR0176" H 5350 8450 50  0001 C CNN
F 1 "GND" H 5355 8527 50  0000 C CNN
F 2 "" H 5350 8700 50  0001 C CNN
F 3 "" H 5350 8700 50  0001 C CNN
	1    5350 8700
	1    0    0    -1  
$EndComp
$Comp
L Device:C C?
U 1 1 6041396D
P 5350 8550
AR Path="/6041396D" Ref="C?"  Part="1" 
AR Path="/602EDC29/6041396D" Ref="C36"  Part="1" 
F 0 "C36" H 5465 8596 50  0000 L CNN
F 1 "1uF" H 5465 8505 50  0000 L CNN
F 2 "Capacitor_SMD:C_0603_1608Metric" H 5388 8400 50  0001 C CNN
F 3 "~" H 5350 8550 50  0001 C CNN
F 4 "C0603C105K4RACTU" H 5350 8550 50  0001 C CNN "PartNumber"
	1    5350 8550
	1    0    0    -1  
$EndComp
Wire Wire Line
	5650 9200 5650 9300
Wire Wire Line
	5750 9200 5650 9200
$Comp
L power:+3V3 #PWR?
U 1 1 60413963
P 5650 8250
AR Path="/60413963" Ref="#PWR?"  Part="1" 
AR Path="/602EDC29/60413963" Ref="#PWR0175"  Part="1" 
F 0 "#PWR0175" H 5650 8100 50  0001 C CNN
F 1 "+3V3" H 5665 8423 50  0000 C CNN
F 2 "" H 5650 8250 50  0001 C CNN
F 3 "" H 5650 8250 50  0001 C CNN
	1    5650 8250
	1    0    0    -1  
$EndComp
$Comp
L power:GND #PWR?
U 1 1 6041395D
P 5650 9300
AR Path="/6041395D" Ref="#PWR?"  Part="1" 
AR Path="/602EDC29/6041395D" Ref="#PWR0174"  Part="1" 
F 0 "#PWR0174" H 5650 9050 50  0001 C CNN
F 1 "GND" H 5655 9127 50  0000 C CNN
F 2 "" H 5650 9300 50  0001 C CNN
F 3 "" H 5650 9300 50  0001 C CNN
	1    5650 9300
	1    0    0    -1  
$EndComp
Text Label 4400 9100 0    50   ~ 0
SCL
Text Label 4400 9000 0    50   ~ 0
SDA
$Comp
L Connector_Generic:Conn_01x04 J?
U 1 1 60413955
P 5950 9000
AR Path="/60413955" Ref="J?"  Part="1" 
AR Path="/602EDC29/60413955" Ref="J15"  Part="1" 
F 0 "J15" H 5900 9200 50  0000 L CNN
F 1 "I2C" H 5900 8700 50  0000 L CNN
F 2 "Phoenix_Contact:PTSA-2.5mm-4pins" H 5950 9000 50  0001 C CNN
F 3 "~" H 5950 9000 50  0001 C CNN
	1    5950 9000
	1    0    0    -1  
$EndComp
Wire Wire Line
	4700 10400 4700 10450
Connection ~ 4700 10400
Wire Wire Line
	5450 10400 5450 10150
Wire Wire Line
	4700 10400 5450 10400
Wire Wire Line
	4950 9650 4950 9600
Connection ~ 4950 9650
Wire Wire Line
	5450 9650 5450 9850
Wire Wire Line
	4950 9650 5450 9650
Wire Wire Line
	4950 9700 4950 9650
Wire Wire Line
	4700 10350 4700 10400
$Comp
L power:GND #PWR?
U 1 1 5FF85144
P 4700 10450
AR Path="/5FF85144" Ref="#PWR?"  Part="1" 
AR Path="/602EDC29/5FF85144" Ref="#PWR0189"  Part="1" 
F 0 "#PWR0189" H 4700 10200 50  0001 C CNN
F 1 "GND" H 4705 10277 50  0000 C CNN
F 2 "" H 4700 10450 50  0001 C CNN
F 3 "" H 4700 10450 50  0001 C CNN
	1    4700 10450
	1    0    0    -1  
$EndComp
$Comp
L Device:C C?
U 1 1 5FF843E7
P 5450 10000
AR Path="/5FF843E7" Ref="C?"  Part="1" 
AR Path="/602EDC29/5FF843E7" Ref="C40"  Part="1" 
F 0 "C40" H 5565 10046 50  0000 L CNN
F 1 "220nF" H 5565 9955 50  0000 L CNN
F 2 "Capacitor_SMD:C_0603_1608Metric" H 5488 9850 50  0001 C CNN
F 3 "~" H 5450 10000 50  0001 C CNN
	1    5450 10000
	1    0    0    -1  
$EndComp
$Comp
L power:+3V3 #PWR?
U 1 1 5FF80CAD
P 4950 9600
AR Path="/5FF80CAD" Ref="#PWR?"  Part="1" 
AR Path="/602EDC29/5FF80CAD" Ref="#PWR0188"  Part="1" 
F 0 "#PWR0188" H 4950 9450 50  0001 C CNN
F 1 "+3V3" H 4965 9773 50  0000 C CNN
F 2 "" H 4950 9600 50  0001 C CNN
F 3 "" H 4950 9600 50  0001 C CNN
	1    4950 9600
	1    0    0    -1  
$EndComp
Wire Wire Line
	4900 5750 4900 6450
Wire Wire Line
	5050 5850 5050 6450
Wire Wire Line
	4950 7150 4950 7200
Connection ~ 4950 7150
Wire Wire Line
	5700 7150 5700 6900
Wire Wire Line
	4950 7150 5700 7150
Wire Wire Line
	5200 6400 5200 6350
Connection ~ 5200 6400
Wire Wire Line
	5700 6400 5700 6600
Wire Wire Line
	5200 6400 5700 6400
Wire Wire Line
	5200 6450 5200 6400
Wire Wire Line
	4950 7100 4950 7150
$Comp
L power:GND #PWR?
U 1 1 600CE9D2
P 4950 7200
AR Path="/600CE9D2" Ref="#PWR?"  Part="1" 
AR Path="/602EDC29/600CE9D2" Ref="#PWR01"  Part="1" 
F 0 "#PWR01" H 4950 6950 50  0001 C CNN
F 1 "GND" H 4955 7027 50  0000 C CNN
F 2 "" H 4950 7200 50  0001 C CNN
F 3 "" H 4950 7200 50  0001 C CNN
	1    4950 7200
	1    0    0    -1  
$EndComp
$Comp
L Device:C C?
U 1 1 600CE9D8
P 5700 6750
AR Path="/600CE9D8" Ref="C?"  Part="1" 
AR Path="/602EDC29/600CE9D8" Ref="C43"  Part="1" 
F 0 "C43" H 5815 6796 50  0000 L CNN
F 1 "220nF" H 5815 6705 50  0000 L CNN
F 2 "Capacitor_SMD:C_0603_1608Metric" H 5738 6600 50  0001 C CNN
F 3 "~" H 5700 6750 50  0001 C CNN
	1    5700 6750
	1    0    0    -1  
$EndComp
$Comp
L power:+3V3 #PWR?
U 1 1 600CE9DE
P 5200 6350
AR Path="/600CE9DE" Ref="#PWR?"  Part="1" 
AR Path="/602EDC29/600CE9DE" Ref="#PWR02"  Part="1" 
F 0 "#PWR02" H 5200 6200 50  0001 C CNN
F 1 "+3V3" H 5215 6523 50  0000 C CNN
F 2 "" H 5200 6350 50  0001 C CNN
F 3 "" H 5200 6350 50  0001 C CNN
	1    5200 6350
	1    0    0    -1  
$EndComp
Wire Wire Line
	4700 5850 5050 5850
Connection ~ 5050 5850
Wire Wire Line
	5050 5850 5700 5850
Wire Wire Line
	5700 5750 4900 5750
Connection ~ 4900 5750
$Comp
L Graphic:Logo_Open_Hardware_Large #LOGO2
U 1 1 6035B9C0
P 8850 7700
F 0 "#LOGO2" H 8850 8200 50  0001 C CNN
F 1 "Logo_Open_Hardware_Large" H 8850 7300 50  0001 C CNN
F 2 "" H 8850 7700 50  0001 C CNN
F 3 "~" H 8850 7700 50  0001 C CNN
	1    8850 7700
	1    0    0    -1  
$EndComp
$Comp
L Graphic:SYM_ESD_Large #SYM2
U 1 1 6035DD9E
P 7500 7650
F 0 "#SYM2" H 7500 7850 50  0001 C CNN
F 1 "SYM_ESD_Large" H 7500 7400 50  0001 C CNN
F 2 "" H 7495 7620 50  0001 C CNN
F 3 "~" H 7495 7620 50  0001 C CNN
	1    7500 7650
	1    0    0    -1  
$EndComp
$Comp
L power:GND #PWR?
U 1 1 602ACDDA
P 9150 5900
AR Path="/602ACDDA" Ref="#PWR?"  Part="1" 
AR Path="/602EDC29/602ACDDA" Ref="#PWR0158"  Part="1" 
F 0 "#PWR0158" H 9150 5650 50  0001 C CNN
F 1 "GND" H 9155 5727 50  0000 C CNN
F 2 "" H 9150 5900 50  0001 C CNN
F 3 "" H 9150 5900 50  0001 C CNN
	1    9150 5900
	1    0    0    -1  
$EndComp
Wire Wire Line
	9250 5800 9150 5800
Wire Wire Line
	9150 5800 9150 5900
$Comp
L power:+3V3 #PWR?
U 1 1 602C3284
P 9000 4550
AR Path="/602C3284" Ref="#PWR?"  Part="1" 
AR Path="/602EDC29/602C3284" Ref="#PWR0159"  Part="1" 
F 0 "#PWR0159" H 9000 4400 50  0001 C CNN
F 1 "+3V3" H 9015 4723 50  0000 C CNN
F 2 "" H 9000 4550 50  0001 C CNN
F 3 "" H 9000 4550 50  0001 C CNN
	1    9000 4550
	1    0    0    -1  
$EndComp
$Comp
L Device:R R93
U 1 1 602C9313
P 9000 4700
F 0 "R93" H 9070 4746 50  0000 L CNN
F 1 "100k" H 9070 4655 50  0000 L CNN
F 2 "Resistor_SMD:R_0603_1608Metric" V 8930 4700 50  0001 C CNN
F 3 "~" H 9000 4700 50  0001 C CNN
	1    9000 4700
	1    0    0    -1  
$EndComp
$Comp
L power:+3V3 #PWR?
U 1 1 602CEAE8
P 8650 4550
AR Path="/602CEAE8" Ref="#PWR?"  Part="1" 
AR Path="/602EDC29/602CEAE8" Ref="#PWR0160"  Part="1" 
F 0 "#PWR0160" H 8650 4400 50  0001 C CNN
F 1 "+3V3" H 8665 4723 50  0000 C CNN
F 2 "" H 8650 4550 50  0001 C CNN
F 3 "" H 8650 4550 50  0001 C CNN
	1    8650 4550
	1    0    0    -1  
$EndComp
$Comp
L Device:R R92
U 1 1 602CEAEE
P 8650 4700
F 0 "R92" H 8720 4746 50  0000 L CNN
F 1 "100k" H 8720 4655 50  0000 L CNN
F 2 "Resistor_SMD:R_0603_1608Metric" V 8580 4700 50  0001 C CNN
F 3 "~" H 8650 4700 50  0001 C CNN
	1    8650 4700
	1    0    0    -1  
$EndComp
Wire Wire Line
	8650 5500 8650 4850
$Comp
L Device:R R95
U 1 1 6034A7DB
P 10850 5500
F 0 "R95" V 10800 5250 50  0000 L CNN
F 1 "2k2" V 10800 5650 50  0000 L CNN
F 2 "Resistor_SMD:R_0603_1608Metric" V 10780 5500 50  0001 C CNN
F 3 "~" H 10850 5500 50  0001 C CNN
	1    10850 5500
	0    1    1    0   
$EndComp
$Comp
L ON_Semiconductor:MOCD223M U12
U 1 1 603675B1
P 9850 5400
F 0 "U12" H 10300 5950 50  0000 C CNN
F 1 "MOCD223M" H 9500 5950 50  0000 C CNN
F 2 "Package_SO:SOIC-8_3.9x4.9mm_P1.27mm" H 9900 4850 50  0001 C CNN
F 3 "https://www.onsemi.com/pub/Collateral/MOCD223M-D.PDF" H 9850 5400 50  0001 C CNN
	1    9850 5400
	-1   0    0    -1  
$EndComp
Wire Wire Line
	9000 4850 9000 5000
Connection ~ 8650 5500
Wire Wire Line
	8650 5500 9250 5500
Connection ~ 9000 5000
Wire Wire Line
	9000 5000 9250 5000
Wire Wire Line
	8150 5000 9000 5000
Wire Wire Line
	8150 5500 8650 5500
$Comp
L power:GND #PWR?
U 1 1 60427782
P 9150 5300
AR Path="/60427782" Ref="#PWR?"  Part="1" 
AR Path="/602EDC29/60427782" Ref="#PWR0161"  Part="1" 
F 0 "#PWR0161" H 9150 5050 50  0001 C CNN
F 1 "GND" V 9150 5100 50  0000 C CNN
F 2 "" H 9150 5300 50  0001 C CNN
F 3 "" H 9150 5300 50  0001 C CNN
	1    9150 5300
	0    1    1    0   
$EndComp
Wire Wire Line
	9250 5300 9150 5300
Wire Wire Line
	10700 5500 10500 5500
$Comp
L Device:R R94
U 1 1 6047B4BF
P 10850 5000
F 0 "R94" V 10800 4750 50  0000 L CNN
F 1 "2k2" V 10800 5150 50  0000 L CNN
F 2 "Resistor_SMD:R_0603_1608Metric" V 10780 5000 50  0001 C CNN
F 3 "~" H 10850 5000 50  0001 C CNN
	1    10850 5000
	0    1    1    0   
$EndComp
Wire Wire Line
	10700 5000 10500 5000
Wire Wire Line
	11500 5000 11000 5000
Wire Wire Line
	10500 5300 10650 5300
Wire Wire Line
	10650 5300 10650 5100
Wire Wire Line
	10650 5100 11500 5100
Wire Wire Line
	11000 5500 11200 5500
Wire Wire Line
	11200 5500 11200 5200
Wire Wire Line
	11200 5200 11500 5200
Wire Wire Line
	11300 5800 11300 5300
Wire Wire Line
	11300 5300 11500 5300
Wire Wire Line
	10500 5800 11300 5800
$Comp
L ON_Semiconductor:MOCD223M U13
U 1 1 60541690
P 13900 5450
F 0 "U13" H 14350 6000 50  0000 C CNN
F 1 "MOCD223M" H 13550 6000 50  0000 C CNN
F 2 "Package_SO:SOIC-8_3.9x4.9mm_P1.27mm" H 13950 4900 50  0001 C CNN
F 3 "https://www.onsemi.com/pub/Collateral/MOCD223M-D.PDF" H 13900 5450 50  0001 C CNN
	1    13900 5450
	1    0    0    -1  
$EndComp
$Comp
L Device:R R97
U 1 1 605AC37F
P 13000 4700
F 0 "R97" H 12800 4650 50  0000 L CNN
F 1 "2k2" H 12800 4750 50  0000 L CNN
F 2 "Resistor_SMD:R_0603_1608Metric" V 12930 4700 50  0001 C CNN
F 3 "~" H 13000 4700 50  0001 C CNN
	1    13000 4700
	-1   0    0    1   
$EndComp
$Comp
L power:+3V3 #PWR?
U 1 1 605ACEB4
P 13000 4550
AR Path="/605ACEB4" Ref="#PWR?"  Part="1" 
AR Path="/602EDC29/605ACEB4" Ref="#PWR0162"  Part="1" 
F 0 "#PWR0162" H 13000 4400 50  0001 C CNN
F 1 "+3V3" H 13015 4723 50  0000 C CNN
F 2 "" H 13000 4550 50  0001 C CNN
F 3 "" H 13000 4550 50  0001 C CNN
	1    13000 4550
	1    0    0    -1  
$EndComp
$Comp
L Device:R R96
U 1 1 605B8B7A
P 12700 4700
F 0 "R96" H 12500 4650 50  0000 L CNN
F 1 "2k2" H 12500 4750 50  0000 L CNN
F 2 "Resistor_SMD:R_0603_1608Metric" V 12630 4700 50  0001 C CNN
F 3 "~" H 12700 4700 50  0001 C CNN
	1    12700 4700
	-1   0    0    1   
$EndComp
$Comp
L power:+3V3 #PWR?
U 1 1 605B8B80
P 12700 4550
AR Path="/605B8B80" Ref="#PWR?"  Part="1" 
AR Path="/602EDC29/605B8B80" Ref="#PWR0163"  Part="1" 
F 0 "#PWR0163" H 12700 4400 50  0001 C CNN
F 1 "+3V3" H 12715 4723 50  0000 C CNN
F 2 "" H 12700 4550 50  0001 C CNN
F 3 "" H 12700 4550 50  0001 C CNN
	1    12700 4550
	1    0    0    -1  
$EndComp
Wire Wire Line
	13000 4850 13000 5050
Wire Wire Line
	13000 5050 13250 5050
Wire Wire Line
	13250 5550 12700 5550
Wire Wire Line
	12700 5550 12700 4850
$Comp
L power:GND #PWR?
U 1 1 605EFDF7
P 13150 6350
AR Path="/605EFDF7" Ref="#PWR?"  Part="1" 
AR Path="/602EDC29/605EFDF7" Ref="#PWR0164"  Part="1" 
F 0 "#PWR0164" H 13150 6100 50  0001 C CNN
F 1 "GND" H 13155 6177 50  0000 C CNN
F 2 "" H 13150 6350 50  0001 C CNN
F 3 "" H 13150 6350 50  0001 C CNN
	1    13150 6350
	1    0    0    -1  
$EndComp
$Comp
L power:GND #PWR?
U 1 1 605F0EA3
P 12800 6800
AR Path="/605F0EA3" Ref="#PWR?"  Part="1" 
AR Path="/602EDC29/605F0EA3" Ref="#PWR0170"  Part="1" 
F 0 "#PWR0170" H 12800 6550 50  0001 C CNN
F 1 "GND" H 12805 6627 50  0000 C CNN
F 2 "" H 12800 6800 50  0001 C CNN
F 3 "" H 12800 6800 50  0001 C CNN
	1    12800 6800
	1    0    0    -1  
$EndComp
Wire Wire Line
	13250 5850 13150 5850
Wire Wire Line
	13150 5850 13150 5950
Wire Wire Line
	13250 5350 12800 5350
Wire Wire Line
	12800 5350 12800 6400
Wire Wire Line
	12850 6150 12250 6150
Wire Wire Line
	12500 6600 12250 6600
$Comp
L Connector_Generic:Conn_01x04 J16
U 1 1 6064B399
P 15500 5150
F 0 "J16" H 15450 5350 50  0000 L CNN
F 1 "ISO_OUT" H 15450 4850 50  0000 L CNN
F 2 "Phoenix_Contact:PTSA-2.5mm-4pins" H 15500 5150 50  0001 C CNN
F 3 "~" H 15500 5150 50  0001 C CNN
	1    15500 5150
	1    0    0    -1  
$EndComp
$Comp
L Device:R R99
U 1 1 6064D4D3
P 14850 5550
F 0 "R99" V 14800 5300 50  0000 L CNN
F 1 "0E" V 14800 5700 50  0000 L CNN
F 2 "Resistor_SMD:R_0603_1608Metric" V 14780 5550 50  0001 C CNN
F 3 "~" H 14850 5550 50  0001 C CNN
	1    14850 5550
	0    1    1    0   
$EndComp
$Comp
L Device:R R98
U 1 1 606525D0
P 14850 5050
F 0 "R98" V 14800 4800 50  0000 L CNN
F 1 "0E" V 14800 5200 50  0000 L CNN
F 2 "Resistor_SMD:R_0603_1608Metric" V 14780 5050 50  0001 C CNN
F 3 "~" H 14850 5050 50  0001 C CNN
	1    14850 5050
	0    1    1    0   
$EndComp
Wire Wire Line
	14700 5050 14500 5050
Wire Wire Line
	14700 5550 14500 5550
Wire Wire Line
	15300 5050 15000 5050
Wire Wire Line
	15000 5550 15150 5550
Wire Wire Line
	15150 5550 15150 5250
Wire Wire Line
	15300 5250 15150 5250
Wire Wire Line
	14500 5850 15250 5850
Wire Wire Line
	15250 5850 15250 5350
Wire Wire Line
	15250 5350 15300 5350
Wire Wire Line
	14500 5350 14950 5350
Wire Wire Line
	14950 5350 14950 5150
Wire Wire Line
	14950 5150 15300 5150
$Comp
L Device:Q_NMOS_GSD Q2
U 1 1 60794798
P 12700 6600
F 0 "Q2" H 12905 6646 50  0000 L CNN
F 1 "NTR5103NT1G" H 12905 6555 50  0000 L CNN
F 2 "Package_TO_SOT_SMD:SOT-23" H 12900 6700 50  0001 C CNN
F 3 "~" H 12700 6600 50  0001 C CNN
	1    12700 6600
	1    0    0    -1  
$EndComp
$Comp
L Device:Q_NMOS_GSD Q3
U 1 1 607969CD
P 13050 6150
F 0 "Q3" H 13255 6196 50  0000 L CNN
F 1 "NTR5103NT1G" H 13255 6105 50  0000 L CNN
F 2 "Package_TO_SOT_SMD:SOT-23" H 13250 6250 50  0001 C CNN
F 3 "~" H 13050 6150 50  0001 C CNN
	1    13050 6150
	1    0    0    -1  
$EndComp
Text HLabel 7350 9550 0    50   BiDi ~ 0
1Wire
Text HLabel 4400 9000 0    50   BiDi ~ 0
SDA
Text HLabel 4400 9100 0    50   Input ~ 0
SCL
Text HLabel 3300 5750 0    50   Input ~ 0
TX
Text HLabel 3300 5850 0    50   Output ~ 0
RX
Text HLabel 2300 2050 0    50   Output ~ 0
LDIN
Text HLabel 2300 2150 0    50   Input ~ 0
LDOUT
Text HLabel 2300 2250 0    50   Input ~ 0
LCLK
Text HLabel 2300 2350 0    50   Input ~ 0
LCS
Text HLabel 8150 5000 0    50   Output ~ 0
ISO_IN1
Text HLabel 8150 5500 0    50   Output ~ 0
ISO_IN2
Text HLabel 12250 6150 0    50   Input ~ 0
ISO_OUT1
Text HLabel 12250 6600 0    50   Input ~ 0
ISO_OUT2
Text Label 5200 2050 0    50   ~ 0
LCD_DIN
Text Label 5200 2150 0    50   ~ 0
LCD_DOUT
Text Label 5200 2250 0    50   ~ 0
LCD_CLK
Text Label 5200 2350 0    50   ~ 0
LCD_CS
Text Label 14200 1800 0    50   ~ 0
MISO_b
Text Label 14200 1900 0    50   ~ 0
MOSI_b
Text Label 14200 2000 0    50   ~ 0
SCLK_b
Text Label 14200 2100 0    50   ~ 0
CS_b
Wire Wire Line
	2300 2350 2850 2350
$Comp
L ON_Semiconductor:CM1213A−04S7 U17
U 1 1 6036D4D8
P 14650 9100
F 0 "U17" H 15050 9350 50  0000 L CNN
F 1 "CM1213A−04S7" H 14450 8850 50  0000 L CNN
F 2 "Package_TO_SOT_SMD:SOT-363_SC-70-6" H 14850 8850 50  0001 C CNN
F 3 "https://www.onsemi.com/pub/Collateral/CM1213A-D.PDF" H 14850 8850 50  0001 C CNN
	1    14650 9100
	1    0    0    -1  
$EndComp
$Comp
L ON_Semiconductor:CM1213A−04S7 U10
U 1 1 60384960
P 13750 2950
F 0 "U10" H 14150 3200 50  0000 L CNN
F 1 "CM1213A−04S7" H 13550 2700 50  0000 L CNN
F 2 "Package_TO_SOT_SMD:SOT-363_SC-70-6" H 13950 2700 50  0001 C CNN
F 3 "https://www.onsemi.com/pub/Collateral/CM1213A-D.PDF" H 13950 2700 50  0001 C CNN
	1    13750 2950
	1    0    0    -1  
$EndComp
$Comp
L ON_Semiconductor:CM1213A−02SO U18
U 1 1 60392D9B
P 4800 10050
F 0 "U18" H 5050 10300 50  0000 L CNN
F 1 "CM1213A−02SO" H 4800 9800 50  0000 L CNN
F 2 "Package_SO:SC-74-6_1.5x2.9mm_P0.95mm" H 5075 9800 50  0001 C CNN
F 3 "https://www.onsemi.com/pub/Collateral/CM1213A-D.PDF" H 5075 9800 50  0001 C CNN
	1    4800 10050
	1    0    0    -1  
$EndComp
$Comp
L ON_Semiconductor:CM1213A−02SO U20
U 1 1 60395D3E
P 5050 6800
F 0 "U20" H 5300 7050 50  0000 L CNN
F 1 "CM1213A−02SO" H 5050 6550 50  0000 L CNN
F 2 "Package_SO:SC-74-6_1.5x2.9mm_P0.95mm" H 5325 6550 50  0001 C CNN
F 3 "https://www.onsemi.com/pub/Collateral/CM1213A-D.PDF" H 5325 6550 50  0001 C CNN
	1    5050 6800
	1    0    0    -1  
$EndComp
Text HLabel 12550 7950 0    50   Output ~ 0
DC_PROT1
Text HLabel 12550 8050 0    50   Output ~ 0
DC_PROT2
Text HLabel 12550 8150 0    50   Input ~ 0
SPK_ON1
Text HLabel 12550 8250 0    50   Input ~ 0
SPK_ON2
Text HLabel 11750 1800 0    50   Output ~ 0
MISO
Text HLabel 11750 1900 0    50   Input ~ 0
MOSI
Text HLabel 11750 2000 0    50   Input ~ 0
SCLK
Text HLabel 11750 2100 0    50   Input ~ 0
CS
Wire Wire Line
	14200 8150 14750 8150
Wire Wire Line
	13550 8250 14600 8250
Wire Wire Line
	14600 8750 14600 8250
Connection ~ 14600 8250
Wire Wire Line
	14600 8250 15000 8250
Wire Wire Line
	14750 8750 14750 8150
Connection ~ 14750 8150
Wire Wire Line
	14750 8150 15000 8150
Wire Wire Line
	14200 7950 14450 7950
Wire Wire Line
	14300 8750 14300 8050
Wire Wire Line
	13550 8050 14300 8050
Connection ~ 14300 8050
Wire Wire Line
	14300 8050 15000 8050
Wire Wire Line
	14450 8750 14450 7950
Connection ~ 14450 7950
Wire Wire Line
	14450 7950 15000 7950
Wire Wire Line
	4400 9100 4650 9100
Wire Wire Line
	4400 9000 4800 9000
Wire Wire Line
	4800 9700 4800 9000
Connection ~ 4800 9000
Wire Wire Line
	4800 9000 5750 9000
Wire Wire Line
	4650 9700 4650 9100
Connection ~ 4650 9100
Wire Wire Line
	4650 9100 5750 9100
Wire Wire Line
	3450 2150 4150 2150
Wire Wire Line
	4050 2050 4300 2050
Wire Wire Line
	4150 2850 4150 2150
Connection ~ 4150 2150
Wire Wire Line
	4150 2150 4400 2150
Connection ~ 4300 2050
Wire Wire Line
	4300 2050 5750 2050
Wire Wire Line
	4300 2050 4300 2850
Text Label 8150 5000 0    50   ~ 0
ISO_IN1
Text Label 8150 5500 0    50   ~ 0
ISO_IN2
$EndSCHEMATC
