EESchema Schematic File Version 4
EELAYER 30 0
EELAYER END
$Descr A3 16535 11693
encoding utf-8
Sheet 1 2
Title "Raspberry Pi Amplifier Shield"
Date "2020-12-28"
Rev "1.0"
Comp "Tijl Schepens"
Comment1 ""
Comment2 ""
Comment3 ""
Comment4 ""
$EndDescr
$Comp
L Connector_Generic:Conn_02x20_Odd_Even J2
U 1 1 5FF2C2DC
P 3300 2800
F 0 "J2" H 3350 3917 50  0000 C CNN
F 1 "RPi" H 3350 3826 50  0000 C CNN
F 2 "Samtec:Samtec_HLE-120-02-xxx-DV-BE_2x20_P2.54mm_Horizontal-2" H 3300 2800 50  0001 C CNN
F 3 "~" H 3300 2800 50  0001 C CNN
	1    3300 2800
	1    0    0    -1  
$EndComp
$Comp
L power:+3V3 #PWR0101
U 1 1 5FF2FF6E
P 3000 1800
F 0 "#PWR0101" H 3000 1650 50  0001 C CNN
F 1 "+3V3" H 3015 1973 50  0000 C CNN
F 2 "" H 3000 1800 50  0001 C CNN
F 3 "" H 3000 1800 50  0001 C CNN
	1    3000 1800
	1    0    0    -1  
$EndComp
$Comp
L power:+5V #PWR0102
U 1 1 5FF30782
P 3700 1800
F 0 "#PWR0102" H 3700 1650 50  0001 C CNN
F 1 "+5V" H 3715 1973 50  0000 C CNN
F 2 "" H 3700 1800 50  0001 C CNN
F 3 "" H 3700 1800 50  0001 C CNN
	1    3700 1800
	1    0    0    -1  
$EndComp
$Comp
L power:GND #PWR0103
U 1 1 5FF312F5
P 3050 3900
F 0 "#PWR0103" H 3050 3650 50  0001 C CNN
F 1 "GND" H 3055 3727 50  0000 C CNN
F 2 "" H 3050 3900 50  0001 C CNN
F 3 "" H 3050 3900 50  0001 C CNN
	1    3050 3900
	1    0    0    -1  
$EndComp
Wire Wire Line
	3600 2000 3700 2000
Wire Wire Line
	3700 2000 3700 1900
Wire Wire Line
	3600 1900 3700 1900
Connection ~ 3700 1900
Wire Wire Line
	3700 1900 3700 1800
Wire Wire Line
	3100 1900 3000 1900
Wire Wire Line
	3000 1900 3000 1800
Wire Wire Line
	3100 2700 3000 2700
Wire Wire Line
	3000 2700 3000 1900
Connection ~ 3000 1900
Text Label 2600 2000 0    50   ~ 0
I2C1_SDA
Text Label 2600 2100 0    50   ~ 0
I2C1_SCL
Text Label 2600 2200 0    50   ~ 0
GPIO4
Wire Wire Line
	3100 2300 3050 2300
Wire Wire Line
	3050 2300 3050 3100
Text Label 2600 2400 0    50   ~ 0
GPIO17
Text Label 2600 2500 0    50   ~ 0
GPIO27
Text Label 2600 2600 0    50   ~ 0
GPIO22
Text Label 2600 2800 0    50   ~ 0
SPI0_MOSI
Text Label 2600 2900 0    50   ~ 0
SPI0_MISO
Text Label 2600 3000 0    50   ~ 0
SPI0_SCLK
Wire Wire Line
	3100 3100 3050 3100
Connection ~ 3050 3100
Wire Wire Line
	3050 3100 3050 3800
Wire Wire Line
	3100 3800 3050 3800
Connection ~ 3050 3800
Wire Wire Line
	3050 3800 3050 3900
Text Label 2600 3200 0    50   ~ 0
GPIO0
Text Label 2600 3300 0    50   ~ 0
GPIO5
Text Label 2600 3400 0    50   ~ 0
GPIO6
Text Label 2600 3500 0    50   ~ 0
PWM1
Text Label 2600 3600 0    50   ~ 0
PCM_FS
Text Label 2600 3700 0    50   ~ 0
GPIO26
Text Label 3750 2200 0    50   ~ 0
UART_TX
Text Label 3750 2300 0    50   ~ 0
UART_RX
Text Label 3750 2400 0    50   ~ 0
PCM_CLK
Text Label 3750 2600 0    50   ~ 0
GPIO23
Text Label 3750 2700 0    50   ~ 0
GPIO24
Text Label 3750 2900 0    50   ~ 0
GPIO25
Text Label 3750 3000 0    50   ~ 0
GPIO8
Text Label 3750 3100 0    50   ~ 0
GPIO7
Text Label 3750 3200 0    50   ~ 0
GPIO1
Text Label 3750 3400 0    50   ~ 0
PWM0
Text Label 3750 3600 0    50   ~ 0
GPIO16
Text Label 3750 3700 0    50   ~ 0
PCM_DIN
Text Label 3750 3800 0    50   ~ 0
PCM_DOUT
Wire Wire Line
	3600 2100 3650 2100
Wire Wire Line
	3650 2100 3650 2500
Wire Wire Line
	3600 2500 3650 2500
Connection ~ 3650 2500
Wire Wire Line
	3600 2800 3650 2800
Connection ~ 3650 2800
Wire Wire Line
	3650 2800 3650 3300
Wire Wire Line
	3600 3300 3650 3300
Connection ~ 3650 3300
Wire Wire Line
	3650 3300 3650 3500
Wire Wire Line
	3600 3500 3650 3500
Connection ~ 3650 3500
Wire Wire Line
	3650 3500 3650 3900
$Comp
L power:GND #PWR0104
U 1 1 5FF559C2
P 3650 3900
F 0 "#PWR0104" H 3650 3650 50  0001 C CNN
F 1 "GND" H 3655 3727 50  0000 C CNN
F 2 "" H 3650 3900 50  0001 C CNN
F 3 "" H 3650 3900 50  0001 C CNN
	1    3650 3900
	1    0    0    -1  
$EndComp
$Comp
L ON_Semiconductor:CAT9532Y U1
U 1 1 5FE74EC7
P 10050 2900
F 0 "U1" H 10075 4215 50  0000 C CNN
F 1 "CAT9532Y" H 10075 4124 50  0000 C CNN
F 2 "Package_SO:TSSOP-24_4.4x7.8mm_P0.65mm" H 9500 4050 50  0001 C CNN
F 3 "" H 9500 4050 50  0001 C CNN
	1    10050 2900
	1    0    0    -1  
$EndComp
$Comp
L power:+3V3 #PWR0111
U 1 1 5FE75D0B
P 9400 1200
F 0 "#PWR0111" H 9400 1050 50  0001 C CNN
F 1 "+3V3" H 9415 1373 50  0000 C CNN
F 2 "" H 9400 1200 50  0001 C CNN
F 3 "" H 9400 1200 50  0001 C CNN
	1    9400 1200
	1    0    0    -1  
$EndComp
$Comp
L Device:C C1
U 1 1 5FE767A8
P 9000 1450
F 0 "C1" H 9115 1496 50  0000 L CNN
F 1 "100nF" H 9115 1405 50  0000 L CNN
F 2 "Capacitor_SMD:C_0603_1608Metric" H 9038 1300 50  0001 C CNN
F 3 "~" H 9000 1450 50  0001 C CNN
	1    9000 1450
	1    0    0    -1  
$EndComp
$Comp
L power:GND #PWR0112
U 1 1 5FE77208
P 9000 1600
F 0 "#PWR0112" H 9000 1350 50  0001 C CNN
F 1 "GND" H 9005 1427 50  0000 C CNN
F 2 "" H 9000 1600 50  0001 C CNN
F 3 "" H 9000 1600 50  0001 C CNN
	1    9000 1600
	1    0    0    -1  
$EndComp
Wire Wire Line
	9500 1850 9400 1850
Wire Wire Line
	9400 1850 9400 1250
Wire Wire Line
	9000 1250 9000 1300
Wire Wire Line
	9000 1250 9400 1250
Connection ~ 9400 1250
Wire Wire Line
	9400 1250 9400 1200
$Comp
L power:GND #PWR0113
U 1 1 5FE81AB4
P 9400 4200
F 0 "#PWR0113" H 9400 3950 50  0001 C CNN
F 1 "GND" H 9405 4027 50  0000 C CNN
F 2 "" H 9400 4200 50  0001 C CNN
F 3 "" H 9400 4200 50  0001 C CNN
	1    9400 4200
	1    0    0    -1  
$EndComp
Wire Wire Line
	9500 4100 9400 4100
Wire Wire Line
	9400 4100 9400 4200
Text Label 10700 1850 0    50   ~ 0
LED0
Text Label 10700 2000 0    50   ~ 0
LED1
Text Label 10700 2150 0    50   ~ 0
LED2
Text Label 10700 2300 0    50   ~ 0
LED3
Text Label 10700 2450 0    50   ~ 0
LED4
Text Label 10700 2600 0    50   ~ 0
LED5
Text Label 10700 2750 0    50   ~ 0
LED6
Text Label 10700 2900 0    50   ~ 0
LED7
Text Label 10700 3050 0    50   ~ 0
LED8
Text Label 10700 3200 0    50   ~ 0
IOE0
Text Label 10700 3350 0    50   ~ 0
IOE1
Text Label 10700 3500 0    50   ~ 0
IOE2
Text Label 10700 3650 0    50   ~ 0
IOE3
Text Label 10700 3800 0    50   ~ 0
IOE4
Text Label 10700 3950 0    50   ~ 0
IOE5
Text Label 10700 4100 0    50   ~ 0
IOE6
$Comp
L Device:R R3
U 1 1 5FEEE33D
P 11200 1850
F 0 "R3" V 11150 1650 50  0000 C CNN
F 1 "150E" V 11150 2100 50  0000 C CNN
F 2 "Resistor_SMD:R_0603_1608Metric" V 11130 1850 50  0001 C CNN
F 3 "~" H 11200 1850 50  0001 C CNN
	1    11200 1850
	0    1    1    0   
$EndComp
$Comp
L Device:R R5
U 1 1 5FEF043B
P 11200 2000
F 0 "R5" V 11150 1800 50  0000 C CNN
F 1 "150E" V 11150 2250 50  0000 C CNN
F 2 "Resistor_SMD:R_0603_1608Metric" V 11130 2000 50  0001 C CNN
F 3 "~" H 11200 2000 50  0001 C CNN
	1    11200 2000
	0    1    1    0   
$EndComp
$Comp
L Device:R R7
U 1 1 5FEF0864
P 11200 2150
F 0 "R7" V 11150 1950 50  0000 C CNN
F 1 "150E" V 11150 2400 50  0000 C CNN
F 2 "Resistor_SMD:R_0603_1608Metric" V 11130 2150 50  0001 C CNN
F 3 "~" H 11200 2150 50  0001 C CNN
	1    11200 2150
	0    1    1    0   
$EndComp
$Comp
L Device:R R11
U 1 1 5FEF0AA4
P 11200 2300
F 0 "R11" V 11150 2100 50  0000 C CNN
F 1 "150E" V 11150 2550 50  0000 C CNN
F 2 "Resistor_SMD:R_0603_1608Metric" V 11130 2300 50  0001 C CNN
F 3 "~" H 11200 2300 50  0001 C CNN
	1    11200 2300
	0    1    1    0   
$EndComp
$Comp
L Device:R R14
U 1 1 5FEF0D0A
P 11200 2450
F 0 "R14" V 11150 2250 50  0000 C CNN
F 1 "150E" V 11150 2700 50  0000 C CNN
F 2 "Resistor_SMD:R_0603_1608Metric" V 11130 2450 50  0001 C CNN
F 3 "~" H 11200 2450 50  0001 C CNN
	1    11200 2450
	0    1    1    0   
$EndComp
$Comp
L Device:R R18
U 1 1 5FEF143E
P 11200 2600
F 0 "R18" V 11150 2400 50  0000 C CNN
F 1 "150E" V 11150 2850 50  0000 C CNN
F 2 "Resistor_SMD:R_0603_1608Metric" V 11130 2600 50  0001 C CNN
F 3 "~" H 11200 2600 50  0001 C CNN
	1    11200 2600
	0    1    1    0   
$EndComp
$Comp
L Device:R R20
U 1 1 5FEF1634
P 11200 2750
F 0 "R20" V 11150 2550 50  0000 C CNN
F 1 "150E" V 11150 3000 50  0000 C CNN
F 2 "Resistor_SMD:R_0603_1608Metric" V 11130 2750 50  0001 C CNN
F 3 "~" H 11200 2750 50  0001 C CNN
	1    11200 2750
	0    1    1    0   
$EndComp
$Comp
L Device:R R31
U 1 1 5FEF1801
P 11200 2900
F 0 "R31" V 11150 2700 50  0000 C CNN
F 1 "150E" V 11150 3150 50  0000 C CNN
F 2 "Resistor_SMD:R_0603_1608Metric" V 11130 2900 50  0001 C CNN
F 3 "~" H 11200 2900 50  0001 C CNN
	1    11200 2900
	0    1    1    0   
$EndComp
$Comp
L Device:R R34
U 1 1 5FEF1ADF
P 11200 4100
F 0 "R34" V 11150 3900 50  0000 C CNN
F 1 "150E" V 11150 4350 50  0000 C CNN
F 2 "Resistor_SMD:R_0603_1608Metric" V 11130 4100 50  0001 C CNN
F 3 "~" H 11200 4100 50  0001 C CNN
	1    11200 4100
	0    1    1    0   
$EndComp
Wire Wire Line
	10650 1850 11050 1850
Wire Wire Line
	10650 2000 11050 2000
Wire Wire Line
	10650 2150 11050 2150
Wire Wire Line
	10650 2300 11050 2300
Wire Wire Line
	10650 2450 11050 2450
Wire Wire Line
	10650 2600 11050 2600
Wire Wire Line
	10650 2750 11050 2750
Wire Wire Line
	10650 2900 11050 2900
Wire Wire Line
	10650 3050 11050 3050
$Comp
L Device:R R42
U 1 1 5FF0B74E
P 8350 3350
F 0 "R42" H 8150 3300 50  0000 L CNN
F 1 "0E" H 8250 3400 50  0000 C CNN
F 2 "Resistor_SMD:R_0603_1608Metric" V 8280 3350 50  0001 C CNN
F 3 "~" H 8350 3350 50  0001 C CNN
	1    8350 3350
	-1   0    0    1   
$EndComp
$Comp
L Device:R R8
U 1 1 5FF2A3B5
P 2250 2200
F 0 "R8" V 2200 2400 50  0000 C CNN
F 1 "150E" V 2200 2000 50  0000 C CNN
F 2 "Resistor_SMD:R_0603_1608Metric" V 2180 2200 50  0001 C CNN
F 3 "~" H 2250 2200 50  0001 C CNN
	1    2250 2200
	0    -1   -1   0   
$EndComp
$Comp
L Device:R R58
U 1 1 5FF327A9
P 8350 4000
F 0 "R58" H 8150 3950 50  0000 L CNN
F 1 "0E" H 8250 4050 50  0000 C CNN
F 2 "Resistor_SMD:R_0603_1608Metric" V 8280 4000 50  0001 C CNN
F 3 "~" H 8350 4000 50  0001 C CNN
	1    8350 4000
	-1   0    0    1   
$EndComp
$Comp
L Device:R R41
U 1 1 5FF33271
P 8100 3350
F 0 "R41" H 7900 3300 50  0000 L CNN
F 1 "0E" H 8000 3400 50  0000 C CNN
F 2 "Resistor_SMD:R_0603_1608Metric" V 8030 3350 50  0001 C CNN
F 3 "~" H 8100 3350 50  0001 C CNN
	1    8100 3350
	-1   0    0    1   
$EndComp
$Comp
L Device:R R40
U 1 1 5FF335F2
P 7850 3350
F 0 "R40" H 7650 3300 50  0000 L CNN
F 1 "0E" H 7750 3400 50  0000 C CNN
F 2 "Resistor_SMD:R_0603_1608Metric" V 7780 3350 50  0001 C CNN
F 3 "~" H 7850 3350 50  0001 C CNN
	1    7850 3350
	-1   0    0    1   
$EndComp
$Comp
L Device:R R56
U 1 1 5FF33951
P 7850 4000
F 0 "R56" H 7650 3950 50  0000 L CNN
F 1 "0E" H 7750 4050 50  0000 C CNN
F 2 "Resistor_SMD:R_0603_1608Metric" V 7780 4000 50  0001 C CNN
F 3 "~" H 7850 4000 50  0001 C CNN
	1    7850 4000
	-1   0    0    1   
$EndComp
$Comp
L Device:R R57
U 1 1 5FF34976
P 8100 4000
F 0 "R57" H 7900 3950 50  0000 L CNN
F 1 "0E" H 8000 4050 50  0000 C CNN
F 2 "Resistor_SMD:R_0603_1608Metric" V 8030 4000 50  0001 C CNN
F 3 "~" H 8100 4000 50  0001 C CNN
	1    8100 4000
	-1   0    0    1   
$EndComp
Wire Wire Line
	8100 3500 8100 3650
Wire Wire Line
	8350 3500 8350 3750
$Comp
L power:GND #PWR0114
U 1 1 5FF3C603
P 8350 4200
F 0 "#PWR0114" H 8350 3950 50  0001 C CNN
F 1 "GND" H 8355 4027 50  0000 C CNN
F 2 "" H 8350 4200 50  0001 C CNN
F 3 "" H 8350 4200 50  0001 C CNN
	1    8350 4200
	1    0    0    -1  
$EndComp
$Comp
L power:GND #PWR0115
U 1 1 5FF3C9BE
P 8100 4200
F 0 "#PWR0115" H 8100 3950 50  0001 C CNN
F 1 "GND" H 8105 4027 50  0000 C CNN
F 2 "" H 8100 4200 50  0001 C CNN
F 3 "" H 8100 4200 50  0001 C CNN
	1    8100 4200
	1    0    0    -1  
$EndComp
$Comp
L power:GND #PWR0116
U 1 1 5FF3CC41
P 7850 4200
F 0 "#PWR0116" H 7850 3950 50  0001 C CNN
F 1 "GND" H 7855 4027 50  0000 C CNN
F 2 "" H 7850 4200 50  0001 C CNN
F 3 "" H 7850 4200 50  0001 C CNN
	1    7850 4200
	1    0    0    -1  
$EndComp
$Comp
L power:+3V3 #PWR0117
U 1 1 5FF3D0D9
P 7850 3200
F 0 "#PWR0117" H 7850 3050 50  0001 C CNN
F 1 "+3V3" H 7865 3373 50  0000 C CNN
F 2 "" H 7850 3200 50  0001 C CNN
F 3 "" H 7850 3200 50  0001 C CNN
	1    7850 3200
	1    0    0    -1  
$EndComp
$Comp
L power:+3V3 #PWR0118
U 1 1 5FF3D80D
P 8100 3200
F 0 "#PWR0118" H 8100 3050 50  0001 C CNN
F 1 "+3V3" H 8115 3373 50  0000 C CNN
F 2 "" H 8100 3200 50  0001 C CNN
F 3 "" H 8100 3200 50  0001 C CNN
	1    8100 3200
	1    0    0    -1  
$EndComp
$Comp
L power:+3V3 #PWR0119
U 1 1 5FF3DA41
P 8350 3200
F 0 "#PWR0119" H 8350 3050 50  0001 C CNN
F 1 "+3V3" H 8365 3373 50  0000 C CNN
F 2 "" H 8350 3200 50  0001 C CNN
F 3 "" H 8350 3200 50  0001 C CNN
	1    8350 3200
	1    0    0    -1  
$EndComp
Wire Wire Line
	9500 3550 7850 3550
Connection ~ 7850 3550
Wire Wire Line
	7850 3550 7850 3500
Wire Wire Line
	9500 3650 8100 3650
Connection ~ 8100 3650
Wire Wire Line
	8100 3650 8100 3850
Wire Wire Line
	9500 3750 8350 3750
Connection ~ 8350 3750
Wire Wire Line
	8350 3750 8350 3850
Wire Wire Line
	7850 3850 7850 3550
Wire Wire Line
	8350 4150 8350 4200
Wire Wire Line
	8100 4150 8100 4200
Wire Wire Line
	7850 4150 7850 4200
$Comp
L Device:R R4
U 1 1 5FF67282
P 2250 2000
F 0 "R4" V 2200 2200 50  0000 C CNN
F 1 "150E" V 2200 1800 50  0000 C CNN
F 2 "Resistor_SMD:R_0603_1608Metric" V 2180 2000 50  0001 C CNN
F 3 "~" H 2250 2000 50  0001 C CNN
	1    2250 2000
	0    -1   -1   0   
$EndComp
$Comp
L Device:R R6
U 1 1 5FF67EFF
P 2250 2100
F 0 "R6" V 2200 2300 50  0000 C CNN
F 1 "150E" V 2200 1900 50  0000 C CNN
F 2 "Resistor_SMD:R_0603_1608Metric" V 2180 2100 50  0001 C CNN
F 3 "~" H 2250 2100 50  0001 C CNN
	1    2250 2100
	0    -1   -1   0   
$EndComp
Wire Wire Line
	2400 2100 3100 2100
Wire Wire Line
	2400 2000 3100 2000
Text Label 1450 2000 0    50   ~ 0
SDA
Text Label 1450 2100 0    50   ~ 0
SCL
Text Label 9150 2300 0    50   ~ 0
SDA
Text Label 9150 2150 0    50   ~ 0
SCL
$Comp
L Device:R R1
U 1 1 5FF81BC0
P 1650 1600
F 0 "R1" H 1550 1550 50  0000 C CNN
F 1 "10k" H 1450 1650 50  0000 L CNN
F 2 "Resistor_SMD:R_0603_1608Metric" V 1580 1600 50  0001 C CNN
F 3 "~" H 1650 1600 50  0001 C CNN
	1    1650 1600
	-1   0    0    1   
$EndComp
$Comp
L Device:R R2
U 1 1 5FF833AC
P 1900 1600
F 0 "R2" H 1800 1550 50  0000 C CNN
F 1 "10k" H 1700 1650 50  0000 L CNN
F 2 "Resistor_SMD:R_0603_1608Metric" V 1830 1600 50  0001 C CNN
F 3 "~" H 1900 1600 50  0001 C CNN
	1    1900 1600
	-1   0    0    1   
$EndComp
$Comp
L Device:R R12
U 1 1 5FF87164
P 2250 2400
F 0 "R12" V 2200 2600 50  0000 C CNN
F 1 "150E" V 2200 2200 50  0000 C CNN
F 2 "Resistor_SMD:R_0603_1608Metric" V 2180 2400 50  0001 C CNN
F 3 "~" H 2250 2400 50  0001 C CNN
	1    2250 2400
	0    -1   -1   0   
$EndComp
$Comp
L Device:R R15
U 1 1 5FF876B6
P 2250 2500
F 0 "R15" V 2200 2700 50  0000 C CNN
F 1 "150E" V 2200 2300 50  0000 C CNN
F 2 "Resistor_SMD:R_0603_1608Metric" V 2180 2500 50  0001 C CNN
F 3 "~" H 2250 2500 50  0001 C CNN
	1    2250 2500
	0    -1   -1   0   
$EndComp
$Comp
L Device:R R16
U 1 1 5FF878EE
P 2250 2600
F 0 "R16" V 2200 2800 50  0000 C CNN
F 1 "150E" V 2200 2400 50  0000 C CNN
F 2 "Resistor_SMD:R_0603_1608Metric" V 2180 2600 50  0001 C CNN
F 3 "~" H 2250 2600 50  0001 C CNN
	1    2250 2600
	0    -1   -1   0   
$EndComp
$Comp
L Device:R R21
U 1 1 5FF87B51
P 2250 2800
F 0 "R21" V 2200 3000 50  0000 C CNN
F 1 "150E" V 2200 2600 50  0000 C CNN
F 2 "Resistor_SMD:R_0603_1608Metric" V 2180 2800 50  0001 C CNN
F 3 "~" H 2250 2800 50  0001 C CNN
	1    2250 2800
	0    -1   -1   0   
$EndComp
$Comp
L Device:R R29
U 1 1 5FF87E48
P 2250 2900
F 0 "R29" V 2200 3100 50  0000 C CNN
F 1 "150E" V 2200 2700 50  0000 C CNN
F 2 "Resistor_SMD:R_0603_1608Metric" V 2180 2900 50  0001 C CNN
F 3 "~" H 2250 2900 50  0001 C CNN
	1    2250 2900
	0    -1   -1   0   
$EndComp
$Comp
L Device:R R32
U 1 1 5FF881A5
P 2250 3000
F 0 "R32" V 2200 3200 50  0000 C CNN
F 1 "150E" V 2200 2800 50  0000 C CNN
F 2 "Resistor_SMD:R_0603_1608Metric" V 2180 3000 50  0001 C CNN
F 3 "~" H 2250 3000 50  0001 C CNN
	1    2250 3000
	0    -1   -1   0   
$EndComp
$Comp
L Device:R R36
U 1 1 5FF883BF
P 2250 3200
F 0 "R36" V 2200 3400 50  0000 C CNN
F 1 "150E" V 2200 3000 50  0000 C CNN
F 2 "Resistor_SMD:R_0603_1608Metric" V 2180 3200 50  0001 C CNN
F 3 "~" H 2250 3200 50  0001 C CNN
	1    2250 3200
	0    -1   -1   0   
$EndComp
$Comp
L Device:R R39
U 1 1 5FF886DB
P 2250 3300
F 0 "R39" V 2200 3500 50  0000 C CNN
F 1 "150E" V 2200 3100 50  0000 C CNN
F 2 "Resistor_SMD:R_0603_1608Metric" V 2180 3300 50  0001 C CNN
F 3 "~" H 2250 3300 50  0001 C CNN
	1    2250 3300
	0    -1   -1   0   
$EndComp
$Comp
L Device:R R44
U 1 1 5FF88A60
P 2250 3400
F 0 "R44" V 2200 3600 50  0000 C CNN
F 1 "150E" V 2200 3200 50  0000 C CNN
F 2 "Resistor_SMD:R_0603_1608Metric" V 2180 3400 50  0001 C CNN
F 3 "~" H 2250 3400 50  0001 C CNN
	1    2250 3400
	0    -1   -1   0   
$EndComp
$Comp
L Device:R R46
U 1 1 5FF88D5B
P 2250 3500
F 0 "R46" V 2200 3700 50  0000 C CNN
F 1 "150E" V 2200 3300 50  0000 C CNN
F 2 "Resistor_SMD:R_0603_1608Metric" V 2180 3500 50  0001 C CNN
F 3 "~" H 2250 3500 50  0001 C CNN
	1    2250 3500
	0    -1   -1   0   
$EndComp
$Comp
L Device:R R48
U 1 1 5FF890CA
P 2250 3600
F 0 "R48" V 2200 3800 50  0000 C CNN
F 1 "150E" V 2200 3400 50  0000 C CNN
F 2 "Resistor_SMD:R_0603_1608Metric" V 2180 3600 50  0001 C CNN
F 3 "~" H 2250 3600 50  0001 C CNN
	1    2250 3600
	0    -1   -1   0   
$EndComp
$Comp
L Device:R R51
U 1 1 5FF89364
P 2250 3700
F 0 "R51" V 2200 3900 50  0000 C CNN
F 1 "150E" V 2200 3500 50  0000 C CNN
F 2 "Resistor_SMD:R_0603_1608Metric" V 2180 3700 50  0001 C CNN
F 3 "~" H 2250 3700 50  0001 C CNN
	1    2250 3700
	0    -1   -1   0   
$EndComp
$Comp
L Device:R R9
U 1 1 5FF89EFC
P 4400 2200
F 0 "R9" V 4350 2400 50  0000 C CNN
F 1 "150E" V 4350 2000 50  0000 C CNN
F 2 "Resistor_SMD:R_0603_1608Metric" V 4330 2200 50  0001 C CNN
F 3 "~" H 4400 2200 50  0001 C CNN
	1    4400 2200
	0    -1   -1   0   
$EndComp
$Comp
L Device:R R10
U 1 1 5FF8A42C
P 4400 2300
F 0 "R10" V 4350 2500 50  0000 C CNN
F 1 "150E" V 4350 2100 50  0000 C CNN
F 2 "Resistor_SMD:R_0603_1608Metric" V 4330 2300 50  0001 C CNN
F 3 "~" H 4400 2300 50  0001 C CNN
	1    4400 2300
	0    -1   -1   0   
$EndComp
$Comp
L Device:R R13
U 1 1 5FF8A84E
P 4400 2400
F 0 "R13" V 4350 2600 50  0000 C CNN
F 1 "150E" V 4350 2200 50  0000 C CNN
F 2 "Resistor_SMD:R_0603_1608Metric" V 4330 2400 50  0001 C CNN
F 3 "~" H 4400 2400 50  0001 C CNN
	1    4400 2400
	0    -1   -1   0   
$EndComp
$Comp
L Device:R R17
U 1 1 5FF8AC6C
P 4400 2600
F 0 "R17" V 4350 2800 50  0000 C CNN
F 1 "150E" V 4350 2400 50  0000 C CNN
F 2 "Resistor_SMD:R_0603_1608Metric" V 4330 2600 50  0001 C CNN
F 3 "~" H 4400 2600 50  0001 C CNN
	1    4400 2600
	0    -1   -1   0   
$EndComp
$Comp
L Device:R R19
U 1 1 5FF8B0B5
P 4400 2700
F 0 "R19" V 4350 2900 50  0000 C CNN
F 1 "150E" V 4350 2500 50  0000 C CNN
F 2 "Resistor_SMD:R_0603_1608Metric" V 4330 2700 50  0001 C CNN
F 3 "~" H 4400 2700 50  0001 C CNN
	1    4400 2700
	0    -1   -1   0   
$EndComp
$Comp
L Device:R R30
U 1 1 5FF8B469
P 4400 2900
F 0 "R30" V 4350 3100 50  0000 C CNN
F 1 "150E" V 4350 2700 50  0000 C CNN
F 2 "Resistor_SMD:R_0603_1608Metric" V 4330 2900 50  0001 C CNN
F 3 "~" H 4400 2900 50  0001 C CNN
	1    4400 2900
	0    -1   -1   0   
$EndComp
$Comp
L Device:R R33
U 1 1 5FF8B85C
P 4400 3000
F 0 "R33" V 4350 3200 50  0000 C CNN
F 1 "150E" V 4350 2800 50  0000 C CNN
F 2 "Resistor_SMD:R_0603_1608Metric" V 4330 3000 50  0001 C CNN
F 3 "~" H 4400 3000 50  0001 C CNN
	1    4400 3000
	0    -1   -1   0   
$EndComp
$Comp
L Device:R R35
U 1 1 5FF8BCA5
P 4400 3100
F 0 "R35" V 4350 3300 50  0000 C CNN
F 1 "150E" V 4350 2900 50  0000 C CNN
F 2 "Resistor_SMD:R_0603_1608Metric" V 4330 3100 50  0001 C CNN
F 3 "~" H 4400 3100 50  0001 C CNN
	1    4400 3100
	0    -1   -1   0   
$EndComp
$Comp
L Device:R R37
U 1 1 5FF8C0CF
P 4400 3200
F 0 "R37" V 4350 3400 50  0000 C CNN
F 1 "150E" V 4350 3000 50  0000 C CNN
F 2 "Resistor_SMD:R_0603_1608Metric" V 4330 3200 50  0001 C CNN
F 3 "~" H 4400 3200 50  0001 C CNN
	1    4400 3200
	0    -1   -1   0   
$EndComp
$Comp
L Device:R R45
U 1 1 5FF8C44F
P 4400 3400
F 0 "R45" V 4350 3600 50  0000 C CNN
F 1 "150E" V 4350 3200 50  0000 C CNN
F 2 "Resistor_SMD:R_0603_1608Metric" V 4330 3400 50  0001 C CNN
F 3 "~" H 4400 3400 50  0001 C CNN
	1    4400 3400
	0    -1   -1   0   
$EndComp
$Comp
L Device:R R49
U 1 1 5FF8C9ED
P 4400 3600
F 0 "R49" V 4350 3800 50  0000 C CNN
F 1 "150E" V 4350 3400 50  0000 C CNN
F 2 "Resistor_SMD:R_0603_1608Metric" V 4330 3600 50  0001 C CNN
F 3 "~" H 4400 3600 50  0001 C CNN
	1    4400 3600
	0    -1   -1   0   
$EndComp
$Comp
L Device:R R52
U 1 1 5FF8CED8
P 4400 3700
F 0 "R52" V 4350 3900 50  0000 C CNN
F 1 "150E" V 4350 3500 50  0000 C CNN
F 2 "Resistor_SMD:R_0603_1608Metric" V 4330 3700 50  0001 C CNN
F 3 "~" H 4400 3700 50  0001 C CNN
	1    4400 3700
	0    -1   -1   0   
$EndComp
$Comp
L Device:R R53
U 1 1 5FF8D38D
P 4400 3800
F 0 "R53" V 4350 4000 50  0000 C CNN
F 1 "150E" V 4350 3600 50  0000 C CNN
F 2 "Resistor_SMD:R_0603_1608Metric" V 4330 3800 50  0001 C CNN
F 3 "~" H 4400 3800 50  0001 C CNN
	1    4400 3800
	0    -1   -1   0   
$EndComp
Wire Wire Line
	3600 3800 4250 3800
Wire Wire Line
	3600 3700 4250 3700
Wire Wire Line
	3600 3600 4250 3600
Wire Wire Line
	3600 3200 4250 3200
Wire Wire Line
	3600 3100 4250 3100
Wire Wire Line
	3600 3000 4250 3000
Wire Wire Line
	3600 2900 4250 2900
Wire Wire Line
	3600 2700 4250 2700
Wire Wire Line
	3600 2400 4250 2400
Wire Wire Line
	3600 2300 4250 2300
Wire Wire Line
	3600 2200 4250 2200
Wire Wire Line
	2400 2400 3100 2400
Wire Wire Line
	2400 2500 3100 2500
Wire Wire Line
	2400 2600 3100 2600
Wire Wire Line
	2400 2800 3100 2800
Wire Wire Line
	2400 2900 3100 2900
Wire Wire Line
	2400 3000 3100 3000
Wire Wire Line
	2400 3200 3100 3200
Wire Wire Line
	2400 3300 3100 3300
Wire Wire Line
	2400 3400 3100 3400
Wire Wire Line
	2400 3500 3100 3500
Wire Wire Line
	2400 3600 3100 3600
Wire Wire Line
	2400 3700 3100 3700
Text Label 1600 2800 0    50   ~ 0
MOSI
Text Label 1600 2900 0    50   ~ 0
MISO
Text Label 1600 3000 0    50   ~ 0
SCLK
Wire Wire Line
	3600 3400 4250 3400
Text Label 4750 2600 0    50   ~ 0
RST
Text Label 1600 3700 0    50   ~ 0
LDOUT
Text Label 4750 3600 0    50   ~ 0
LCLK
Text Label 1600 2400 0    50   ~ 0
XSMT
Text Label 4750 2200 0    50   ~ 0
TX
Text Label 4750 2300 0    50   ~ 0
RX
Text Label 4750 2400 0    50   ~ 0
PCLK
Text Label 1600 2500 0    50   ~ 0
PDown
Text Label 4750 3100 0    50   ~ 0
SPK_ON1
Text Label 4750 3000 0    50   ~ 0
SPK_ON2
Text Label 4750 2700 0    50   ~ 0
ISO_IN1
Text Label 1600 3500 0    50   ~ 0
LCS
Text Label 4750 3700 0    50   ~ 0
LDIN
Text Label 4750 2900 0    50   ~ 0
ISO_IN2
Text Label 4750 3200 0    50   ~ 0
DC_PROT2
Text Label 4750 3800 0    50   ~ 0
PDOUT
Wire Wire Line
	4550 3600 5100 3600
Wire Wire Line
	4550 3700 5100 3700
Wire Wire Line
	5100 3800 4550 3800
Wire Wire Line
	4550 3200 5100 3200
Wire Wire Line
	5100 3100 4550 3100
Wire Wire Line
	4550 3000 5100 3000
Wire Wire Line
	5100 2900 4550 2900
Wire Wire Line
	4550 2700 5100 2700
Wire Wire Line
	5100 2600 4550 2600
Wire Wire Line
	4550 2300 4950 2300
Wire Wire Line
	4550 2200 4950 2200
Wire Wire Line
	4550 2400 4950 2400
Text Label 1600 3600 0    50   ~ 0
PFS
Text Label 4750 3400 0    50   ~ 0
CS
Text Label 1600 2600 0    50   ~ 0
INT
Text Label 1600 3200 0    50   ~ 0
DC_PROT1
Wire Wire Line
	3650 2500 3650 2800
Wire Wire Line
	3600 2600 4250 2600
$Comp
L Connector_Generic:Conn_01x08 J1
U 1 1 60167762
P 14650 2050
F 0 "J1" H 14600 1550 50  0000 L CNN
F 1 "LEDS" H 14600 2450 50  0000 L CNN
F 2 "Phoenix_Contact:PTSA-2.5mm-8pins" H 14650 2050 50  0001 C CNN
F 3 "~" H 14650 2050 50  0001 C CNN
	1    14650 2050
	1    0    0    1   
$EndComp
$Comp
L Connector_Generic:Conn_01x08 J3
U 1 1 60168A9F
P 14650 3350
F 0 "J3" H 14600 3750 50  0000 L CNN
F 1 "LCD" H 14600 2850 50  0000 L CNN
F 2 "Phoenix_Contact:PTSA-2.5mm-8pins" H 14650 3350 50  0001 C CNN
F 3 "~" H 14650 3350 50  0001 C CNN
	1    14650 3350
	1    0    0    -1  
$EndComp
$Comp
L Device:R R43
U 1 1 60247984
P 11200 3800
F 0 "R43" V 11150 3600 50  0000 C CNN
F 1 "150E" V 11150 4050 50  0000 C CNN
F 2 "Resistor_SMD:R_0603_1608Metric" V 11130 3800 50  0001 C CNN
F 3 "~" H 11200 3800 50  0001 C CNN
	1    11200 3800
	0    1    1    0   
$EndComp
$Comp
L Device:R R47
U 1 1 60247C7E
P 11200 3650
F 0 "R47" V 11150 3450 50  0000 C CNN
F 1 "150E" V 11150 3900 50  0000 C CNN
F 2 "Resistor_SMD:R_0603_1608Metric" V 11130 3650 50  0001 C CNN
F 3 "~" H 11200 3650 50  0001 C CNN
	1    11200 3650
	0    1    1    0   
$EndComp
$Comp
L Device:R R50
U 1 1 60247F6F
P 11200 3500
F 0 "R50" V 11150 3300 50  0000 C CNN
F 1 "150E" V 11150 3750 50  0000 C CNN
F 2 "Resistor_SMD:R_0603_1608Metric" V 11130 3500 50  0001 C CNN
F 3 "~" H 11200 3500 50  0001 C CNN
	1    11200 3500
	0    1    1    0   
$EndComp
Wire Wire Line
	10650 3200 11050 3200
Wire Wire Line
	11050 3350 10650 3350
Wire Wire Line
	10650 3500 11050 3500
Wire Wire Line
	11050 3650 10650 3650
Wire Wire Line
	10650 3800 11050 3800
Wire Wire Line
	10650 4100 11050 4100
Wire Wire Line
	10650 3950 11050 3950
Wire Wire Line
	11600 3150 11600 3200
Wire Wire Line
	11600 3200 11350 3200
Wire Wire Line
	11700 3250 11700 3350
Wire Wire Line
	11700 3350 11350 3350
Wire Wire Line
	11350 3500 11800 3500
Wire Wire Line
	11800 3500 11800 3350
Wire Wire Line
	11900 3650 11900 3450
Wire Wire Line
	11350 3800 12000 3800
Wire Wire Line
	12000 3800 12000 3550
Wire Wire Line
	11350 3950 12100 3950
Wire Wire Line
	12100 3950 12100 3650
Wire Wire Line
	12200 4100 12200 3750
Wire Wire Line
	11350 3650 11900 3650
Wire Wire Line
	11350 4100 12200 4100
$Comp
L Audio:PCM5102 U4
U 1 1 6036282F
P 3850 8650
F 0 "U4" H 3500 8000 50  0000 C CNN
F 1 "PCM5102" H 4200 8000 50  0000 C CNN
F 2 "Package_SO:TSSOP-20_4.4x6.5mm_P0.65mm" H 3800 9400 50  0001 C CNN
F 3 "http://www.ti.com/lit/ds/symlink/pcm5102.pdf" H 3800 9400 50  0001 C CNN
	1    3850 8650
	1    0    0    -1  
$EndComp
$Comp
L Device:C C13
U 1 1 5FECC997
P 4200 7700
F 0 "C13" H 4315 7746 50  0000 L CNN
F 1 "10uF" H 4315 7655 50  0000 L CNN
F 2 "Capacitor_SMD:C_0805_2012Metric" H 4238 7550 50  0001 C CNN
F 3 "~" H 4200 7700 50  0001 C CNN
F 4 "GRM21BR71A106KA73K" H 4200 7700 50  0001 C CNN "PartNumber"
	1    4200 7700
	1    0    0    -1  
$EndComp
$Comp
L Device:C C14
U 1 1 5FECCF23
P 4650 7700
F 0 "C14" H 4765 7746 50  0000 L CNN
F 1 "100nF" H 4765 7655 50  0000 L CNN
F 2 "Capacitor_SMD:C_0603_1608Metric" H 4688 7550 50  0001 C CNN
F 3 "~" H 4650 7700 50  0001 C CNN
	1    4650 7700
	1    0    0    -1  
$EndComp
$Comp
L Device:R R75
U 1 1 5FED44D8
P 4750 8250
F 0 "R75" V 4700 8050 50  0000 C CNN
F 1 "470E" V 4700 8500 50  0000 C CNN
F 2 "Resistor_SMD:R_0603_1608Metric" V 4680 8250 50  0001 C CNN
F 3 "~" H 4750 8250 50  0001 C CNN
	1    4750 8250
	0    1    1    0   
$EndComp
$Comp
L Device:R R76
U 1 1 5FED4DAB
P 4750 8350
F 0 "R76" V 4700 8150 50  0000 C CNN
F 1 "470E" V 4700 8600 50  0000 C CNN
F 2 "Resistor_SMD:R_0603_1608Metric" V 4680 8350 50  0001 C CNN
F 3 "~" H 4750 8350 50  0001 C CNN
	1    4750 8350
	0    1    1    0   
$EndComp
$Comp
L Device:C C15
U 1 1 5FED61FD
P 5200 8600
F 0 "C15" H 5315 8646 50  0000 L CNN
F 1 "2n2" H 5315 8555 50  0000 L CNN
F 2 "Capacitor_SMD:C_0603_1608Metric" H 5238 8450 50  0001 C CNN
F 3 "~" H 5200 8600 50  0001 C CNN
	1    5200 8600
	1    0    0    -1  
$EndComp
$Comp
L Device:C C16
U 1 1 5FED68F0
P 5650 8600
F 0 "C16" H 5765 8646 50  0000 L CNN
F 1 "2n2" H 5765 8555 50  0000 L CNN
F 2 "Capacitor_SMD:C_0603_1608Metric" H 5688 8450 50  0001 C CNN
F 3 "~" H 5650 8600 50  0001 C CNN
	1    5650 8600
	1    0    0    -1  
$EndComp
Wire Wire Line
	4350 8350 4600 8350
Wire Wire Line
	4600 8250 4350 8250
Wire Wire Line
	4900 8350 5200 8350
Wire Wire Line
	5200 8350 5200 8450
Wire Wire Line
	4900 8250 5650 8250
Wire Wire Line
	5650 8250 5650 8450
Wire Wire Line
	5200 8350 5850 8350
Connection ~ 5200 8350
Wire Wire Line
	5650 8250 5850 8250
Connection ~ 5650 8250
$Comp
L power:GNDA #PWR0105
U 1 1 5FF27D39
P 5200 8750
F 0 "#PWR0105" H 5200 8500 50  0001 C CNN
F 1 "GNDA" H 5205 8577 50  0000 C CNN
F 2 "" H 5200 8750 50  0001 C CNN
F 3 "" H 5200 8750 50  0001 C CNN
	1    5200 8750
	1    0    0    -1  
$EndComp
$Comp
L power:GNDA #PWR0106
U 1 1 5FF28BE8
P 5650 8750
F 0 "#PWR0106" H 5650 8500 50  0001 C CNN
F 1 "GNDA" H 5655 8577 50  0000 C CNN
F 2 "" H 5650 8750 50  0001 C CNN
F 3 "" H 5650 8750 50  0001 C CNN
	1    5650 8750
	1    0    0    -1  
$EndComp
$Comp
L Device:C C17
U 1 1 5FF29463
P 4550 8700
F 0 "C17" H 4665 8746 50  0000 L CNN
F 1 "2u2" H 4665 8655 50  0000 L CNN
F 2 "Capacitor_SMD:C_0603_1608Metric" H 4588 8550 50  0001 C CNN
F 3 "~" H 4550 8700 50  0001 C CNN
F 4 "CL10B225KP8NFNC" H 4550 8700 50  0001 C CNN "PartNumber"
	1    4550 8700
	1    0    0    -1  
$EndComp
Wire Wire Line
	4350 8550 4550 8550
Wire Wire Line
	4550 8850 4350 8850
$Comp
L power:GNDA #PWR0107
U 1 1 5FF5388A
P 4200 7850
F 0 "#PWR0107" H 4200 7600 50  0001 C CNN
F 1 "GNDA" H 4205 7677 50  0000 C CNN
F 2 "" H 4200 7850 50  0001 C CNN
F 3 "" H 4200 7850 50  0001 C CNN
	1    4200 7850
	1    0    0    -1  
$EndComp
$Comp
L power:GNDA #PWR0108
U 1 1 5FF53C2F
P 4650 7850
F 0 "#PWR0108" H 4650 7600 50  0001 C CNN
F 1 "GNDA" H 4655 7677 50  0000 C CNN
F 2 "" H 4650 7850 50  0001 C CNN
F 3 "" H 4650 7850 50  0001 C CNN
	1    4650 7850
	1    0    0    -1  
$EndComp
Wire Wire Line
	3950 8050 3950 7450
Wire Wire Line
	3950 7450 4200 7450
Wire Wire Line
	4650 7450 4650 7550
Wire Wire Line
	4200 7550 4200 7450
Connection ~ 4200 7450
Wire Wire Line
	4200 7450 4650 7450
$Comp
L power:GNDA #PWR0109
U 1 1 5FF6EB3D
P 3950 9350
F 0 "#PWR0109" H 3950 9100 50  0001 C CNN
F 1 "GNDA" V 3950 9150 50  0000 C CNN
F 2 "" H 3950 9350 50  0001 C CNN
F 3 "" H 3950 9350 50  0001 C CNN
	1    3950 9350
	1    0    0    -1  
$EndComp
$Comp
L power:GND #PWR0110
U 1 1 5FF6F99D
P 3850 9350
F 0 "#PWR0110" H 3850 9100 50  0001 C CNN
F 1 "GND" V 3850 9150 50  0000 C CNN
F 2 "" H 3850 9350 50  0001 C CNN
F 3 "" H 3850 9350 50  0001 C CNN
	1    3850 9350
	1    0    0    -1  
$EndComp
$Comp
L power:GNDA #PWR0120
U 1 1 5FF7154F
P 3750 9350
F 0 "#PWR0120" H 3750 9100 50  0001 C CNN
F 1 "GNDA" V 3750 9150 50  0000 C CNN
F 2 "" H 3750 9350 50  0001 C CNN
F 3 "" H 3750 9350 50  0001 C CNN
	1    3750 9350
	1    0    0    -1  
$EndComp
$Comp
L Device:C C18
U 1 1 5FF72098
P 4550 9400
F 0 "C18" H 4665 9446 50  0000 L CNN
F 1 "2u2" H 4665 9355 50  0000 L CNN
F 2 "Capacitor_SMD:C_0603_1608Metric" H 4588 9250 50  0001 C CNN
F 3 "~" H 4550 9400 50  0001 C CNN
F 4 "CL10B225KP8NFNC" H 4550 9400 50  0001 C CNN "PartNumber"
	1    4550 9400
	1    0    0    -1  
$EndComp
$Comp
L power:GNDA #PWR0121
U 1 1 5FF729FC
P 4550 9550
F 0 "#PWR0121" H 4550 9300 50  0001 C CNN
F 1 "GNDA" H 4555 9377 50  0000 C CNN
F 2 "" H 4550 9550 50  0001 C CNN
F 3 "" H 4550 9550 50  0001 C CNN
	1    4550 9550
	1    0    0    -1  
$EndComp
Wire Wire Line
	4350 9150 4550 9150
Wire Wire Line
	4550 9150 4550 9250
$Comp
L Device:C C19
U 1 1 5FF80358
P 4950 9400
F 0 "C19" H 5065 9446 50  0000 L CNN
F 1 "10uF" H 5065 9355 50  0000 L CNN
F 2 "Capacitor_SMD:C_0805_2012Metric" H 4988 9250 50  0001 C CNN
F 3 "~" H 4950 9400 50  0001 C CNN
F 4 "GRM21BR71A106KA73K" H 4950 9400 50  0001 C CNN "PartNumber"
	1    4950 9400
	1    0    0    -1  
$EndComp
$Comp
L Device:C C20
U 1 1 5FF808D5
P 5400 9400
F 0 "C20" H 5515 9446 50  0000 L CNN
F 1 "100nF" H 5515 9355 50  0000 L CNN
F 2 "Capacitor_SMD:C_0603_1608Metric" H 5438 9250 50  0001 C CNN
F 3 "~" H 5400 9400 50  0001 C CNN
	1    5400 9400
	1    0    0    -1  
$EndComp
Wire Wire Line
	4350 9050 4950 9050
Wire Wire Line
	4950 9050 4950 9250
Wire Wire Line
	4950 9050 5400 9050
Wire Wire Line
	5400 9050 5400 9250
Connection ~ 4950 9050
$Comp
L power:GND #PWR0122
U 1 1 5FF9CEF5
P 4950 9550
F 0 "#PWR0122" H 4950 9300 50  0001 C CNN
F 1 "GND" H 4955 9377 50  0000 C CNN
F 2 "" H 4950 9550 50  0001 C CNN
F 3 "" H 4950 9550 50  0001 C CNN
	1    4950 9550
	1    0    0    -1  
$EndComp
$Comp
L power:GND #PWR0123
U 1 1 5FF9DEEE
P 5400 9550
F 0 "#PWR0123" H 5400 9300 50  0001 C CNN
F 1 "GND" H 5405 9377 50  0000 C CNN
F 2 "" H 5400 9550 50  0001 C CNN
F 3 "" H 5400 9550 50  0001 C CNN
	1    5400 9550
	1    0    0    -1  
$EndComp
$Comp
L Device:C C12
U 1 1 5FFA01E9
P 3400 7700
F 0 "C12" H 3515 7746 50  0000 L CNN
F 1 "10uF" H 3515 7655 50  0000 L CNN
F 2 "Capacitor_SMD:C_0805_2012Metric" H 3438 7550 50  0001 C CNN
F 3 "~" H 3400 7700 50  0001 C CNN
F 4 "GRM21BR71A106KA73K" H 3400 7700 50  0001 C CNN "PartNumber"
	1    3400 7700
	1    0    0    -1  
$EndComp
$Comp
L Device:C C11
U 1 1 5FFA178B
P 2900 7700
F 0 "C11" H 3015 7746 50  0000 L CNN
F 1 "100nF" H 3015 7655 50  0000 L CNN
F 2 "Capacitor_SMD:C_0603_1608Metric" H 2938 7550 50  0001 C CNN
F 3 "~" H 2900 7700 50  0001 C CNN
	1    2900 7700
	1    0    0    -1  
$EndComp
$Comp
L power:GND #PWR0124
U 1 1 5FFA1D60
P 3400 7850
F 0 "#PWR0124" H 3400 7600 50  0001 C CNN
F 1 "GND" H 3405 7677 50  0000 C CNN
F 2 "" H 3400 7850 50  0001 C CNN
F 3 "" H 3400 7850 50  0001 C CNN
	1    3400 7850
	1    0    0    -1  
$EndComp
$Comp
L power:GND #PWR0125
U 1 1 5FFA219C
P 2900 7850
F 0 "#PWR0125" H 2900 7600 50  0001 C CNN
F 1 "GND" H 2905 7677 50  0000 C CNN
F 2 "" H 2900 7850 50  0001 C CNN
F 3 "" H 2900 7850 50  0001 C CNN
	1    2900 7850
	1    0    0    -1  
$EndComp
Wire Wire Line
	3850 8050 3850 7450
Wire Wire Line
	3750 8050 3750 7400
Wire Wire Line
	2900 7450 2900 7550
Wire Wire Line
	2900 7450 3400 7450
Wire Wire Line
	3400 7550 3400 7450
Connection ~ 3400 7450
Wire Wire Line
	3400 7450 3850 7450
$Comp
L Device:C C10
U 1 1 6001EE76
P 2400 7700
F 0 "C10" H 2515 7746 50  0000 L CNN
F 1 "10uF" H 2515 7655 50  0000 L CNN
F 2 "Capacitor_SMD:C_0805_2012Metric" H 2438 7550 50  0001 C CNN
F 3 "~" H 2400 7700 50  0001 C CNN
F 4 "GRM21BR71A106KA73K" H 2400 7700 50  0001 C CNN "PartNumber"
	1    2400 7700
	1    0    0    -1  
$EndComp
$Comp
L Device:C C9
U 1 1 6001F69F
P 1900 7700
F 0 "C9" H 2015 7746 50  0000 L CNN
F 1 "100nF" H 2015 7655 50  0000 L CNN
F 2 "Capacitor_SMD:C_0603_1608Metric" H 1938 7550 50  0001 C CNN
F 3 "~" H 1900 7700 50  0001 C CNN
	1    1900 7700
	1    0    0    -1  
$EndComp
Wire Wire Line
	1900 7400 1900 7550
Wire Wire Line
	1900 7400 2400 7400
Wire Wire Line
	2400 7550 2400 7400
Connection ~ 2400 7400
Wire Wire Line
	2400 7400 3500 7400
$Comp
L power:GNDA #PWR0126
U 1 1 6003D65F
P 2400 7850
F 0 "#PWR0126" H 2400 7600 50  0001 C CNN
F 1 "GNDA" H 2405 7677 50  0000 C CNN
F 2 "" H 2400 7850 50  0001 C CNN
F 3 "" H 2400 7850 50  0001 C CNN
	1    2400 7850
	1    0    0    -1  
$EndComp
$Comp
L power:GNDA #PWR0127
U 1 1 6003E179
P 1900 7850
F 0 "#PWR0127" H 1900 7600 50  0001 C CNN
F 1 "GNDA" H 1905 7677 50  0000 C CNN
F 2 "" H 1900 7850 50  0001 C CNN
F 3 "" H 1900 7850 50  0001 C CNN
	1    1900 7850
	1    0    0    -1  
$EndComp
Text Label 3050 8350 0    50   ~ 0
PDOUT
Text Label 3050 8450 0    50   ~ 0
PCLK
Text Label 3050 8250 0    50   ~ 0
PFS
Text Label 3050 8950 0    50   ~ 0
XSMT
Wire Wire Line
	3350 8950 3300 8950
$Comp
L Device:R R79
U 1 1 600A7208
P 2900 8550
F 0 "R79" V 2850 8750 50  0000 C CNN
F 1 "0E" V 2850 8350 50  0000 C CNN
F 2 "Resistor_SMD:R_0603_1608Metric" V 2830 8550 50  0001 C CNN
F 3 "~" H 2900 8550 50  0001 C CNN
	1    2900 8550
	0    -1   -1   0   
$EndComp
$Comp
L power:GND #PWR0128
U 1 1 600A80C7
P 2600 8550
F 0 "#PWR0128" H 2600 8300 50  0001 C CNN
F 1 "GND" V 2600 8350 50  0000 C CNN
F 2 "" H 2600 8550 50  0001 C CNN
F 3 "" H 2600 8550 50  0001 C CNN
	1    2600 8550
	0    1    1    0   
$EndComp
Wire Wire Line
	2750 8550 2600 8550
Wire Wire Line
	3350 8250 3050 8250
Wire Wire Line
	3350 8350 3050 8350
Wire Wire Line
	3050 8450 3350 8450
$Comp
L Device:R R80
U 1 1 601009FE
P 2900 9050
F 0 "R80" V 2850 9250 50  0000 C CNN
F 1 "0E" V 2850 8850 50  0000 C CNN
F 2 "Resistor_SMD:R_0603_1608Metric" V 2830 9050 50  0001 C CNN
F 3 "~" H 2900 9050 50  0001 C CNN
	1    2900 9050
	0    -1   -1   0   
$EndComp
$Comp
L power:GND #PWR0129
U 1 1 60101142
P 2600 9050
F 0 "#PWR0129" H 2600 8800 50  0001 C CNN
F 1 "GND" V 2600 8850 50  0000 C CNN
F 2 "" H 2600 9050 50  0001 C CNN
F 3 "" H 2600 9050 50  0001 C CNN
	1    2600 9050
	0    1    1    0   
$EndComp
Wire Wire Line
	2750 9050 2600 9050
$Comp
L Device:R R78
U 1 1 6013ACA3
P 1950 8550
F 0 "R78" H 1750 8500 50  0000 L CNN
F 1 "DNP" H 1750 8600 50  0000 L CNN
F 2 "Resistor_SMD:R_0603_1608Metric" V 1880 8550 50  0001 C CNN
F 3 "~" H 1950 8550 50  0001 C CNN
	1    1950 8550
	-1   0    0    1   
$EndComp
$Comp
L Device:R R77
U 1 1 6013ACA9
P 1700 8550
F 0 "R77" H 1800 8500 50  0000 L CNN
F 1 "DNP" H 1750 8600 50  0000 L CNN
F 2 "Resistor_SMD:R_0603_1608Metric" V 1630 8550 50  0001 C CNN
F 3 "~" H 1700 8550 50  0001 C CNN
	1    1700 8550
	-1   0    0    1   
$EndComp
$Comp
L Device:R R81
U 1 1 6013ACAF
P 1700 9200
F 0 "R81" H 1800 9150 50  0000 L CNN
F 1 "0E" H 1850 9250 50  0000 L CNN
F 2 "Resistor_SMD:R_0603_1608Metric" V 1630 9200 50  0001 C CNN
F 3 "~" H 1700 9200 50  0001 C CNN
	1    1700 9200
	-1   0    0    1   
$EndComp
$Comp
L Device:R R82
U 1 1 6013ACB5
P 1950 9200
F 0 "R82" H 1750 9150 50  0000 L CNN
F 1 "0E" H 1800 9250 50  0000 L CNN
F 2 "Resistor_SMD:R_0603_1608Metric" V 1880 9200 50  0001 C CNN
F 3 "~" H 1950 9200 50  0001 C CNN
	1    1950 9200
	-1   0    0    1   
$EndComp
Wire Wire Line
	1950 8700 1950 8850
$Comp
L power:GND #PWR0130
U 1 1 6013ACBC
P 1950 9400
F 0 "#PWR0130" H 1950 9150 50  0001 C CNN
F 1 "GND" H 1955 9227 50  0000 C CNN
F 2 "" H 1950 9400 50  0001 C CNN
F 3 "" H 1950 9400 50  0001 C CNN
	1    1950 9400
	1    0    0    -1  
$EndComp
$Comp
L power:GND #PWR0131
U 1 1 6013ACC2
P 1700 9400
F 0 "#PWR0131" H 1700 9150 50  0001 C CNN
F 1 "GND" H 1705 9227 50  0000 C CNN
F 2 "" H 1700 9400 50  0001 C CNN
F 3 "" H 1700 9400 50  0001 C CNN
	1    1700 9400
	1    0    0    -1  
$EndComp
$Comp
L power:+3V3 #PWR0132
U 1 1 6013ACC8
P 1700 8400
F 0 "#PWR0132" H 1700 8250 50  0001 C CNN
F 1 "+3V3" H 1715 8573 50  0000 C CNN
F 2 "" H 1700 8400 50  0001 C CNN
F 3 "" H 1700 8400 50  0001 C CNN
	1    1700 8400
	1    0    0    -1  
$EndComp
$Comp
L power:+3V3 #PWR0133
U 1 1 6013ACCE
P 1950 8400
F 0 "#PWR0133" H 1950 8250 50  0001 C CNN
F 1 "+3V3" H 1965 8573 50  0000 C CNN
F 2 "" H 1950 8400 50  0001 C CNN
F 3 "" H 1950 8400 50  0001 C CNN
	1    1950 8400
	1    0    0    -1  
$EndComp
Wire Wire Line
	3350 8750 1700 8750
Connection ~ 1700 8750
Wire Wire Line
	1700 8750 1700 8700
Wire Wire Line
	3350 8850 1950 8850
Connection ~ 1950 8850
Wire Wire Line
	1950 8850 1950 9050
Wire Wire Line
	1700 9050 1700 8750
Wire Wire Line
	1950 9350 1950 9400
Wire Wire Line
	1700 9350 1700 9400
$Comp
L power:+3.3VDAC #PWR0134
U 1 1 6015103A
P 3500 7400
F 0 "#PWR0134" H 3650 7350 50  0001 C CNN
F 1 "+3.3VDAC" H 3515 7573 50  0000 C CNN
F 2 "" H 3500 7400 50  0001 C CNN
F 3 "" H 3500 7400 50  0001 C CNN
	1    3500 7400
	1    0    0    -1  
$EndComp
$Comp
L power:+3V3 #PWR0135
U 1 1 60154E89
P 3850 7450
F 0 "#PWR0135" H 3850 7300 50  0001 C CNN
F 1 "+3V3" H 3865 7623 50  0000 C CNN
F 2 "" H 3850 7450 50  0001 C CNN
F 3 "" H 3850 7450 50  0001 C CNN
	1    3850 7450
	1    0    0    -1  
$EndComp
Connection ~ 3850 7450
Connection ~ 3500 7400
Wire Wire Line
	3500 7400 3750 7400
$Comp
L power:+3.3VDAC #PWR0136
U 1 1 6015CC5D
P 4650 7450
F 0 "#PWR0136" H 4800 7400 50  0001 C CNN
F 1 "+3.3VDAC" H 4665 7623 50  0000 C CNN
F 2 "" H 4650 7450 50  0001 C CNN
F 3 "" H 4650 7450 50  0001 C CNN
	1    4650 7450
	1    0    0    -1  
$EndComp
Connection ~ 4650 7450
$Comp
L Connector_Generic:Conn_01x02 J6
U 1 1 60185F83
P 6050 8350
F 0 "J6" H 6000 8150 50  0000 L CNN
F 1 "Audio" H 6000 8450 50  0000 L CNN
F 2 "Phoenix_Contact:PTSA-2.5mm-2pins" H 6050 8350 50  0001 C CNN
F 3 "~" H 6050 8350 50  0001 C CNN
	1    6050 8350
	1    0    0    1   
$EndComp
Text Label 5300 8250 0    50   ~ 0
LOUT
Text Label 5300 8350 0    50   ~ 0
ROUT
Text Label 4350 8550 0    50   ~ 0
CAPP
Text Label 4350 8850 0    50   ~ 0
CAPM
Text Label 4350 9050 0    50   ~ 0
LDOO
Text Label 4350 9150 0    50   ~ 0
VNEG
Text Label 3050 9050 0    50   ~ 0
FMT
Text Label 3050 8850 0    50   ~ 0
DEMP
Text Label 3050 8750 0    50   ~ 0
FLT
Text Label 3050 8550 0    50   ~ 0
SCK
Wire Wire Line
	3050 8550 3350 8550
Wire Wire Line
	3050 9050 3350 9050
Wire Wire Line
	9500 2150 9150 2150
Wire Wire Line
	9150 2300 9500 2300
Wire Wire Line
	1450 2000 1650 2000
Wire Wire Line
	1450 2100 1900 2100
Wire Wire Line
	1900 1750 1900 2100
Connection ~ 1900 2100
Wire Wire Line
	1900 2100 2100 2100
Wire Wire Line
	1650 1750 1650 2000
Connection ~ 1650 2000
Wire Wire Line
	1650 2000 2100 2000
$Comp
L power:+3V3 #PWR0137
U 1 1 602CCA85
P 1650 1450
F 0 "#PWR0137" H 1650 1300 50  0001 C CNN
F 1 "+3V3" H 1665 1623 50  0000 C CNN
F 2 "" H 1650 1450 50  0001 C CNN
F 3 "" H 1650 1450 50  0001 C CNN
	1    1650 1450
	1    0    0    -1  
$EndComp
$Comp
L power:+3V3 #PWR0138
U 1 1 602CD077
P 1900 1450
F 0 "#PWR0138" H 1900 1300 50  0001 C CNN
F 1 "+3V3" H 1915 1623 50  0000 C CNN
F 2 "" H 1900 1450 50  0001 C CNN
F 3 "" H 1900 1450 50  0001 C CNN
	1    1900 1450
	1    0    0    -1  
$EndComp
$Comp
L power:+5V #PWR0139
U 1 1 602F407C
P 1700 5050
F 0 "#PWR0139" H 1700 4900 50  0001 C CNN
F 1 "+5V" H 1715 5223 50  0000 C CNN
F 2 "" H 1700 5050 50  0001 C CNN
F 3 "" H 1700 5050 50  0001 C CNN
	1    1700 5050
	1    0    0    -1  
$EndComp
$Comp
L power:+3.3VDAC #PWR0140
U 1 1 602F7AB0
P 6300 5000
F 0 "#PWR0140" H 6450 4950 50  0001 C CNN
F 1 "+3.3VDAC" H 6315 5173 50  0000 C CNN
F 2 "" H 6300 5000 50  0001 C CNN
F 3 "" H 6300 5000 50  0001 C CNN
	1    6300 5000
	1    0    0    -1  
$EndComp
$Comp
L Device:CP C3
U 1 1 602FA308
P 1700 5350
F 0 "C3" H 1818 5396 50  0000 L CNN
F 1 "22uF" H 1818 5305 50  0000 L CNN
F 2 "Capacitor_SMD:CP_Elec_5x5.4" H 1738 5200 50  0001 C CNN
F 3 "~" H 1700 5350 50  0001 C CNN
F 4 "865230342002" H 1700 5350 50  0001 C CNN "PartNumber"
	1    1700 5350
	1    0    0    -1  
$EndComp
$Comp
L Device:C C4
U 1 1 602FC57B
P 2150 5350
F 0 "C4" H 2265 5396 50  0000 L CNN
F 1 "1uF" H 2265 5305 50  0000 L CNN
F 2 "Capacitor_SMD:C_0603_1608Metric" H 2188 5200 50  0001 C CNN
F 3 "~" H 2150 5350 50  0001 C CNN
F 4 "CL10B105KA8NFNC" H 2150 5350 50  0001 C CNN "PartNumber"
	1    2150 5350
	1    0    0    -1  
$EndComp
$Comp
L Device:C C5
U 1 1 602FD807
P 2550 5350
F 0 "C5" H 2665 5396 50  0000 L CNN
F 1 "100nF" H 2665 5305 50  0000 L CNN
F 2 "Capacitor_SMD:C_0603_1608Metric" H 2588 5200 50  0001 C CNN
F 3 "~" H 2550 5350 50  0001 C CNN
	1    2550 5350
	1    0    0    -1  
$EndComp
$Comp
L Device:L_Core_Ferrite L1
U 1 1 6030388A
P 5850 5050
F 0 "L1" V 6075 5050 50  0000 C CNN
F 1 "L_Core_Ferrite" V 5984 5050 50  0000 C CNN
F 2 "Inductor_SMD:L_0603_1608Metric" H 5850 5050 50  0001 C CNN
F 3 "~" H 5850 5050 50  0001 C CNN
	1    5850 5050
	0    -1   -1   0   
$EndComp
$Comp
L ON_Semiconductor:NCP163ASN330T1G U2
U 1 1 60319564
P 3900 5150
F 0 "U2" H 3900 5515 50  0000 C CNN
F 1 "NCP163ASN330T1G" H 3900 5424 50  0000 C CNN
F 2 "Package_TO_SOT_SMD:SOT-23-5" H 3650 5400 50  0001 C CNN
F 3 "https://www.onsemi.com/pub/Collateral/NCP163-D.PDF" H 3650 5400 50  0001 C CNN
	1    3900 5150
	1    0    0    -1  
$EndComp
$Comp
L Device:R R61
U 1 1 60358D12
P 3100 5200
F 0 "R61" V 3050 5000 50  0000 C CNN
F 1 "100k" V 3050 5450 50  0000 C CNN
F 2 "Resistor_SMD:R_0603_1608Metric" V 3030 5200 50  0001 C CNN
F 3 "~" H 3100 5200 50  0001 C CNN
	1    3100 5200
	0    1    1    0   
$EndComp
Wire Wire Line
	3500 5200 3350 5200
Wire Wire Line
	3500 5050 2800 5050
Wire Wire Line
	2950 5200 2800 5200
Wire Wire Line
	2800 5200 2800 5050
Connection ~ 2800 5050
$Comp
L power:GND #PWR0141
U 1 1 603D9003
P 1700 5500
F 0 "#PWR0141" H 1700 5250 50  0001 C CNN
F 1 "GND" H 1705 5327 50  0000 C CNN
F 2 "" H 1700 5500 50  0001 C CNN
F 3 "" H 1700 5500 50  0001 C CNN
	1    1700 5500
	1    0    0    -1  
$EndComp
$Comp
L power:GND #PWR0142
U 1 1 603D9892
P 2150 5500
F 0 "#PWR0142" H 2150 5250 50  0001 C CNN
F 1 "GND" H 2155 5327 50  0000 C CNN
F 2 "" H 2150 5500 50  0001 C CNN
F 3 "" H 2150 5500 50  0001 C CNN
	1    2150 5500
	1    0    0    -1  
$EndComp
$Comp
L power:GND #PWR0143
U 1 1 603D9C1F
P 2550 5500
F 0 "#PWR0143" H 2550 5250 50  0001 C CNN
F 1 "GND" H 2555 5327 50  0000 C CNN
F 2 "" H 2550 5500 50  0001 C CNN
F 3 "" H 2550 5500 50  0001 C CNN
	1    2550 5500
	1    0    0    -1  
$EndComp
$Comp
L power:GNDA #PWR0144
U 1 1 603DB0E5
P 3900 5550
F 0 "#PWR0144" H 3900 5300 50  0001 C CNN
F 1 "GNDA" H 3905 5377 50  0000 C CNN
F 2 "" H 3900 5550 50  0001 C CNN
F 3 "" H 3900 5550 50  0001 C CNN
	1    3900 5550
	1    0    0    -1  
$EndComp
Wire Wire Line
	2550 5050 2550 5200
Wire Wire Line
	2550 5050 2800 5050
Wire Wire Line
	2550 5050 2150 5050
Wire Wire Line
	2150 5050 2150 5200
Connection ~ 2550 5050
Wire Wire Line
	2150 5050 1700 5050
Wire Wire Line
	1700 5050 1700 5200
Connection ~ 2150 5050
Connection ~ 1700 5050
$Comp
L Device:C C6
U 1 1 6041FE49
P 4550 5350
F 0 "C6" H 4665 5396 50  0000 L CNN
F 1 "100nF" H 4665 5305 50  0000 L CNN
F 2 "Capacitor_SMD:C_0603_1608Metric" H 4588 5200 50  0001 C CNN
F 3 "~" H 4550 5350 50  0001 C CNN
	1    4550 5350
	1    0    0    -1  
$EndComp
$Comp
L Device:C C7
U 1 1 60420DDB
P 5050 5350
F 0 "C7" H 5165 5396 50  0000 L CNN
F 1 "1uF" H 5165 5305 50  0000 L CNN
F 2 "Capacitor_SMD:C_0603_1608Metric" H 5088 5200 50  0001 C CNN
F 3 "~" H 5050 5350 50  0001 C CNN
F 4 "CL10B105KA8NFNC" H 5050 5350 50  0001 C CNN "PartNumber"
	1    5050 5350
	1    0    0    -1  
$EndComp
$Comp
L Device:CP C8
U 1 1 60421416
P 5500 5350
F 0 "C8" H 5618 5396 50  0000 L CNN
F 1 "22uF" H 5618 5305 50  0000 L CNN
F 2 "Capacitor_SMD:CP_Elec_5x5.4" H 5538 5200 50  0001 C CNN
F 3 "~" H 5500 5350 50  0001 C CNN
F 4 "865230342002" H 5500 5350 50  0001 C CNN "PartNumber"
	1    5500 5350
	1    0    0    -1  
$EndComp
Wire Wire Line
	5700 5050 5500 5050
Wire Wire Line
	4550 5200 4550 5050
Connection ~ 4550 5050
Wire Wire Line
	4550 5050 4300 5050
Wire Wire Line
	5050 5200 5050 5050
Connection ~ 5050 5050
Wire Wire Line
	5050 5050 4550 5050
Wire Wire Line
	5500 5200 5500 5050
Connection ~ 5500 5050
Wire Wire Line
	5500 5050 5050 5050
$Comp
L power:GNDA #PWR0145
U 1 1 60478529
P 4550 5500
F 0 "#PWR0145" H 4550 5250 50  0001 C CNN
F 1 "GNDA" H 4555 5327 50  0000 C CNN
F 2 "" H 4550 5500 50  0001 C CNN
F 3 "" H 4550 5500 50  0001 C CNN
	1    4550 5500
	1    0    0    -1  
$EndComp
$Comp
L power:GNDA #PWR0146
U 1 1 604788AF
P 5050 5500
F 0 "#PWR0146" H 5050 5250 50  0001 C CNN
F 1 "GNDA" H 5055 5327 50  0000 C CNN
F 2 "" H 5050 5500 50  0001 C CNN
F 3 "" H 5050 5500 50  0001 C CNN
	1    5050 5500
	1    0    0    -1  
$EndComp
$Comp
L power:GNDA #PWR0147
U 1 1 60478BA7
P 5500 5500
F 0 "#PWR0147" H 5500 5250 50  0001 C CNN
F 1 "GNDA" H 5505 5327 50  0000 C CNN
F 2 "" H 5500 5500 50  0001 C CNN
F 3 "" H 5500 5500 50  0001 C CNN
	1    5500 5500
	1    0    0    -1  
$EndComp
Wire Wire Line
	6000 5050 6300 5050
Wire Wire Line
	6300 5050 6300 5000
$Comp
L power:GND #PWR0148
U 1 1 604AACB3
P 3350 6100
F 0 "#PWR0148" H 3350 5850 50  0001 C CNN
F 1 "GND" H 3355 5927 50  0000 C CNN
F 2 "" H 3350 6100 50  0001 C CNN
F 3 "" H 3350 6100 50  0001 C CNN
	1    3350 6100
	1    0    0    -1  
$EndComp
Wire Wire Line
	3350 5700 3350 5200
Connection ~ 3350 5200
Wire Wire Line
	3350 5200 3250 5200
Text Label 2500 5900 0    50   ~ 0
PDown
Wire Wire Line
	2500 5900 3000 5900
$Comp
L Device:R R63
U 1 1 60500539
P 3000 5700
F 0 "R63" H 2900 5650 50  0000 C CNN
F 1 "10k" H 2800 5750 50  0000 L CNN
F 2 "Resistor_SMD:R_0603_1608Metric" V 2930 5700 50  0001 C CNN
F 3 "~" H 3000 5700 50  0001 C CNN
	1    3000 5700
	-1   0    0    1   
$EndComp
Wire Wire Line
	3000 5850 3000 5900
Connection ~ 3000 5900
Wire Wire Line
	3000 5900 3050 5900
$Comp
L power:+3V3 #PWR0149
U 1 1 6051AB3E
P 3000 5550
F 0 "#PWR0149" H 3000 5400 50  0001 C CNN
F 1 "+3V3" H 3015 5723 50  0000 C CNN
F 2 "" H 3000 5550 50  0001 C CNN
F 3 "" H 3000 5550 50  0001 C CNN
	1    3000 5550
	1    0    0    -1  
$EndComp
$Comp
L Analog~Devices:ADP5585ACPZ U3
U 1 1 6074DF2B
P 8450 6300
F 0 "U3" H 8475 7215 50  0000 C CNN
F 1 "ADP5585ACPZ" H 8475 7124 50  0000 C CNN
F 2 "Package_DFN_QFN:QFN-16-1EP_3x3mm_P0.5mm_EP1.7x1.7mm" H 8250 7100 50  0001 C CNN
F 3 "" H 8250 7100 50  0001 C CNN
	1    8450 6300
	1    0    0    -1  
$EndComp
$Comp
L power:GND #PWR0150
U 1 1 60752259
P 8400 7300
F 0 "#PWR0150" H 8400 7050 50  0001 C CNN
F 1 "GND" H 8405 7127 50  0000 C CNN
F 2 "" H 8400 7300 50  0001 C CNN
F 3 "" H 8400 7300 50  0001 C CNN
	1    8400 7300
	1    0    0    -1  
$EndComp
$Comp
L power:GND #PWR0151
U 1 1 60752DD0
P 8550 7300
F 0 "#PWR0151" H 8550 7050 50  0001 C CNN
F 1 "GND" H 8555 7127 50  0000 C CNN
F 2 "" H 8550 7300 50  0001 C CNN
F 3 "" H 8550 7300 50  0001 C CNN
	1    8550 7300
	1    0    0    -1  
$EndComp
$Comp
L Device:C C2
U 1 1 607554A9
P 7400 5250
F 0 "C2" H 7515 5296 50  0000 L CNN
F 1 "100nF" H 7515 5205 50  0000 L CNN
F 2 "Capacitor_SMD:C_0603_1608Metric" H 7438 5100 50  0001 C CNN
F 3 "~" H 7400 5250 50  0001 C CNN
	1    7400 5250
	1    0    0    -1  
$EndComp
$Comp
L power:+3V3 #PWR0152
U 1 1 60758AC3
P 7800 4950
F 0 "#PWR0152" H 7800 4800 50  0001 C CNN
F 1 "+3V3" H 7815 5123 50  0000 C CNN
F 2 "" H 7800 4950 50  0001 C CNN
F 3 "" H 7800 4950 50  0001 C CNN
	1    7800 4950
	1    0    0    -1  
$EndComp
$Comp
L power:GND #PWR0153
U 1 1 6075C5E3
P 7400 5400
F 0 "#PWR0153" H 7400 5150 50  0001 C CNN
F 1 "GND" H 7405 5227 50  0000 C CNN
F 2 "" H 7400 5400 50  0001 C CNN
F 3 "" H 7400 5400 50  0001 C CNN
	1    7400 5400
	1    0    0    -1  
$EndComp
Wire Wire Line
	7850 5650 7800 5650
Wire Wire Line
	7800 5650 7800 5050
Wire Wire Line
	7800 5050 7400 5050
Wire Wire Line
	7400 5050 7400 5100
Connection ~ 7800 5050
Wire Wire Line
	7800 5050 7800 4950
Text Label 7500 5950 0    50   ~ 0
SDA
Text Label 7500 6100 0    50   ~ 0
SCL
Wire Wire Line
	7850 6100 7500 6100
Wire Wire Line
	7500 5950 7850 5950
Text Label 1600 2200 0    50   ~ 0
1Wire
Wire Wire Line
	2400 2200 3100 2200
Text Label 7450 6500 0    50   ~ 0
RST
Text Label 6850 6950 0    50   ~ 0
INT
$Comp
L Device:R R70
U 1 1 608A7383
P 7250 6750
F 0 "R70" H 7150 6700 50  0000 C CNN
F 1 "100k" H 7100 6800 50  0000 C CNN
F 2 "Resistor_SMD:R_0603_1608Metric" V 7180 6750 50  0001 C CNN
F 3 "~" H 7250 6750 50  0001 C CNN
	1    7250 6750
	-1   0    0    1   
$EndComp
$Comp
L power:+3V3 #PWR0154
U 1 1 608A9DCC
P 7250 6600
F 0 "#PWR0154" H 7250 6450 50  0001 C CNN
F 1 "+3V3" H 7265 6773 50  0000 C CNN
F 2 "" H 7250 6600 50  0001 C CNN
F 3 "" H 7250 6600 50  0001 C CNN
	1    7250 6600
	1    0    0    -1  
$EndComp
Wire Wire Line
	7250 6950 7250 6900
Wire Wire Line
	7250 6950 7850 6950
Connection ~ 7250 6950
Wire Wire Line
	6850 6950 7250 6950
$Comp
L Connector_Generic:Conn_01x05 J4
U 1 1 6091AB3A
P 12300 5750
F 0 "J4" H 12250 6050 50  0000 L CNN
F 1 "Rotary1" H 12250 5450 50  0000 L CNN
F 2 "Phoenix_Contact:PTSA-2.5mm-5pins" H 12300 5750 50  0001 C CNN
F 3 "~" H 12300 5750 50  0001 C CNN
	1    12300 5750
	1    0    0    -1  
$EndComp
$Comp
L Connector_Generic:Conn_01x05 J5
U 1 1 6091C7F7
P 12300 6800
F 0 "J5" H 12250 6500 50  0000 L CNN
F 1 "Rotary2" H 12250 7100 50  0000 L CNN
F 2 "Phoenix_Contact:PTSA-2.5mm-5pins" H 12300 6800 50  0001 C CNN
F 3 "~" H 12300 6800 50  0001 C CNN
	1    12300 6800
	1    0    0    1   
$EndComp
Wire Wire Line
	12100 7000 11900 7000
Wire Wire Line
	9100 6850 9150 6850
Wire Wire Line
	9150 6850 9150 6900
Wire Wire Line
	9100 6700 9250 6700
Wire Wire Line
	9250 6700 9250 6800
Wire Wire Line
	9100 6550 9350 6550
Wire Wire Line
	9350 6550 9350 6700
Wire Wire Line
	9100 6400 9450 6400
Wire Wire Line
	9450 6400 9450 6600
Wire Wire Line
	12100 5550 11900 5550
$Comp
L Device:R R62
U 1 1 60A379F4
P 11750 5550
F 0 "R62" V 11700 5350 50  0000 C CNN
F 1 "10k" V 11700 5800 50  0000 C CNN
F 2 "Resistor_SMD:R_0603_1608Metric" V 11680 5550 50  0001 C CNN
F 3 "~" H 11750 5550 50  0001 C CNN
	1    11750 5550
	0    1    1    0   
$EndComp
$Comp
L Device:R R64
U 1 1 60A38DC7
P 11750 5650
F 0 "R64" V 11700 5450 50  0000 C CNN
F 1 "10k" V 11700 5900 50  0000 C CNN
F 2 "Resistor_SMD:R_0603_1608Metric" V 11680 5650 50  0001 C CNN
F 3 "~" H 11750 5650 50  0001 C CNN
	1    11750 5650
	0    1    1    0   
$EndComp
Wire Wire Line
	11900 5650 12100 5650
Wire Wire Line
	11900 5750 12100 5750
Wire Wire Line
	11900 5850 12100 5850
Wire Wire Line
	11900 5950 12100 5950
$Comp
L Device:R R68
U 1 1 60A3A0C6
P 11750 7000
F 0 "R68" V 11700 6800 50  0000 C CNN
F 1 "10k" V 11700 7250 50  0000 C CNN
F 2 "Resistor_SMD:R_0603_1608Metric" V 11680 7000 50  0001 C CNN
F 3 "~" H 11750 7000 50  0001 C CNN
	1    11750 7000
	0    1    1    0   
$EndComp
Wire Wire Line
	11900 6600 12100 6600
$Comp
L Device:R R69
U 1 1 60A3A66C
P 11750 6900
F 0 "R69" V 11700 6700 50  0000 C CNN
F 1 "10k" V 11700 7150 50  0000 C CNN
F 2 "Resistor_SMD:R_0603_1608Metric" V 11680 6900 50  0001 C CNN
F 3 "~" H 11750 6900 50  0001 C CNN
	1    11750 6900
	0    1    1    0   
$EndComp
Wire Wire Line
	11900 6700 12100 6700
$Comp
L Device:R R71
U 1 1 60A3AA1E
P 11750 6800
F 0 "R71" V 11700 6600 50  0000 C CNN
F 1 "10k" V 11700 7050 50  0000 C CNN
F 2 "Resistor_SMD:R_0603_1608Metric" V 11680 6800 50  0001 C CNN
F 3 "~" H 11750 6800 50  0001 C CNN
	1    11750 6800
	0    1    1    0   
$EndComp
Wire Wire Line
	11900 6800 12100 6800
$Comp
L Device:R R72
U 1 1 60A3ACE3
P 11750 6700
F 0 "R72" V 11700 6500 50  0000 C CNN
F 1 "10k" V 11700 6950 50  0000 C CNN
F 2 "Resistor_SMD:R_0603_1608Metric" V 11680 6700 50  0001 C CNN
F 3 "~" H 11750 6700 50  0001 C CNN
	1    11750 6700
	0    1    1    0   
$EndComp
Wire Wire Line
	11900 6900 12100 6900
$Comp
L Device:R R73
U 1 1 60A3AFE0
P 11750 6600
F 0 "R73" V 11700 6400 50  0000 C CNN
F 1 "10k" V 11700 6850 50  0000 C CNN
F 2 "Resistor_SMD:R_0603_1608Metric" V 11680 6600 50  0001 C CNN
F 3 "~" H 11750 6600 50  0001 C CNN
	1    11750 6600
	0    1    1    0   
$EndComp
$Comp
L Device:R R59
U 1 1 60A6A08C
P 9100 4050
F 0 "R59" H 8900 4000 50  0000 L CNN
F 1 "100k" H 8950 4100 50  0000 C CNN
F 2 "Resistor_SMD:R_0603_1608Metric" V 9030 4050 50  0001 C CNN
F 3 "~" H 9100 4050 50  0001 C CNN
	1    9100 4050
	-1   0    0    1   
$EndComp
$Comp
L power:GND #PWR0156
U 1 1 60A6C454
P 9100 4200
F 0 "#PWR0156" H 9100 3950 50  0001 C CNN
F 1 "GND" H 9105 4027 50  0000 C CNN
F 2 "" H 9100 4200 50  0001 C CNN
F 3 "" H 9100 4200 50  0001 C CNN
	1    9100 4200
	1    0    0    -1  
$EndComp
Wire Wire Line
	9100 3900 9100 3250
Wire Wire Line
	9100 3250 9500 3250
Wire Wire Line
	9100 3250 8950 3250
Connection ~ 9100 3250
Text Label 1600 3300 0    50   ~ 0
ISO_OUT1
Wire Wire Line
	4550 3400 5100 3400
Text Label 1600 3400 0    50   ~ 0
ISO_OUT2
$Comp
L Device:R R83
U 1 1 60B54640
P 3300 9500
F 0 "R83" H 3100 9450 50  0000 L CNN
F 1 "100k" H 3050 9550 50  0000 L CNN
F 2 "Resistor_SMD:R_0603_1608Metric" V 3230 9500 50  0001 C CNN
F 3 "~" H 3300 9500 50  0001 C CNN
	1    3300 9500
	-1   0    0    1   
$EndComp
Wire Wire Line
	3300 9350 3300 8950
$Comp
L power:GND #PWR0157
U 1 1 60B77E32
P 3300 9650
F 0 "#PWR0157" H 3300 9400 50  0001 C CNN
F 1 "GND" H 3300 9500 50  0000 C CNN
F 2 "" H 3300 9650 50  0001 C CNN
F 3 "" H 3300 9650 50  0001 C CNN
	1    3300 9650
	1    0    0    -1  
$EndComp
Text Notes 12750 1550 0    50   ~ 0
Total of 9 LEDs needed. Other I/Os\nare to be used freely.
Wire Wire Line
	11350 3050 14450 3050
$Comp
L Device:R R22
U 1 1 6195F713
P 12500 2850
F 0 "R22" H 12300 2800 50  0000 L CNN
F 1 "100k" H 12350 2900 50  0000 C CNN
F 2 "Resistor_SMD:R_0603_1608Metric" V 12430 2850 50  0001 C CNN
F 3 "~" H 12500 2850 50  0001 C CNN
	1    12500 2850
	-1   0    0    1   
$EndComp
$Comp
L Device:R R23
U 1 1 6195F719
P 12800 2850
F 0 "R23" H 12600 2800 50  0000 L CNN
F 1 "100k" H 12650 2900 50  0000 C CNN
F 2 "Resistor_SMD:R_0603_1608Metric" V 12730 2850 50  0001 C CNN
F 3 "~" H 12800 2850 50  0001 C CNN
	1    12800 2850
	-1   0    0    1   
$EndComp
$Comp
L Device:R R24
U 1 1 6195F71F
P 13100 2850
F 0 "R24" H 12900 2800 50  0000 L CNN
F 1 "100k" H 12950 2900 50  0000 C CNN
F 2 "Resistor_SMD:R_0603_1608Metric" V 13030 2850 50  0001 C CNN
F 3 "~" H 13100 2850 50  0001 C CNN
	1    13100 2850
	-1   0    0    1   
$EndComp
$Comp
L Device:R R25
U 1 1 6195F725
P 13400 2850
F 0 "R25" H 13200 2800 50  0000 L CNN
F 1 "100k" H 13250 2900 50  0000 C CNN
F 2 "Resistor_SMD:R_0603_1608Metric" V 13330 2850 50  0001 C CNN
F 3 "~" H 13400 2850 50  0001 C CNN
	1    13400 2850
	-1   0    0    1   
$EndComp
$Comp
L Device:R R26
U 1 1 6195F72B
P 13700 2850
F 0 "R26" H 13500 2800 50  0000 L CNN
F 1 "100k" H 13550 2900 50  0000 C CNN
F 2 "Resistor_SMD:R_0603_1608Metric" V 13630 2850 50  0001 C CNN
F 3 "~" H 13700 2850 50  0001 C CNN
	1    13700 2850
	-1   0    0    1   
$EndComp
$Comp
L Device:R R27
U 1 1 6195F731
P 14000 2850
F 0 "R27" H 13800 2800 50  0000 L CNN
F 1 "100k" H 13850 2900 50  0000 C CNN
F 2 "Resistor_SMD:R_0603_1608Metric" V 13930 2850 50  0001 C CNN
F 3 "~" H 14000 2850 50  0001 C CNN
	1    14000 2850
	-1   0    0    1   
$EndComp
$Comp
L Device:R R28
U 1 1 6195F737
P 14300 2850
F 0 "R28" H 14100 2800 50  0000 L CNN
F 1 "100k" H 14150 2900 50  0000 C CNN
F 2 "Resistor_SMD:R_0603_1608Metric" V 14230 2850 50  0001 C CNN
F 3 "~" H 14300 2850 50  0001 C CNN
	1    14300 2850
	-1   0    0    1   
$EndComp
Wire Wire Line
	12500 3000 12500 3750
Wire Wire Line
	12800 3000 12800 3650
Wire Wire Line
	13100 3000 13100 3550
Wire Wire Line
	13400 3000 13400 3450
Wire Wire Line
	13700 3000 13700 3350
Wire Wire Line
	14000 3000 14000 3250
Wire Wire Line
	14300 3000 14300 3150
Connection ~ 12500 3750
Wire Wire Line
	12500 3750 14450 3750
Connection ~ 12800 3650
Wire Wire Line
	12800 3650 14450 3650
Connection ~ 13100 3550
Wire Wire Line
	13100 3550 14450 3550
Connection ~ 13400 3450
Wire Wire Line
	13400 3450 14450 3450
Connection ~ 13700 3350
Wire Wire Line
	13700 3350 14450 3350
Connection ~ 14000 3250
Wire Wire Line
	14000 3250 14450 3250
Connection ~ 14300 3150
Wire Wire Line
	14300 3150 14450 3150
Wire Wire Line
	12200 3750 12500 3750
Wire Wire Line
	12100 3650 12800 3650
Wire Wire Line
	12000 3550 13100 3550
Wire Wire Line
	11900 3450 13400 3450
Wire Wire Line
	11800 3350 13700 3350
Wire Wire Line
	11700 3250 14000 3250
Wire Wire Line
	11600 3150 14300 3150
Wire Wire Line
	14450 2350 12350 2350
Wire Wire Line
	12350 2350 12350 2900
Wire Wire Line
	11350 2900 12350 2900
Wire Wire Line
	12250 2750 12250 2250
Wire Wire Line
	12250 2250 14450 2250
Wire Wire Line
	11350 2750 12250 2750
Wire Wire Line
	14450 2150 12150 2150
Wire Wire Line
	12150 2150 12150 2600
Wire Wire Line
	11350 2600 12150 2600
Wire Wire Line
	12050 2450 12050 2050
Wire Wire Line
	12050 2050 14450 2050
Wire Wire Line
	11350 2450 12050 2450
Wire Wire Line
	14450 1950 11950 1950
Wire Wire Line
	11950 1950 11950 2300
Wire Wire Line
	11950 2300 11350 2300
Wire Wire Line
	11350 2150 11850 2150
Wire Wire Line
	11850 2150 11850 1850
Wire Wire Line
	11850 1850 14450 1850
Wire Wire Line
	14450 1750 11750 1750
Wire Wire Line
	11750 1750 11750 2000
Wire Wire Line
	11350 2000 11750 2000
Wire Wire Line
	11350 1850 11650 1850
Wire Wire Line
	11650 1850 11650 1650
Wire Wire Line
	11650 1650 14450 1650
$Sheet
S 11250 7850 1850 1650
U 602EDC29
F0 "amprpish-1-IO" 50
F1 "amprpish-1-IO.sch" 50
F2 "1Wire" B L 11250 7950 50 
F3 "SDA" B L 11250 8150 50 
F4 "SCL" I L 11250 8250 50 
F5 "TX" I L 11250 8400 50 
F6 "RX" O L 11250 8500 50 
F7 "LCLK" I R 13100 8150 50 
F8 "LDOUT" I R 13100 7950 50 
F9 "LCS" I R 13100 8250 50 
F10 "LDIN" O R 13100 8050 50 
F11 "ISO_OUT1" I R 13100 8450 50 
F12 "ISO_OUT2" I R 13100 8550 50 
F13 "ISO_IN1" O R 13100 8650 50 
F14 "ISO_IN2" O R 13100 8750 50 
F15 "DC_PROT1" O R 13100 8950 50 
F16 "DC_PROT2" O R 13100 9050 50 
F17 "SPK_ON1" I R 13100 9150 50 
F18 "SPK_ON2" I R 13100 9250 50 
F19 "MISO" O L 11250 8750 50 
F20 "MOSI" I L 11250 8850 50 
F21 "SCLK" I L 11250 8950 50 
F22 "CS" I L 11250 9050 50 
$EndSheet
Text Label 8950 3250 0    50   ~ 0
RST
$Comp
L Device:Q_NMOS_GSD Q1
U 1 1 601B35D1
P 3250 5900
F 0 "Q1" H 3455 5946 50  0000 L CNN
F 1 "NTR5103NT1G" H 3455 5855 50  0000 L CNN
F 2 "Package_TO_SOT_SMD:SOT-23" H 3450 6000 50  0001 C CNN
F 3 "~" H 3250 5900 50  0001 C CNN
	1    3250 5900
	1    0    0    -1  
$EndComp
$Comp
L Graphic:Logo_Open_Hardware_Large #LOGO1
U 1 1 60347BBA
P 8750 9350
F 0 "#LOGO1" H 8750 9850 50  0001 C CNN
F 1 "Logo_Open_Hardware_Large" H 8750 8950 50  0001 C CNN
F 2 "" H 8750 9350 50  0001 C CNN
F 3 "~" H 8750 9350 50  0001 C CNN
	1    8750 9350
	1    0    0    -1  
$EndComp
$Comp
L Graphic:SYM_ESD_Large #SYM1
U 1 1 6035FF1B
P 10000 9250
F 0 "#SYM1" H 10000 9450 50  0001 C CNN
F 1 "SYM_ESD_Large" H 10000 9000 50  0001 C CNN
F 2 "" H 9995 9220 50  0001 C CNN
F 3 "~" H 9995 9220 50  0001 C CNN
	1    10000 9250
	1    0    0    -1  
$EndComp
$Comp
L Mechanical:MountingHole H1
U 1 1 60365E3E
P 14750 8600
F 0 "H1" H 14850 8646 50  0000 L CNN
F 1 "MountingHole" H 14850 8555 50  0000 L CNN
F 2 "MountingHole:MountingHole_3.2mm_M3" H 14750 8600 50  0001 C CNN
F 3 "~" H 14750 8600 50  0001 C CNN
	1    14750 8600
	1    0    0    -1  
$EndComp
$Comp
L Mechanical:MountingHole H2
U 1 1 60368597
P 14750 8800
F 0 "H2" H 14850 8846 50  0000 L CNN
F 1 "MountingHole" H 14850 8755 50  0000 L CNN
F 2 "MountingHole:MountingHole_3.2mm_M3" H 14750 8800 50  0001 C CNN
F 3 "~" H 14750 8800 50  0001 C CNN
	1    14750 8800
	1    0    0    -1  
$EndComp
$Comp
L Mechanical:MountingHole H3
U 1 1 60368727
P 14750 9000
F 0 "H3" H 14850 9046 50  0000 L CNN
F 1 "MountingHole" H 14850 8955 50  0000 L CNN
F 2 "MountingHole:MountingHole_3.2mm_M3" H 14750 9000 50  0001 C CNN
F 3 "~" H 14750 9000 50  0001 C CNN
	1    14750 9000
	1    0    0    -1  
$EndComp
$Comp
L Mechanical:MountingHole H4
U 1 1 603688D8
P 14750 9200
F 0 "H4" H 14850 9246 50  0000 L CNN
F 1 "MountingHole" H 14850 9155 50  0000 L CNN
F 2 "MountingHole:MountingHole_3.2mm_M3" H 14750 9200 50  0001 C CNN
F 3 "~" H 14750 9200 50  0001 C CNN
	1    14750 9200
	1    0    0    -1  
$EndComp
$Comp
L Device:Net-Tie_2 NT1
U 1 1 6043DE91
P 4950 6500
F 0 "NT1" H 4950 6681 50  0000 C CNN
F 1 "Net-Tie_2" H 4950 6590 50  0000 C CNN
F 2 "NetTie:NetTie-2_THT_Pad0.3mm" H 4950 6500 50  0001 C CNN
F 3 "~" H 4950 6500 50  0001 C CNN
	1    4950 6500
	1    0    0    -1  
$EndComp
$Comp
L power:GNDA #PWR0218
U 1 1 6043EF21
P 5150 6600
F 0 "#PWR0218" H 5150 6350 50  0001 C CNN
F 1 "GNDA" H 5155 6427 50  0000 C CNN
F 2 "" H 5150 6600 50  0001 C CNN
F 3 "" H 5150 6600 50  0001 C CNN
	1    5150 6600
	1    0    0    -1  
$EndComp
$Comp
L power:GND #PWR0219
U 1 1 6043F506
P 4750 6600
F 0 "#PWR0219" H 4750 6350 50  0001 C CNN
F 1 "GND" H 4755 6427 50  0000 C CNN
F 2 "" H 4750 6600 50  0001 C CNN
F 3 "" H 4750 6600 50  0001 C CNN
	1    4750 6600
	1    0    0    -1  
$EndComp
Wire Wire Line
	4850 6500 4750 6500
Wire Wire Line
	4750 6500 4750 6600
Wire Wire Line
	5050 6500 5150 6500
Wire Wire Line
	5150 6500 5150 6600
$Comp
L power:+5V #PWR04
U 1 1 6059A9AC
P 15150 2650
F 0 "#PWR04" H 15150 2500 50  0001 C CNN
F 1 "+5V" V 15150 2750 50  0000 L CNN
F 2 "" H 15150 2650 50  0001 C CNN
F 3 "" H 15150 2650 50  0001 C CNN
	1    15150 2650
	0    1    1    0   
$EndComp
Text Label 12300 3150 0    50   ~ 0
RS
Text Label 12300 3250 0    50   ~ 0
RW
Text Label 12300 3350 0    50   ~ 0
E
Text Label 12300 3450 0    50   ~ 0
D0
Text Label 12300 3550 0    50   ~ 0
D1
Text Label 12300 3650 0    50   ~ 0
D2
Text Label 12300 3750 0    50   ~ 0
D3
$Comp
L Device:R R90
U 1 1 605B0EDF
P 14850 2550
F 0 "R90" V 14800 2750 50  0000 C CNN
F 1 "DNP" V 14800 2350 50  0000 C CNN
F 2 "Resistor_SMD:R_0603_1608Metric" V 14780 2550 50  0001 C CNN
F 3 "~" H 14850 2550 50  0001 C CNN
	1    14850 2550
	0    -1   -1   0   
$EndComp
$Comp
L Device:R R91
U 1 1 605B9580
P 14850 2650
F 0 "R91" V 14800 2850 50  0000 C CNN
F 1 "0E" V 14800 2450 50  0000 C CNN
F 2 "Resistor_SMD:R_0603_1608Metric" V 14780 2650 50  0001 C CNN
F 3 "~" H 14850 2650 50  0001 C CNN
	1    14850 2650
	0    -1   -1   0   
$EndComp
$Comp
L power:+3V3 #PWR03
U 1 1 605B97E8
P 15150 2550
F 0 "#PWR03" H 15150 2400 50  0001 C CNN
F 1 "+3V3" V 15150 2650 50  0000 L CNN
F 2 "" H 15150 2550 50  0001 C CNN
F 3 "" H 15150 2550 50  0001 C CNN
	1    15150 2550
	0    1    1    0   
$EndComp
Wire Wire Line
	14700 2650 14550 2650
Wire Wire Line
	12500 2650 12500 2700
Wire Wire Line
	12800 2700 12800 2650
Connection ~ 12800 2650
Wire Wire Line
	12800 2650 12500 2650
Wire Wire Line
	13100 2700 13100 2650
Connection ~ 13100 2650
Wire Wire Line
	13100 2650 12800 2650
Wire Wire Line
	13400 2700 13400 2650
Connection ~ 13400 2650
Wire Wire Line
	13400 2650 13100 2650
Wire Wire Line
	13700 2700 13700 2650
Connection ~ 13700 2650
Wire Wire Line
	13700 2650 13400 2650
Wire Wire Line
	14000 2700 14000 2650
Connection ~ 14000 2650
Wire Wire Line
	14000 2650 13700 2650
Wire Wire Line
	14300 2700 14300 2650
Connection ~ 14300 2650
Wire Wire Line
	14300 2650 14000 2650
Wire Wire Line
	14700 2550 14550 2550
Wire Wire Line
	14550 2550 14550 2650
Connection ~ 14550 2650
Wire Wire Line
	14550 2650 14300 2650
Wire Wire Line
	15150 2550 15000 2550
Wire Wire Line
	15150 2650 15000 2650
Text Label 10950 8150 0    50   ~ 0
SDA
Text Label 10950 7950 0    50   ~ 0
1Wire
Text Label 10950 8400 0    50   ~ 0
TX
Text Label 10950 8500 0    50   ~ 0
RX
Text Label 10950 8250 0    50   ~ 0
SCL
$Comp
L Device:C C49
U 1 1 60157F73
P 11400 6200
F 0 "C49" H 11515 6246 50  0000 L CNN
F 1 "100nF" H 11515 6155 50  0000 L CNN
F 2 "Capacitor_SMD:C_0603_1608Metric" H 11438 6050 50  0001 C CNN
F 3 "~" H 11400 6200 50  0001 C CNN
	1    11400 6200
	1    0    0    -1  
$EndComp
$Comp
L Device:R R65
U 1 1 60A39093
P 11750 5750
F 0 "R65" V 11700 5550 50  0000 C CNN
F 1 "10k" V 11700 6000 50  0000 C CNN
F 2 "Resistor_SMD:R_0603_1608Metric" V 11680 5750 50  0001 C CNN
F 3 "~" H 11750 5750 50  0001 C CNN
	1    11750 5750
	0    1    1    0   
$EndComp
$Comp
L Device:R R66
U 1 1 60A39353
P 11750 5850
F 0 "R66" V 11700 5650 50  0000 C CNN
F 1 "10k" V 11700 6100 50  0000 C CNN
F 2 "Resistor_SMD:R_0603_1608Metric" V 11680 5850 50  0001 C CNN
F 3 "~" H 11750 5850 50  0001 C CNN
	1    11750 5850
	0    1    1    0   
$EndComp
$Comp
L Device:R R67
U 1 1 60A396AC
P 11750 5950
F 0 "R67" V 11700 5750 50  0000 C CNN
F 1 "10k" V 11700 6200 50  0000 C CNN
F 2 "Resistor_SMD:R_0603_1608Metric" V 11680 5950 50  0001 C CNN
F 3 "~" H 11750 5950 50  0001 C CNN
	1    11750 5950
	0    1    1    0   
$EndComp
Wire Wire Line
	11600 5950 11400 5950
Wire Wire Line
	11400 5950 11400 6050
$Comp
L Device:C C47
U 1 1 601A5D57
P 10950 6200
F 0 "C47" H 11065 6246 50  0000 L CNN
F 1 "100nF" H 11065 6155 50  0000 L CNN
F 2 "Capacitor_SMD:C_0603_1608Metric" H 10988 6050 50  0001 C CNN
F 3 "~" H 10950 6200 50  0001 C CNN
	1    10950 6200
	1    0    0    -1  
$EndComp
Wire Wire Line
	11600 5850 10950 5850
Wire Wire Line
	10950 5850 10950 6050
$Comp
L Device:C C45
U 1 1 601E981D
P 10500 6200
F 0 "C45" H 10615 6246 50  0000 L CNN
F 1 "100nF" H 10615 6155 50  0000 L CNN
F 2 "Capacitor_SMD:C_0603_1608Metric" H 10538 6050 50  0001 C CNN
F 3 "~" H 10500 6200 50  0001 C CNN
	1    10500 6200
	1    0    0    -1  
$EndComp
$Comp
L Device:C C38
U 1 1 601E9C6F
P 10050 6200
F 0 "C38" H 10165 6246 50  0000 L CNN
F 1 "100nF" H 10165 6155 50  0000 L CNN
F 2 "Capacitor_SMD:C_0603_1608Metric" H 10088 6050 50  0001 C CNN
F 3 "~" H 10050 6200 50  0001 C CNN
	1    10050 6200
	1    0    0    -1  
$EndComp
$Comp
L Device:C C35
U 1 1 601EA0C2
P 9600 6200
F 0 "C35" H 9715 6246 50  0000 L CNN
F 1 "100nF" H 9715 6155 50  0000 L CNN
F 2 "Capacitor_SMD:C_0603_1608Metric" H 9638 6050 50  0001 C CNN
F 3 "~" H 9600 6200 50  0001 C CNN
	1    9600 6200
	1    0    0    -1  
$EndComp
Wire Wire Line
	11600 5750 10500 5750
Wire Wire Line
	10500 5750 10500 6050
Wire Wire Line
	11600 5650 10050 5650
Wire Wire Line
	10050 5650 10050 6050
Wire Wire Line
	9600 6050 9600 5550
Wire Wire Line
	9600 5550 11600 5550
$Comp
L power:GND #PWR0171
U 1 1 6027BB59
P 9600 6350
F 0 "#PWR0171" H 9600 6100 50  0001 C CNN
F 1 "GND" H 9605 6177 50  0000 C CNN
F 2 "" H 9600 6350 50  0001 C CNN
F 3 "" H 9600 6350 50  0001 C CNN
	1    9600 6350
	1    0    0    -1  
$EndComp
$Comp
L power:GND #PWR0172
U 1 1 6027C3EF
P 10050 6350
F 0 "#PWR0172" H 10050 6100 50  0001 C CNN
F 1 "GND" H 10055 6177 50  0000 C CNN
F 2 "" H 10050 6350 50  0001 C CNN
F 3 "" H 10050 6350 50  0001 C CNN
	1    10050 6350
	1    0    0    -1  
$EndComp
$Comp
L power:GND #PWR0173
U 1 1 6027C6F4
P 10500 6350
F 0 "#PWR0173" H 10500 6100 50  0001 C CNN
F 1 "GND" H 10505 6177 50  0000 C CNN
F 2 "" H 10500 6350 50  0001 C CNN
F 3 "" H 10500 6350 50  0001 C CNN
	1    10500 6350
	1    0    0    -1  
$EndComp
$Comp
L power:GND #PWR0207
U 1 1 6027CA12
P 10950 6350
F 0 "#PWR0207" H 10950 6100 50  0001 C CNN
F 1 "GND" H 10955 6177 50  0000 C CNN
F 2 "" H 10950 6350 50  0001 C CNN
F 3 "" H 10950 6350 50  0001 C CNN
	1    10950 6350
	1    0    0    -1  
$EndComp
$Comp
L power:GND #PWR0208
U 1 1 6027CD4F
P 11400 6350
F 0 "#PWR0208" H 11400 6100 50  0001 C CNN
F 1 "GND" H 11405 6177 50  0000 C CNN
F 2 "" H 11400 6350 50  0001 C CNN
F 3 "" H 11400 6350 50  0001 C CNN
	1    11400 6350
	1    0    0    -1  
$EndComp
$Comp
L Device:C C50
U 1 1 602A6BD3
P 9600 7250
F 0 "C50" H 9715 7296 50  0000 L CNN
F 1 "100nF" H 9715 7205 50  0000 L CNN
F 2 "Capacitor_SMD:C_0603_1608Metric" H 9638 7100 50  0001 C CNN
F 3 "~" H 9600 7250 50  0001 C CNN
	1    9600 7250
	1    0    0    -1  
$EndComp
Wire Wire Line
	11600 7000 11400 7000
Wire Wire Line
	11400 7000 11400 7100
$Comp
L Device:C C48
U 1 1 602A6BDB
P 10050 7250
F 0 "C48" H 10165 7296 50  0000 L CNN
F 1 "100nF" H 10165 7205 50  0000 L CNN
F 2 "Capacitor_SMD:C_0603_1608Metric" H 10088 7100 50  0001 C CNN
F 3 "~" H 10050 7250 50  0001 C CNN
	1    10050 7250
	1    0    0    -1  
$EndComp
Wire Wire Line
	10950 6900 10950 7100
$Comp
L Device:C C46
U 1 1 602A6BE3
P 10500 7250
F 0 "C46" H 10615 7296 50  0000 L CNN
F 1 "100nF" H 10615 7205 50  0000 L CNN
F 2 "Capacitor_SMD:C_0603_1608Metric" H 10538 7100 50  0001 C CNN
F 3 "~" H 10500 7250 50  0001 C CNN
	1    10500 7250
	1    0    0    -1  
$EndComp
$Comp
L Device:C C44
U 1 1 602A6BE9
P 10950 7250
F 0 "C44" H 11065 7296 50  0000 L CNN
F 1 "100nF" H 11065 7205 50  0000 L CNN
F 2 "Capacitor_SMD:C_0603_1608Metric" H 10988 7100 50  0001 C CNN
F 3 "~" H 10950 7250 50  0001 C CNN
	1    10950 7250
	1    0    0    -1  
$EndComp
$Comp
L Device:C C37
U 1 1 602A6BEF
P 11400 7250
F 0 "C37" H 11515 7296 50  0000 L CNN
F 1 "100nF" H 11515 7205 50  0000 L CNN
F 2 "Capacitor_SMD:C_0603_1608Metric" H 11438 7100 50  0001 C CNN
F 3 "~" H 11400 7250 50  0001 C CNN
	1    11400 7250
	1    0    0    -1  
$EndComp
Wire Wire Line
	11600 6800 10500 6800
Wire Wire Line
	10500 6800 10500 7100
Wire Wire Line
	11600 6700 10050 6700
Wire Wire Line
	10050 6700 10050 7100
Wire Wire Line
	9600 7100 9600 6600
Wire Wire Line
	9600 6600 11600 6600
$Comp
L power:GND #PWR0220
U 1 1 602A6BFB
P 9600 7400
F 0 "#PWR0220" H 9600 7150 50  0001 C CNN
F 1 "GND" H 9605 7227 50  0000 C CNN
F 2 "" H 9600 7400 50  0001 C CNN
F 3 "" H 9600 7400 50  0001 C CNN
	1    9600 7400
	1    0    0    -1  
$EndComp
$Comp
L power:GND #PWR0221
U 1 1 602A6C01
P 10050 7400
F 0 "#PWR0221" H 10050 7150 50  0001 C CNN
F 1 "GND" H 10055 7227 50  0000 C CNN
F 2 "" H 10050 7400 50  0001 C CNN
F 3 "" H 10050 7400 50  0001 C CNN
	1    10050 7400
	1    0    0    -1  
$EndComp
$Comp
L power:GND #PWR0222
U 1 1 602A6C07
P 10500 7400
F 0 "#PWR0222" H 10500 7150 50  0001 C CNN
F 1 "GND" H 10505 7227 50  0000 C CNN
F 2 "" H 10500 7400 50  0001 C CNN
F 3 "" H 10500 7400 50  0001 C CNN
	1    10500 7400
	1    0    0    -1  
$EndComp
$Comp
L power:GND #PWR0223
U 1 1 602A6C0D
P 10950 7400
F 0 "#PWR0223" H 10950 7150 50  0001 C CNN
F 1 "GND" H 10955 7227 50  0000 C CNN
F 2 "" H 10950 7400 50  0001 C CNN
F 3 "" H 10950 7400 50  0001 C CNN
	1    10950 7400
	1    0    0    -1  
$EndComp
$Comp
L power:GND #PWR0224
U 1 1 602A6C13
P 11400 7400
F 0 "#PWR0224" H 11400 7150 50  0001 C CNN
F 1 "GND" H 11405 7227 50  0000 C CNN
F 2 "" H 11400 7400 50  0001 C CNN
F 3 "" H 11400 7400 50  0001 C CNN
	1    11400 7400
	1    0    0    -1  
$EndComp
Wire Wire Line
	9450 6600 9600 6600
Connection ~ 9600 6600
Wire Wire Line
	9350 6700 10050 6700
Connection ~ 10050 6700
Wire Wire Line
	9250 6800 10500 6800
Connection ~ 10500 6800
Wire Wire Line
	9150 6900 10950 6900
Connection ~ 10950 6900
Wire Wire Line
	9100 7000 11400 7000
Connection ~ 11400 7000
Wire Wire Line
	9100 5650 9150 5650
Wire Wire Line
	9150 5650 9150 5550
Wire Wire Line
	9150 5550 9600 5550
Connection ~ 9600 5550
Wire Wire Line
	10050 5650 9250 5650
Connection ~ 10050 5650
Wire Wire Line
	9100 5800 9250 5800
Wire Wire Line
	9250 5650 9250 5800
Wire Wire Line
	10500 5750 9350 5750
Wire Wire Line
	9350 5750 9350 5950
Connection ~ 10500 5750
Wire Wire Line
	9100 5950 9350 5950
Wire Wire Line
	9100 6100 9450 6100
Wire Wire Line
	9450 6100 9450 5850
Wire Wire Line
	9450 5850 10950 5850
Connection ~ 10950 5850
Wire Wire Line
	11400 5950 9500 5950
Wire Wire Line
	9500 5950 9500 6250
Wire Wire Line
	9500 6250 9100 6250
Connection ~ 11400 5950
Text Label 13150 7950 0    50   ~ 0
LDOUT
Text Label 13150 8150 0    50   ~ 0
LCLK
Text Label 13150 8250 0    50   ~ 0
LCS
Text Label 13150 8050 0    50   ~ 0
LDIN
Text Label 13150 8450 0    50   ~ 0
ISO_OUT1
Text Label 13150 8550 0    50   ~ 0
ISO_OUT2
Text Label 13150 8650 0    50   ~ 0
ISO_IN1
Text Label 13150 8750 0    50   ~ 0
ISO_IN2
Wire Wire Line
	13100 7950 13450 7950
Wire Wire Line
	13100 8150 13450 8150
Wire Wire Line
	13100 8250 13450 8250
Wire Wire Line
	13100 8050 13450 8050
Wire Wire Line
	13100 8450 13450 8450
Wire Wire Line
	13100 8550 13450 8550
Wire Wire Line
	13100 8650 13450 8650
Wire Wire Line
	13100 8750 13450 8750
Wire Wire Line
	10950 6900 11600 6900
$Comp
L Device:R R60
U 1 1 602488CA
P 11200 3050
F 0 "R60" V 11150 2850 50  0000 C CNN
F 1 "150E" V 11150 3300 50  0000 C CNN
F 2 "Resistor_SMD:R_0603_1608Metric" V 11130 3050 50  0001 C CNN
F 3 "~" H 11200 3050 50  0001 C CNN
	1    11200 3050
	0    1    1    0   
$EndComp
$Comp
L Device:R R55
U 1 1 602485D4
P 11200 3200
F 0 "R55" V 11150 3000 50  0000 C CNN
F 1 "150E" V 11150 3450 50  0000 C CNN
F 2 "Resistor_SMD:R_0603_1608Metric" V 11130 3200 50  0001 C CNN
F 3 "~" H 11200 3200 50  0001 C CNN
	1    11200 3200
	0    1    1    0   
$EndComp
$Comp
L Device:R R38
U 1 1 60247613
P 11200 3950
F 0 "R38" V 11150 3750 50  0000 C CNN
F 1 "150E" V 11150 4200 50  0000 C CNN
F 2 "Resistor_SMD:R_0603_1608Metric" V 11130 3950 50  0001 C CNN
F 3 "~" H 11200 3950 50  0001 C CNN
	1    11200 3950
	0    1    1    0   
$EndComp
$Comp
L Device:R R54
U 1 1 602482C0
P 11200 3350
F 0 "R54" V 11150 3150 50  0000 C CNN
F 1 "150E" V 11150 3600 50  0000 C CNN
F 2 "Resistor_SMD:R_0603_1608Metric" V 11130 3350 50  0001 C CNN
F 3 "~" H 11200 3350 50  0001 C CNN
	1    11200 3350
	0    1    1    0   
$EndComp
Text Label 13150 8950 0    50   ~ 0
DC_PROT1
Text Label 13150 9150 0    50   ~ 0
SPK_ON1
Text Label 13150 9250 0    50   ~ 0
SPK_ON2
Text Label 10950 8750 0    50   ~ 0
MISO
Text Label 10950 8850 0    50   ~ 0
MOSI
Text Label 10950 8950 0    50   ~ 0
SCLK
Text Label 10950 9050 0    50   ~ 0
CS
Wire Wire Line
	10950 7950 11250 7950
Wire Wire Line
	10950 8150 11250 8150
Wire Wire Line
	10950 8250 11250 8250
Wire Wire Line
	10950 8400 11250 8400
Wire Wire Line
	10950 8500 11250 8500
Wire Wire Line
	10950 8750 11250 8750
Wire Wire Line
	10950 8850 11250 8850
Wire Wire Line
	10950 8950 11250 8950
Wire Wire Line
	10950 9050 11250 9050
Wire Wire Line
	13100 8950 13500 8950
Wire Wire Line
	13100 9050 13500 9050
Wire Wire Line
	13100 9150 13500 9150
Wire Wire Line
	13100 9250 13500 9250
Text Label 13150 9050 0    50   ~ 0
DC_PROT2
Wire Wire Line
	3050 8950 3300 8950
Connection ~ 3300 8950
Wire Wire Line
	1600 2200 2100 2200
Wire Wire Line
	1600 2400 2100 2400
Wire Wire Line
	1600 2500 2100 2500
Wire Wire Line
	1600 2600 2100 2600
Wire Wire Line
	1600 2800 2100 2800
Wire Wire Line
	1600 2900 2100 2900
Wire Wire Line
	1600 3000 2100 3000
Wire Wire Line
	1600 3200 2100 3200
Wire Wire Line
	1600 3300 2100 3300
Wire Wire Line
	1600 3400 2100 3400
Wire Wire Line
	1600 3500 2100 3500
Wire Wire Line
	1600 3600 2100 3600
Wire Wire Line
	1600 3700 2100 3700
Wire Wire Line
	7450 6500 7850 6500
$Comp
L Mechanical:MountingHole H5
U 1 1 60216711
P 14750 9400
F 0 "H5" H 14850 9446 50  0000 L CNN
F 1 "MountingHole" H 14850 9355 50  0000 L CNN
F 2 "MountingHole:MountingHole_3.2mm_M3" H 14750 9400 50  0001 C CNN
F 3 "~" H 14750 9400 50  0001 C CNN
	1    14750 9400
	1    0    0    -1  
$EndComp
$EndSCHEMATC
