%!PS-Adobe-3.0
%%Creator: PCBNEW
%%CreationDate: Mon Apr 12 16:25:03 2021
%%Title: ()
%%Pages: 1
%%PageOrder: Ascend
%%BoundingBox: 0 0 596 842
%%DocumentMedia: A4 595 842 0 () ()
%%Orientation: Landscape
%%EndComments
%%BeginProlog
/line { newpath moveto lineto stroke } bind def
/cir0 { newpath 0 360 arc stroke } bind def
/cir1 { newpath 0 360 arc gsave fill grestore stroke } bind def
/cir2 { newpath 0 360 arc gsave fill grestore stroke } bind def
/arc0 { newpath arc stroke } bind def
/arc1 { newpath 4 index 4 index moveto arc closepath gsave fill
    grestore stroke } bind def
/arc2 { newpath 4 index 4 index moveto arc closepath gsave fill
    grestore stroke } bind def
/poly0 { stroke } bind def
/poly1 { closepath gsave fill grestore stroke } bind def
/poly2 { closepath gsave fill grestore stroke } bind def
/rect0 { rectstroke } bind def
/rect1 { rectfill } bind def
/rect2 { rectfill } bind def
/linemode0 { 0 setlinecap 0 setlinejoin 0 setlinewidth } bind def
/linemode1 { 1 setlinecap 1 setlinejoin } bind def
/dashedline { [200] 100 setdash } bind def
/solidline { [] 0 setdash } bind def
/phantomshow { moveto
    /KicadFont findfont 0.000001 scalefont setfont
    show } bind def
/textshow { gsave
    findfont exch scalefont setfont concat 1 scale 0 0 moveto show
    } bind def
/reencodefont {
  findfont dup length dict begin
  { 1 index /FID ne
    { def }
    { pop pop } ifelse
  } forall
  /Encoding ISOLatin1Encoding def
  currentdict
  end } bind def
/KicadFont /Helvetica reencodefont definefont pop
/KicadFont-Bold /Helvetica-Bold reencodefont definefont pop
/KicadFont-Oblique /Helvetica-Oblique reencodefont definefont pop
/KicadFont-BoldOblique /Helvetica-BoldOblique reencodefont definefont pop
%%EndProlog
%%Page: 1 1
%%BeginPageSetup
gsave
0.0072 0.0072 scale
linemode1
82680 0 translate 90 rotate
119.871 setlinewidth
%%EndPageSetup
0 0 0 setrgbcolor
119.871 setlinewidth
newpath
86964.4 80651.6 moveto
29965.6 80651.6 lineto
stroke
0 0 0 setrgbcolor
newpath
29965.6 35100.4 moveto
29965.6 80651.6 lineto
stroke
0 0 0 setrgbcolor
newpath
86964.4 80651.6 moveto
86964.4 35100.4 lineto
stroke
0 0 0 setrgbcolor
newpath
86964.4 35100.4 moveto
29965.6 35100.4 lineto
stroke
58.1376 setlinewidth
newpath
43861.7 79306 moveto
44443 78724.6 lineto
stroke
newpath
44443 79306 moveto
43861.7 78724.6 lineto
stroke
newpath
43861.7 77783.6 moveto
44443 77202.3 lineto
stroke
newpath
44443 77783.6 moveto
43861.7 77202.3 lineto
stroke
newpath
45384 79306 moveto
45965.4 78724.6 lineto
stroke
newpath
45965.4 79306 moveto
45384 78724.6 lineto
stroke
newpath
45384 77783.6 moveto
45965.4 77202.3 lineto
stroke
newpath
45965.4 77783.6 moveto
45384 77202.3 lineto
stroke
newpath
46906.4 79306 moveto
47487.8 78724.6 lineto
stroke
newpath
47487.8 79306 moveto
46906.4 78724.6 lineto
stroke
newpath
46906.4 77783.6 moveto
47487.8 77202.3 lineto
stroke
newpath
47487.8 77783.6 moveto
46906.4 77202.3 lineto
stroke
newpath
48428.8 79306 moveto
49010.1 78724.6 lineto
stroke
newpath
49010.1 79306 moveto
48428.8 78724.6 lineto
stroke
newpath
48428.8 77783.6 moveto
49010.1 77202.3 lineto
stroke
newpath
49010.1 77783.6 moveto
48428.8 77202.3 lineto
stroke
newpath
49951.1 79306 moveto
50532.5 78724.6 lineto
stroke
newpath
50532.5 79306 moveto
49951.1 78724.6 lineto
stroke
newpath
49951.1 77783.6 moveto
50532.5 77202.3 lineto
stroke
newpath
50532.5 77783.6 moveto
49951.1 77202.3 lineto
stroke
newpath
51473.5 79306 moveto
52054.9 78724.6 lineto
stroke
newpath
52054.9 79306 moveto
51473.5 78724.6 lineto
stroke
newpath
51473.5 77783.6 moveto
52054.9 77202.3 lineto
stroke
newpath
52054.9 77783.6 moveto
51473.5 77202.3 lineto
stroke
newpath
52995.9 79306 moveto
53577.2 78724.6 lineto
stroke
newpath
53577.2 79306 moveto
52995.9 78724.6 lineto
stroke
newpath
52995.9 77783.6 moveto
53577.2 77202.3 lineto
stroke
newpath
53577.2 77783.6 moveto
52995.9 77202.3 lineto
stroke
newpath
54518.2 79306 moveto
55099.6 78724.6 lineto
stroke
newpath
55099.6 79306 moveto
54518.2 78724.6 lineto
stroke
newpath
54518.2 77783.6 moveto
55099.6 77202.3 lineto
stroke
newpath
55099.6 77783.6 moveto
54518.2 77202.3 lineto
stroke
newpath
56040.6 79306 moveto
56622 78724.6 lineto
stroke
newpath
56622 79306 moveto
56040.6 78724.6 lineto
stroke
newpath
56040.6 77783.6 moveto
56622 77202.3 lineto
stroke
newpath
56622 77783.6 moveto
56040.6 77202.3 lineto
stroke
newpath
57563 79306 moveto
58144.3 78724.6 lineto
stroke
newpath
58144.3 79306 moveto
57563 78724.6 lineto
stroke
newpath
57563 77783.6 moveto
58144.3 77202.3 lineto
stroke
newpath
58144.3 77783.6 moveto
57563 77202.3 lineto
stroke
newpath
59085.3 79306 moveto
59666.7 78724.6 lineto
stroke
newpath
59666.7 79306 moveto
59085.3 78724.6 lineto
stroke
newpath
59085.3 77783.6 moveto
59666.7 77202.3 lineto
stroke
newpath
59666.7 77783.6 moveto
59085.3 77202.3 lineto
stroke
newpath
60607.7 79306 moveto
61189.1 78724.6 lineto
stroke
newpath
61189.1 79306 moveto
60607.7 78724.6 lineto
stroke
newpath
60607.7 77783.6 moveto
61189.1 77202.3 lineto
stroke
newpath
61189.1 77783.6 moveto
60607.7 77202.3 lineto
stroke
newpath
62130.1 79306 moveto
62711.4 78724.6 lineto
stroke
newpath
62711.4 79306 moveto
62130.1 78724.6 lineto
stroke
newpath
62130.1 77783.6 moveto
62711.4 77202.3 lineto
stroke
newpath
62711.4 77783.6 moveto
62130.1 77202.3 lineto
stroke
newpath
63652.4 79306 moveto
64233.8 78724.6 lineto
stroke
newpath
64233.8 79306 moveto
63652.4 78724.6 lineto
stroke
newpath
63652.4 77783.6 moveto
64233.8 77202.3 lineto
stroke
newpath
64233.8 77783.6 moveto
63652.4 77202.3 lineto
stroke
newpath
65174.8 79306 moveto
65756.2 78724.6 lineto
stroke
newpath
65756.2 79306 moveto
65174.8 78724.6 lineto
stroke
newpath
65174.8 77783.6 moveto
65756.2 77202.3 lineto
stroke
newpath
65756.2 77783.6 moveto
65174.8 77202.3 lineto
stroke
newpath
66697.2 79306 moveto
67278.5 78724.6 lineto
stroke
newpath
67278.5 79306 moveto
66697.2 78724.6 lineto
stroke
newpath
66697.2 77783.6 moveto
67278.5 77202.3 lineto
stroke
newpath
67278.5 77783.6 moveto
66697.2 77202.3 lineto
stroke
newpath
68219.5 79306 moveto
68800.9 78724.6 lineto
stroke
newpath
68800.9 79306 moveto
68219.5 78724.6 lineto
stroke
newpath
68219.5 77783.6 moveto
68800.9 77202.3 lineto
stroke
newpath
68800.9 77783.6 moveto
68219.5 77202.3 lineto
stroke
newpath
69741.9 79306 moveto
70323.3 78724.6 lineto
stroke
newpath
70323.3 79306 moveto
69741.9 78724.6 lineto
stroke
newpath
69741.9 77783.6 moveto
70323.3 77202.3 lineto
stroke
newpath
70323.3 77783.6 moveto
69741.9 77202.3 lineto
stroke
newpath
71264.3 79306 moveto
71845.6 78724.6 lineto
stroke
newpath
71845.6 79306 moveto
71264.3 78724.6 lineto
stroke
newpath
71264.3 77783.6 moveto
71845.6 77202.3 lineto
stroke
newpath
71845.6 77783.6 moveto
71264.3 77202.3 lineto
stroke
newpath
72786.6 79306 moveto
73368 78724.6 lineto
stroke
newpath
73368 79306 moveto
72786.6 78724.6 lineto
stroke
newpath
72786.6 77783.6 moveto
73368 77202.3 lineto
stroke
newpath
73368 77783.6 moveto
72786.6 77202.3 lineto
stroke
191.794 setlinewidth
33561.7 38696.6 958.971 cir0
41233.5 78254.1 958.971 cir0
41233.5 48885.6 958.971 cir0
75996.2 78254.1 958.971 cir0
75996.2 48885.6 958.971 cir0
119.871 setlinewidth
78.7399 setlinewidth
0 0 0 setrgbcolor
0 0 0 setrgbcolor
newpath
30919.9 33818.2 moveto
30919.9 34605.6 lineto
31107.4 34605.6 lineto
31219.9 34568.1 lineto
31294.8 34493.1 lineto
31332.3 34418.1 lineto
31369.8 34268.1 lineto
31369.8 34155.6 lineto
31332.3 34005.6 lineto
31294.8 33930.6 lineto
31219.9 33855.7 lineto
31107.4 33818.2 lineto
30919.9 33818.2 lineto
stroke
newpath
31707.3 33818.2 moveto
31707.3 34343.1 lineto
stroke
newpath
31707.3 34193.1 moveto
31744.8 34268.1 lineto
31782.3 34305.6 lineto
31857.3 34343.1 lineto
31932.3 34343.1 lineto
stroke
newpath
32194.7 33818.2 moveto
32194.7 34343.1 lineto
stroke
newpath
32194.7 34605.6 moveto
32157.2 34568.1 lineto
32194.7 34530.6 lineto
32232.2 34568.1 lineto
32194.7 34605.6 lineto
32194.7 34530.6 lineto
stroke
newpath
32682.2 33818.2 moveto
32607.2 33855.7 lineto
32569.7 33930.6 lineto
32569.7 34605.6 lineto
stroke
newpath
33094.6 33818.2 moveto
33019.6 33855.7 lineto
32982.1 33930.6 lineto
32982.1 34605.6 lineto
stroke
newpath
33994.5 33818.2 moveto
33994.5 34605.6 lineto
34257 34043.1 lineto
34519.4 34605.6 lineto
34519.4 33818.2 lineto
stroke
newpath
35231.9 33818.2 moveto
35231.9 34230.6 lineto
35194.4 34305.6 lineto
35119.4 34343.1 lineto
34969.4 34343.1 lineto
34894.4 34305.6 lineto
stroke
newpath
35231.9 33855.7 moveto
35156.9 33818.2 lineto
34969.4 33818.2 lineto
34894.4 33855.7 lineto
34856.9 33930.6 lineto
34856.9 34005.6 lineto
34894.4 34080.6 lineto
34969.4 34118.1 lineto
35156.9 34118.1 lineto
35231.9 34155.6 lineto
stroke
newpath
35606.8 34343.1 moveto
35606.8 33555.7 lineto
stroke
newpath
35606.8 34305.6 moveto
35681.8 34343.1 lineto
35831.8 34343.1 lineto
35906.8 34305.6 lineto
35944.3 34268.1 lineto
35981.8 34193.1 lineto
35981.8 33968.1 lineto
35944.3 33893.1 lineto
35906.8 33855.7 lineto
35831.8 33818.2 lineto
35681.8 33818.2 lineto
35606.8 33855.7 lineto
stroke
newpath
36319.2 33893.1 moveto
36356.7 33855.7 lineto
36319.2 33818.2 lineto
36281.7 33855.7 lineto
36319.2 33893.1 lineto
36319.2 33818.2 lineto
stroke
newpath
36319.2 34305.6 moveto
36356.7 34268.1 lineto
36319.2 34230.6 lineto
36281.7 34268.1 lineto
36319.2 34305.6 lineto
36319.2 34230.6 lineto
stroke
58.1376 setlinewidth
newpath
29324.3 32811.5 moveto
29905.6 32230.1 lineto
stroke
newpath
29905.6 32811.5 moveto
29324.3 32230.1 lineto
stroke
119.871 setlinewidth
78.7399 setlinewidth
0 0 0 setrgbcolor
0 0 0 setrgbcolor
newpath
31069.9 32952 moveto
31144.9 32952 lineto
31219.9 32914.5 lineto
31257.4 32877 lineto
31294.8 32802 lineto
31332.3 32652.1 lineto
31332.3 32464.6 lineto
31294.8 32314.6 lineto
31257.4 32239.6 lineto
31219.9 32202.1 lineto
31144.9 32164.6 lineto
31069.9 32164.6 lineto
30994.9 32202.1 lineto
30957.4 32239.6 lineto
30919.9 32314.6 lineto
30882.4 32464.6 lineto
30882.4 32652.1 lineto
30919.9 32802 lineto
30957.4 32877 lineto
30994.9 32914.5 lineto
31069.9 32952 lineto
stroke
newpath
31669.8 32239.6 moveto
31707.3 32202.1 lineto
31669.8 32164.6 lineto
31632.3 32202.1 lineto
31669.8 32239.6 lineto
31669.8 32164.6 lineto
stroke
newpath
32082.2 32164.6 moveto
32232.2 32164.6 lineto
32307.2 32202.1 lineto
32344.7 32239.6 lineto
32419.7 32352.1 lineto
32457.2 32502.1 lineto
32457.2 32802 lineto
32419.7 32877 lineto
32382.2 32914.5 lineto
32307.2 32952 lineto
32157.2 32952 lineto
32082.2 32914.5 lineto
32044.8 32877 lineto
32007.3 32802 lineto
32007.3 32614.6 lineto
32044.8 32539.6 lineto
32082.2 32502.1 lineto
32157.2 32464.6 lineto
32307.2 32464.6 lineto
32382.2 32502.1 lineto
32419.7 32539.6 lineto
32457.2 32614.6 lineto
stroke
newpath
32719.7 32952 moveto
33244.6 32952 lineto
32907.1 32164.6 lineto
stroke
newpath
33694.5 32952 moveto
33769.5 32952 lineto
33844.5 32914.5 lineto
33882 32877 lineto
33919.5 32802 lineto
33957 32652.1 lineto
33957 32464.6 lineto
33919.5 32314.6 lineto
33882 32239.6 lineto
33844.5 32202.1 lineto
33769.5 32164.6 lineto
33694.5 32164.6 lineto
33619.6 32202.1 lineto
33582.1 32239.6 lineto
33544.6 32314.6 lineto
33507.1 32464.6 lineto
33507.1 32652.1 lineto
33544.6 32802 lineto
33582.1 32877 lineto
33619.6 32914.5 lineto
33694.5 32952 lineto
stroke
newpath
34294.5 32164.6 moveto
34294.5 32689.5 lineto
stroke
newpath
34294.5 32614.6 moveto
34332 32652.1 lineto
34407 32689.5 lineto
34519.4 32689.5 lineto
34594.4 32652.1 lineto
34631.9 32577.1 lineto
34631.9 32164.6 lineto
stroke
newpath
34631.9 32577.1 moveto
34669.4 32652.1 lineto
34744.4 32689.5 lineto
34856.9 32689.5 lineto
34931.9 32652.1 lineto
34969.4 32577.1 lineto
34969.4 32164.6 lineto
stroke
newpath
35344.3 32164.6 moveto
35344.3 32689.5 lineto
stroke
newpath
35344.3 32614.6 moveto
35381.8 32652.1 lineto
35456.8 32689.5 lineto
35569.3 32689.5 lineto
35644.3 32652.1 lineto
35681.8 32577.1 lineto
35681.8 32164.6 lineto
stroke
newpath
35681.8 32577.1 moveto
35719.3 32652.1 lineto
35794.3 32689.5 lineto
35906.8 32689.5 lineto
35981.8 32652.1 lineto
36019.3 32577.1 lineto
36019.3 32164.6 lineto
stroke
newpath
37556.6 32989.5 moveto
36881.6 31977.1 lineto
stroke
newpath
38568.9 32952 moveto
38643.9 32952 lineto
38718.9 32914.5 lineto
38756.4 32877 lineto
38793.9 32802 lineto
38831.4 32652.1 lineto
38831.4 32464.6 lineto
38793.9 32314.6 lineto
38756.4 32239.6 lineto
38718.9 32202.1 lineto
38643.9 32164.6 lineto
38568.9 32164.6 lineto
38493.9 32202.1 lineto
38456.5 32239.6 lineto
38419 32314.6 lineto
38381.5 32464.6 lineto
38381.5 32652.1 lineto
38419 32802 lineto
38456.5 32877 lineto
38493.9 32914.5 lineto
38568.9 32952 lineto
stroke
newpath
39168.9 32239.6 moveto
39206.4 32202.1 lineto
39168.9 32164.6 lineto
39131.4 32202.1 lineto
39168.9 32239.6 lineto
39168.9 32164.6 lineto
stroke
newpath
39693.8 32952 moveto
39768.8 32952 lineto
39843.8 32914.5 lineto
39881.3 32877 lineto
39918.8 32802 lineto
39956.3 32652.1 lineto
39956.3 32464.6 lineto
39918.8 32314.6 lineto
39881.3 32239.6 lineto
39843.8 32202.1 lineto
39768.8 32164.6 lineto
39693.8 32164.6 lineto
39618.8 32202.1 lineto
39581.3 32239.6 lineto
39543.8 32314.6 lineto
39506.3 32464.6 lineto
39506.3 32652.1 lineto
39543.8 32802 lineto
39581.3 32877 lineto
39618.8 32914.5 lineto
39693.8 32952 lineto
stroke
newpath
40218.7 32952 moveto
40706.2 32952 lineto
40443.7 32652.1 lineto
40556.2 32652.1 lineto
40631.2 32614.6 lineto
40668.7 32577.1 lineto
40706.2 32502.1 lineto
40706.2 32314.6 lineto
40668.7 32239.6 lineto
40631.2 32202.1 lineto
40556.2 32164.6 lineto
40331.2 32164.6 lineto
40256.2 32202.1 lineto
40218.7 32239.6 lineto
stroke
newpath
41156.1 32614.6 moveto
41081.1 32652.1 lineto
41043.6 32689.5 lineto
41006.1 32764.5 lineto
41006.1 32802 lineto
41043.6 32877 lineto
41081.1 32914.5 lineto
41156.1 32952 lineto
41306.1 32952 lineto
41381.1 32914.5 lineto
41418.6 32877 lineto
41456.1 32802 lineto
41456.1 32764.5 lineto
41418.6 32689.5 lineto
41381.1 32652.1 lineto
41306.1 32614.6 lineto
41156.1 32614.6 lineto
41081.1 32577.1 lineto
41043.6 32539.6 lineto
41006.1 32464.6 lineto
41006.1 32314.6 lineto
41043.6 32239.6 lineto
41081.1 32202.1 lineto
41156.1 32164.6 lineto
41306.1 32164.6 lineto
41381.1 32202.1 lineto
41418.6 32239.6 lineto
41456.1 32314.6 lineto
41456.1 32464.6 lineto
41418.6 32539.6 lineto
41381.1 32577.1 lineto
41306.1 32614.6 lineto
stroke
newpath
41756 32877 moveto
41793.5 32914.5 lineto
41868.5 32952 lineto
42056 32952 lineto
42131 32914.5 lineto
42168.5 32877 lineto
42206 32802 lineto
42206 32727 lineto
42168.5 32614.6 lineto
41718.5 32164.6 lineto
42206 32164.6 lineto
stroke
newpath
42505.9 32952 moveto
42505.9 32802 lineto
stroke
newpath
42805.9 32952 moveto
42805.9 32802 lineto
stroke
newpath
43968.3 31864.7 moveto
43930.8 31902.1 lineto
43855.8 32014.6 lineto
43818.3 32089.6 lineto
43780.8 32202.1 lineto
43743.3 32389.6 lineto
43743.3 32539.6 lineto
43780.8 32727 lineto
43818.3 32839.5 lineto
43855.8 32914.5 lineto
43930.8 33027 lineto
43968.3 33064.5 lineto
stroke
newpath
44605.7 32689.5 moveto
44605.7 32164.6 lineto
stroke
newpath
44418.2 32989.5 moveto
44230.7 32427.1 lineto
44718.2 32427.1 lineto
stroke
newpath
45168.1 32952 moveto
45243.1 32952 lineto
45318.1 32914.5 lineto
45355.6 32877 lineto
45393.1 32802 lineto
45430.6 32652.1 lineto
45430.6 32464.6 lineto
45393.1 32314.6 lineto
45355.6 32239.6 lineto
45318.1 32202.1 lineto
45243.1 32164.6 lineto
45168.1 32164.6 lineto
45093.1 32202.1 lineto
45055.6 32239.6 lineto
45018.1 32314.6 lineto
44980.6 32464.6 lineto
44980.6 32652.1 lineto
45018.1 32802 lineto
45055.6 32877 lineto
45093.1 32914.5 lineto
45168.1 32952 lineto
stroke
newpath
46368 32164.6 moveto
46368 32952 lineto
stroke
newpath
46705.4 32164.6 moveto
46705.4 32577.1 lineto
46667.9 32652.1 lineto
46592.9 32689.5 lineto
46480.4 32689.5 lineto
46405.5 32652.1 lineto
46368 32614.6 lineto
stroke
newpath
47192.9 32164.6 moveto
47117.9 32202.1 lineto
47080.4 32239.6 lineto
47042.9 32314.6 lineto
47042.9 32539.6 lineto
47080.4 32614.6 lineto
47117.9 32652.1 lineto
47192.9 32689.5 lineto
47305.3 32689.5 lineto
47380.3 32652.1 lineto
47417.8 32614.6 lineto
47455.3 32539.6 lineto
47455.3 32314.6 lineto
47417.8 32239.6 lineto
47380.3 32202.1 lineto
47305.3 32164.6 lineto
47192.9 32164.6 lineto
stroke
newpath
47905.3 32164.6 moveto
47830.3 32202.1 lineto
47792.8 32277.1 lineto
47792.8 32952 lineto
stroke
newpath
48505.2 32202.1 moveto
48430.2 32164.6 lineto
48280.2 32164.6 lineto
48205.2 32202.1 lineto
48167.7 32277.1 lineto
48167.7 32577.1 lineto
48205.2 32652.1 lineto
48280.2 32689.5 lineto
48430.2 32689.5 lineto
48505.2 32652.1 lineto
48542.7 32577.1 lineto
48542.7 32502.1 lineto
48167.7 32427.1 lineto
stroke
newpath
48842.7 32202.1 moveto
48917.6 32164.6 lineto
49067.6 32164.6 lineto
49142.6 32202.1 lineto
49180.1 32277.1 lineto
49180.1 32314.6 lineto
49142.6 32389.6 lineto
49067.6 32427.1 lineto
48955.1 32427.1 lineto
48880.1 32464.6 lineto
48842.7 32539.6 lineto
48842.7 32577.1 lineto
48880.1 32652.1 lineto
48955.1 32689.5 lineto
49067.6 32689.5 lineto
49142.6 32652.1 lineto
stroke
newpath
49442.6 31864.7 moveto
49480.1 31902.1 lineto
49555.1 32014.6 lineto
49592.6 32089.6 lineto
49630.1 32202.1 lineto
49667.5 32389.6 lineto
49667.5 32539.6 lineto
49630.1 32727 lineto
49592.6 32839.5 lineto
49555.1 32914.5 lineto
49480.1 33027 lineto
49442.6 33064.5 lineto
stroke
newpath
50867.4 31864.7 moveto
50829.9 31902.1 lineto
50754.9 32014.6 lineto
50717.4 32089.6 lineto
50679.9 32202.1 lineto
50642.4 32389.6 lineto
50642.4 32539.6 lineto
50679.9 32727 lineto
50717.4 32839.5 lineto
50754.9 32914.5 lineto
50829.9 33027 lineto
50867.4 33064.5 lineto
stroke
newpath
51167.4 32689.5 moveto
51167.4 32164.6 lineto
stroke
newpath
51167.4 32614.6 moveto
51204.9 32652.1 lineto
51279.8 32689.5 lineto
51392.3 32689.5 lineto
51467.3 32652.1 lineto
51504.8 32577.1 lineto
51504.8 32164.6 lineto
stroke
newpath
51992.3 32164.6 moveto
51917.3 32202.1 lineto
51879.8 32239.6 lineto
51842.3 32314.6 lineto
51842.3 32539.6 lineto
51879.8 32614.6 lineto
51917.3 32652.1 lineto
51992.3 32689.5 lineto
52104.7 32689.5 lineto
52179.7 32652.1 lineto
52217.2 32614.6 lineto
52254.7 32539.6 lineto
52254.7 32314.6 lineto
52217.2 32239.6 lineto
52179.7 32202.1 lineto
52104.7 32164.6 lineto
51992.3 32164.6 lineto
stroke
newpath
52479.7 32689.5 moveto
52779.7 32689.5 lineto
stroke
newpath
52592.2 32952 moveto
52592.2 32277.1 lineto
52629.7 32202.1 lineto
52704.7 32164.6 lineto
52779.7 32164.6 lineto
stroke
newpath
53642.1 32689.5 moveto
53642.1 31902.1 lineto
stroke
newpath
53642.1 32652.1 moveto
53717 32689.5 lineto
53867 32689.5 lineto
53942 32652.1 lineto
53979.5 32614.6 lineto
54017 32539.6 lineto
54017 32314.6 lineto
53979.5 32239.6 lineto
53942 32202.1 lineto
53867 32164.6 lineto
53717 32164.6 lineto
53642.1 32202.1 lineto
stroke
newpath
54466.9 32164.6 moveto
54392 32202.1 lineto
54354.5 32277.1 lineto
54354.5 32952 lineto
stroke
newpath
55104.4 32164.6 moveto
55104.4 32577.1 lineto
55066.9 32652.1 lineto
54991.9 32689.5 lineto
54841.9 32689.5 lineto
54766.9 32652.1 lineto
stroke
newpath
55104.4 32202.1 moveto
55029.4 32164.6 lineto
54841.9 32164.6 lineto
54766.9 32202.1 lineto
54729.4 32277.1 lineto
54729.4 32352.1 lineto
54766.9 32427.1 lineto
54841.9 32464.6 lineto
55029.4 32464.6 lineto
55104.4 32502.1 lineto
stroke
newpath
55366.8 32689.5 moveto
55666.8 32689.5 lineto
stroke
newpath
55479.3 32952 moveto
55479.3 32277.1 lineto
55516.8 32202.1 lineto
55591.8 32164.6 lineto
55666.8 32164.6 lineto
stroke
newpath
56229.2 32202.1 moveto
56154.2 32164.6 lineto
56004.3 32164.6 lineto
55929.3 32202.1 lineto
55891.8 32277.1 lineto
55891.8 32577.1 lineto
55929.3 32652.1 lineto
56004.3 32689.5 lineto
56154.2 32689.5 lineto
56229.2 32652.1 lineto
56266.7 32577.1 lineto
56266.7 32502.1 lineto
55891.8 32427.1 lineto
stroke
newpath
56941.6 32164.6 moveto
56941.6 32952 lineto
stroke
newpath
56941.6 32202.1 moveto
56866.6 32164.6 lineto
56716.7 32164.6 lineto
56641.7 32202.1 lineto
56604.2 32239.6 lineto
56566.7 32314.6 lineto
56566.7 32539.6 lineto
56604.2 32614.6 lineto
56641.7 32652.1 lineto
56716.7 32689.5 lineto
56866.6 32689.5 lineto
56941.6 32652.1 lineto
stroke
newpath
57241.6 31864.7 moveto
57279.1 31902.1 lineto
57354.1 32014.6 lineto
57391.6 32089.6 lineto
57429.1 32202.1 lineto
57466.6 32389.6 lineto
57466.6 32539.6 lineto
57429.1 32727 lineto
57391.6 32839.5 lineto
57354.1 32914.5 lineto
57279.1 33027 lineto
57241.6 33064.5 lineto
stroke
29511.9 31467 393.701 cir0
119.871 setlinewidth
78.7399 setlinewidth
0 0 0 setrgbcolor
0 0 0 setrgbcolor
newpath
30844.9 31898.2 moveto
31332.3 31898.2 lineto
31069.9 31598.2 lineto
31182.4 31598.2 lineto
31257.4 31560.7 lineto
31294.8 31523.2 lineto
31332.3 31448.3 lineto
31332.3 31260.8 lineto
31294.8 31185.8 lineto
31257.4 31148.3 lineto
31182.4 31110.8 lineto
30957.4 31110.8 lineto
30882.4 31148.3 lineto
30844.9 31185.8 lineto
stroke
newpath
31669.8 31185.8 moveto
31707.3 31148.3 lineto
31669.8 31110.8 lineto
31632.3 31148.3 lineto
31669.8 31185.8 lineto
31669.8 31110.8 lineto
stroke
newpath
32007.3 31823.2 moveto
32044.8 31860.7 lineto
32119.7 31898.2 lineto
32307.2 31898.2 lineto
32382.2 31860.7 lineto
32419.7 31823.2 lineto
32457.2 31748.2 lineto
32457.2 31673.2 lineto
32419.7 31560.7 lineto
31969.8 31110.8 lineto
32457.2 31110.8 lineto
stroke
newpath
32944.6 31898.2 moveto
33019.6 31898.2 lineto
33094.6 31860.7 lineto
33132.1 31823.2 lineto
33169.6 31748.2 lineto
33207.1 31598.2 lineto
33207.1 31410.8 lineto
33169.6 31260.8 lineto
33132.1 31185.8 lineto
33094.6 31148.3 lineto
33019.6 31110.8 lineto
32944.6 31110.8 lineto
32869.6 31148.3 lineto
32832.2 31185.8 lineto
32794.7 31260.8 lineto
32757.2 31410.8 lineto
32757.2 31598.2 lineto
32794.7 31748.2 lineto
32832.2 31823.2 lineto
32869.6 31860.7 lineto
32944.6 31898.2 lineto
stroke
newpath
33694.5 31898.2 moveto
33769.5 31898.2 lineto
33844.5 31860.7 lineto
33882 31823.2 lineto
33919.5 31748.2 lineto
33957 31598.2 lineto
33957 31410.8 lineto
33919.5 31260.8 lineto
33882 31185.8 lineto
33844.5 31148.3 lineto
33769.5 31110.8 lineto
33694.5 31110.8 lineto
33619.6 31148.3 lineto
33582.1 31185.8 lineto
33544.6 31260.8 lineto
33507.1 31410.8 lineto
33507.1 31598.2 lineto
33544.6 31748.2 lineto
33582.1 31823.2 lineto
33619.6 31860.7 lineto
33694.5 31898.2 lineto
stroke
newpath
34294.5 31110.8 moveto
34294.5 31635.7 lineto
stroke
newpath
34294.5 31560.7 moveto
34332 31598.2 lineto
34407 31635.7 lineto
34519.4 31635.7 lineto
34594.4 31598.2 lineto
34631.9 31523.2 lineto
34631.9 31110.8 lineto
stroke
newpath
34631.9 31523.2 moveto
34669.4 31598.2 lineto
34744.4 31635.7 lineto
34856.9 31635.7 lineto
34931.9 31598.2 lineto
34969.4 31523.2 lineto
34969.4 31110.8 lineto
stroke
newpath
35344.3 31110.8 moveto
35344.3 31635.7 lineto
stroke
newpath
35344.3 31560.7 moveto
35381.8 31598.2 lineto
35456.8 31635.7 lineto
35569.3 31635.7 lineto
35644.3 31598.2 lineto
35681.8 31523.2 lineto
35681.8 31110.8 lineto
stroke
newpath
35681.8 31523.2 moveto
35719.3 31598.2 lineto
35794.3 31635.7 lineto
35906.8 31635.7 lineto
35981.8 31598.2 lineto
36019.3 31523.2 lineto
36019.3 31110.8 lineto
stroke
newpath
37556.6 31935.7 moveto
36881.6 30923.3 lineto
stroke
newpath
38568.9 31898.2 moveto
38643.9 31898.2 lineto
38718.9 31860.7 lineto
38756.4 31823.2 lineto
38793.9 31748.2 lineto
38831.4 31598.2 lineto
38831.4 31410.8 lineto
38793.9 31260.8 lineto
38756.4 31185.8 lineto
38718.9 31148.3 lineto
38643.9 31110.8 lineto
38568.9 31110.8 lineto
38493.9 31148.3 lineto
38456.5 31185.8 lineto
38419 31260.8 lineto
38381.5 31410.8 lineto
38381.5 31598.2 lineto
38419 31748.2 lineto
38456.5 31823.2 lineto
38493.9 31860.7 lineto
38568.9 31898.2 lineto
stroke
newpath
39168.9 31185.8 moveto
39206.4 31148.3 lineto
39168.9 31110.8 lineto
39131.4 31148.3 lineto
39168.9 31185.8 lineto
39168.9 31110.8 lineto
stroke
newpath
39956.3 31110.8 moveto
39506.3 31110.8 lineto
stroke
newpath
39731.3 31110.8 moveto
39731.3 31898.2 lineto
39656.3 31785.7 lineto
39581.3 31710.7 lineto
39506.3 31673.2 lineto
stroke
newpath
40256.2 31823.2 moveto
40293.7 31860.7 lineto
40368.7 31898.2 lineto
40556.2 31898.2 lineto
40631.2 31860.7 lineto
40668.7 31823.2 lineto
40706.2 31748.2 lineto
40706.2 31673.2 lineto
40668.7 31560.7 lineto
40218.7 31110.8 lineto
40706.2 31110.8 lineto
stroke
newpath
41381.1 31898.2 moveto
41231.1 31898.2 lineto
41156.1 31860.7 lineto
41118.6 31823.2 lineto
41043.6 31710.7 lineto
41006.1 31560.7 lineto
41006.1 31260.8 lineto
41043.6 31185.8 lineto
41081.1 31148.3 lineto
41156.1 31110.8 lineto
41306.1 31110.8 lineto
41381.1 31148.3 lineto
41418.6 31185.8 lineto
41456.1 31260.8 lineto
41456.1 31448.3 lineto
41418.6 31523.2 lineto
41381.1 31560.7 lineto
41306.1 31598.2 lineto
41156.1 31598.2 lineto
41081.1 31560.7 lineto
41043.6 31523.2 lineto
41006.1 31448.3 lineto
stroke
newpath
41943.5 31898.2 moveto
42018.5 31898.2 lineto
42093.5 31860.7 lineto
42131 31823.2 lineto
42168.5 31748.2 lineto
42206 31598.2 lineto
42206 31410.8 lineto
42168.5 31260.8 lineto
42131 31185.8 lineto
42093.5 31148.3 lineto
42018.5 31110.8 lineto
41943.5 31110.8 lineto
41868.5 31148.3 lineto
41831 31185.8 lineto
41793.5 31260.8 lineto
41756 31410.8 lineto
41756 31598.2 lineto
41793.5 31748.2 lineto
41831 31823.2 lineto
41868.5 31860.7 lineto
41943.5 31898.2 lineto
stroke
newpath
42505.9 31898.2 moveto
42505.9 31748.2 lineto
stroke
newpath
42805.9 31898.2 moveto
42805.9 31748.2 lineto
stroke
newpath
43968.3 30810.8 moveto
43930.8 30848.3 lineto
43855.8 30960.8 lineto
43818.3 31035.8 lineto
43780.8 31148.3 lineto
43743.3 31335.8 lineto
43743.3 31485.8 lineto
43780.8 31673.2 lineto
43818.3 31785.7 lineto
43855.8 31860.7 lineto
43930.8 31973.2 lineto
43968.3 32010.7 lineto
stroke
newpath
44643.2 31898.2 moveto
44268.2 31898.2 lineto
44230.7 31523.2 lineto
44268.2 31560.7 lineto
44343.2 31598.2 lineto
44530.7 31598.2 lineto
44605.7 31560.7 lineto
44643.2 31523.2 lineto
44680.7 31448.3 lineto
44680.7 31260.8 lineto
44643.2 31185.8 lineto
44605.7 31148.3 lineto
44530.7 31110.8 lineto
44343.2 31110.8 lineto
44268.2 31148.3 lineto
44230.7 31185.8 lineto
stroke
newpath
45618.1 31110.8 moveto
45618.1 31898.2 lineto
stroke
newpath
45955.5 31110.8 moveto
45955.5 31523.2 lineto
45918 31598.2 lineto
45843 31635.7 lineto
45730.5 31635.7 lineto
45655.5 31598.2 lineto
45618.1 31560.7 lineto
stroke
newpath
46443 31110.8 moveto
46368 31148.3 lineto
46330.5 31185.8 lineto
46293 31260.8 lineto
46293 31485.8 lineto
46330.5 31560.7 lineto
46368 31598.2 lineto
46443 31635.7 lineto
46555.4 31635.7 lineto
46630.4 31598.2 lineto
46667.9 31560.7 lineto
46705.4 31485.8 lineto
46705.4 31260.8 lineto
46667.9 31185.8 lineto
46630.4 31148.3 lineto
46555.4 31110.8 lineto
46443 31110.8 lineto
stroke
newpath
47155.4 31110.8 moveto
47080.4 31148.3 lineto
47042.9 31223.3 lineto
47042.9 31898.2 lineto
stroke
newpath
47755.3 31148.3 moveto
47680.3 31110.8 lineto
47530.3 31110.8 lineto
47455.3 31148.3 lineto
47417.8 31223.3 lineto
47417.8 31523.2 lineto
47455.3 31598.2 lineto
47530.3 31635.7 lineto
47680.3 31635.7 lineto
47755.3 31598.2 lineto
47792.8 31523.2 lineto
47792.8 31448.3 lineto
47417.8 31373.3 lineto
stroke
newpath
48092.7 31148.3 moveto
48167.7 31110.8 lineto
48317.7 31110.8 lineto
48392.7 31148.3 lineto
48430.2 31223.3 lineto
48430.2 31260.8 lineto
48392.7 31335.8 lineto
48317.7 31373.3 lineto
48205.2 31373.3 lineto
48130.2 31410.8 lineto
48092.7 31485.8 lineto
48092.7 31523.2 lineto
48130.2 31598.2 lineto
48205.2 31635.7 lineto
48317.7 31635.7 lineto
48392.7 31598.2 lineto
stroke
newpath
48692.7 30810.8 moveto
48730.2 30848.3 lineto
48805.2 30960.8 lineto
48842.7 31035.8 lineto
48880.1 31148.3 lineto
48917.6 31335.8 lineto
48917.6 31485.8 lineto
48880.1 31673.2 lineto
48842.7 31785.7 lineto
48805.2 31860.7 lineto
48730.2 31973.2 lineto
48692.7 32010.7 lineto
stroke
newpath
50117.5 30810.8 moveto
50080 30848.3 lineto
50005 30960.8 lineto
49967.5 31035.8 lineto
49930 31148.3 lineto
49892.5 31335.8 lineto
49892.5 31485.8 lineto
49930 31673.2 lineto
49967.5 31785.7 lineto
50005 31860.7 lineto
50080 31973.2 lineto
50117.5 32010.7 lineto
stroke
newpath
50417.5 31635.7 moveto
50417.5 31110.8 lineto
stroke
newpath
50417.5 31560.7 moveto
50454.9 31598.2 lineto
50529.9 31635.7 lineto
50642.4 31635.7 lineto
50717.4 31598.2 lineto
50754.9 31523.2 lineto
50754.9 31110.8 lineto
stroke
newpath
51242.4 31110.8 moveto
51167.4 31148.3 lineto
51129.9 31185.8 lineto
51092.4 31260.8 lineto
51092.4 31485.8 lineto
51129.9 31560.7 lineto
51167.4 31598.2 lineto
51242.4 31635.7 lineto
51354.8 31635.7 lineto
51429.8 31598.2 lineto
51467.3 31560.7 lineto
51504.8 31485.8 lineto
51504.8 31260.8 lineto
51467.3 31185.8 lineto
51429.8 31148.3 lineto
51354.8 31110.8 lineto
51242.4 31110.8 lineto
stroke
newpath
51729.8 31635.7 moveto
52029.8 31635.7 lineto
stroke
newpath
51842.3 31898.2 moveto
51842.3 31223.3 lineto
51879.8 31148.3 lineto
51954.8 31110.8 lineto
52029.8 31110.8 lineto
stroke
newpath
52892.1 31635.7 moveto
52892.1 30848.3 lineto
stroke
newpath
52892.1 31598.2 moveto
52967.1 31635.7 lineto
53117.1 31635.7 lineto
53192.1 31598.2 lineto
53229.6 31560.7 lineto
53267.1 31485.8 lineto
53267.1 31260.8 lineto
53229.6 31185.8 lineto
53192.1 31148.3 lineto
53117.1 31110.8 lineto
52967.1 31110.8 lineto
52892.1 31148.3 lineto
stroke
newpath
53717 31110.8 moveto
53642.1 31148.3 lineto
53604.6 31223.3 lineto
53604.6 31898.2 lineto
stroke
newpath
54354.5 31110.8 moveto
54354.5 31523.2 lineto
54317 31598.2 lineto
54242 31635.7 lineto
54092 31635.7 lineto
54017 31598.2 lineto
stroke
newpath
54354.5 31148.3 moveto
54279.5 31110.8 lineto
54092 31110.8 lineto
54017 31148.3 lineto
53979.5 31223.3 lineto
53979.5 31298.3 lineto
54017 31373.3 lineto
54092 31410.8 lineto
54279.5 31410.8 lineto
54354.5 31448.3 lineto
stroke
newpath
54616.9 31635.7 moveto
54916.9 31635.7 lineto
stroke
newpath
54729.4 31898.2 moveto
54729.4 31223.3 lineto
54766.9 31148.3 lineto
54841.9 31110.8 lineto
54916.9 31110.8 lineto
stroke
newpath
55479.3 31148.3 moveto
55404.3 31110.8 lineto
55254.3 31110.8 lineto
55179.4 31148.3 lineto
55141.9 31223.3 lineto
55141.9 31523.2 lineto
55179.4 31598.2 lineto
55254.3 31635.7 lineto
55404.3 31635.7 lineto
55479.3 31598.2 lineto
55516.8 31523.2 lineto
55516.8 31448.3 lineto
55141.9 31373.3 lineto
stroke
newpath
56191.7 31110.8 moveto
56191.7 31898.2 lineto
stroke
newpath
56191.7 31148.3 moveto
56116.7 31110.8 lineto
55966.8 31110.8 lineto
55891.8 31148.3 lineto
55854.3 31185.8 lineto
55816.8 31260.8 lineto
55816.8 31485.8 lineto
55854.3 31560.7 lineto
55891.8 31598.2 lineto
55966.8 31635.7 lineto
56116.7 31635.7 lineto
56191.7 31598.2 lineto
stroke
newpath
56491.7 30810.8 moveto
56529.2 30848.3 lineto
56604.2 30960.8 lineto
56641.7 31035.8 lineto
56679.2 31148.3 lineto
56716.7 31335.8 lineto
56716.7 31485.8 lineto
56679.2 31673.2 lineto
56641.7 31785.7 lineto
56604.2 31860.7 lineto
56529.2 31973.2 lineto
56491.7 32010.7 lineto
stroke
showpage
grestore
%%EOF
