%!PS-Adobe-3.0
%%Creator: PCBNEW
%%CreationDate: Mon Apr 12 16:25:03 2021
%%Title: ()
%%Pages: 1
%%PageOrder: Ascend
%%BoundingBox: 0 0 596 842
%%DocumentMedia: A4 595 842 0 () ()
%%Orientation: Landscape
%%EndComments
%%BeginProlog
/line { newpath moveto lineto stroke } bind def
/cir0 { newpath 0 360 arc stroke } bind def
/cir1 { newpath 0 360 arc gsave fill grestore stroke } bind def
/cir2 { newpath 0 360 arc gsave fill grestore stroke } bind def
/arc0 { newpath arc stroke } bind def
/arc1 { newpath 4 index 4 index moveto arc closepath gsave fill
    grestore stroke } bind def
/arc2 { newpath 4 index 4 index moveto arc closepath gsave fill
    grestore stroke } bind def
/poly0 { stroke } bind def
/poly1 { closepath gsave fill grestore stroke } bind def
/poly2 { closepath gsave fill grestore stroke } bind def
/rect0 { rectstroke } bind def
/rect1 { rectfill } bind def
/rect2 { rectfill } bind def
/linemode0 { 0 setlinecap 0 setlinejoin 0 setlinewidth } bind def
/linemode1 { 1 setlinecap 1 setlinejoin } bind def
/dashedline { [200] 100 setdash } bind def
/solidline { [] 0 setdash } bind def
/phantomshow { moveto
    /KicadFont findfont 0.000001 scalefont setfont
    show } bind def
/textshow { gsave
    findfont exch scalefont setfont concat 1 scale 0 0 moveto show
    } bind def
/reencodefont {
  findfont dup length dict begin
  { 1 index /FID ne
    { def }
    { pop pop } ifelse
  } forall
  /Encoding ISOLatin1Encoding def
  currentdict
  end } bind def
/KicadFont /Helvetica reencodefont definefont pop
/KicadFont-Bold /Helvetica-Bold reencodefont definefont pop
/KicadFont-Oblique /Helvetica-Oblique reencodefont definefont pop
/KicadFont-BoldOblique /Helvetica-BoldOblique reencodefont definefont pop
%%EndProlog
%%Page: 1 1
%%BeginPageSetup
gsave
0.0072 0.0072 scale
linemode1
82680 0 translate 90 rotate
119.871 setlinewidth
%%EndPageSetup
0 0 0 setrgbcolor
119.871 setlinewidth
newpath
86964.4 80651.6 moveto
29965.6 80651.6 lineto
stroke
0 0 0 setrgbcolor
newpath
29965.6 35100.4 moveto
29965.6 80651.6 lineto
stroke
0 0 0 setrgbcolor
newpath
86964.4 80651.6 moveto
86964.4 35100.4 lineto
stroke
0 0 0 setrgbcolor
newpath
86964.4 35100.4 moveto
29965.6 35100.4 lineto
stroke
17.9807 setlinewidth
newpath
49504.6 63030.5 moveto
49684.4 62850.7 lineto
stroke
newpath
49684.4 63030.5 moveto
49504.6 62850.7 lineto
stroke
newpath
50223.8 63030.5 moveto
50403.7 62850.7 lineto
stroke
newpath
50403.7 63030.5 moveto
50223.8 62850.7 lineto
stroke
23.9743 setlinewidth
35599.5 54699.4 119.871 cir0
35659.5 59254.5 119.871 cir0
35659.5 57696.2 119.871 cir0
35659.5 56197.8 119.871 cir0
35659.5 53201 119.871 cir0
35659.5 47267.4 119.871 cir0
35659.5 45769 119.871 cir0
35959.2 48765.8 119.871 cir0
36139 69683.3 119.871 cir0
36378.7 75257.3 119.871 cir0
36618.4 68065.1 119.871 cir0
36618.4 63809.6 119.871 cir0
36918.1 62251.3 119.871 cir0
36978.1 51103.3 119.871 cir0
37097.9 76755.7 119.871 cir0
37577.4 74118.6 119.871 cir0
37877.1 41933.1 119.871 cir0
37937 77894.5 119.871 cir0
37997 70762.2 119.871 cir0
38416.5 77894.5 119.871 cir0
38476.4 70762.2 119.871 cir0
38896 77894.5 119.871 cir0
38955.9 70762.2 119.871 cir0
39315.5 40854.3 119.871 cir0
39375.5 67885.3 119.871 cir0
39375.5 43611.3 119.871 cir0
39855 69683.3 119.871 cir0
39855 42592.4 119.871 cir0
39974.8 74837.8 119.871 cir0
40034.8 53201 119.871 cir0
40094.7 59194.6 119.871 cir0
40094.7 57696.2 119.871 cir0
40094.7 56137.9 119.871 cir0
40094.7 54639.5 119.871 cir0
40274.5 74058.6 119.871 cir0
40274.5 51223.1 119.871 cir0
40334.5 44929.9 119.871 cir0
40454.3 72680.1 119.871 cir0
40454.3 72200.6 119.871 cir0
40454.3 71721.1 119.871 cir0
40454.3 71241.7 119.871 cir0
40454.3 70762.2 119.871 cir0
40873.9 41213.9 119.871 cir0
40993.7 63749.7 119.871 cir0
41353.4 65128.2 119.871 cir0
41533.2 61112.5 119.871 cir0
42492.1 62251.3 119.871 cir0
42492.1 55793.2 119.871 cir0
42552.1 57636.3 119.871 cir0
42552.1 45649.1 119.871 cir0
42552.1 44270.6 119.871 cir0
42552.1 41513.6 119.871 cir0
42612 60393.3 119.871 cir0
42612 58894.9 119.871 cir0
42671.9 54639.5 119.871 cir0
42671.9 53320.9 119.871 cir0
43031.6 74837.8 119.871 cir0
43151.4 75676.9 119.871 cir0
43271.3 80112.1 119.871 cir0
43690.9 47087.6 119.871 cir0
43930.6 45289.5 119.871 cir0
43990.5 57516.4 119.871 cir0
44050.5 62191.4 119.871 cir0
44110.4 62910.6 119.871 cir0
44110.4 41153.9 119.871 cir0
44290.2 49964.5 119.871 cir0
44709.8 59853.9 119.871 cir0
44769.7 63569.9 119.871 cir0
44769.7 61831.8 119.871 cir0
44769.7 61172.5 119.871 cir0
44949.5 58415.4 119.871 cir0
44949.5 52242 119.871 cir0
44961.5 79884.4 119.871 cir0
45309.1 78254.1 119.871 cir0
45429 71901 119.871 cir0
45548.9 40854.3 119.871 cir0
45728.7 58475.4 119.871 cir0
45908.5 66267 119.871 cir0
45908.5 61172.5 119.871 cir0
45908.5 59913.8 119.871 cir0
45968.4 62491 119.871 cir0
46388 77534.9 119.871 cir0
46388 49305.2 119.871 cir0
46447.9 78913.4 119.871 cir0
46627.7 68904.2 119.871 cir0
46807.5 65427.9 119.871 cir0
46807.5 53380.8 119.871 cir0
47107.2 51642.7 119.871 cir0
47227.1 72680.1 119.871 cir0
47227.1 70282.7 119.871 cir0
47406.9 64289.1 119.871 cir0
47406.9 62910.6 119.871 cir0
47646.6 71646.2 119.871 cir0
47646.6 58775 119.871 cir0
47706.5 65847.4 119.871 cir0
47946.3 78973.4 119.871 cir0
47946.3 68005.1 119.871 cir0
48006.2 77534.9 119.871 cir0
48006.2 67106.1 119.871 cir0
48253.5 71646.2 119.871 cir0
48365.8 53920.2 119.871 cir0
48485.7 50444 119.871 cir0
48485.7 48466.1 119.871 cir0
48605.6 56857.1 119.871 cir0
48725.5 78254.1 119.871 cir0
48905.3 65667.6 119.871 cir0
49025.1 69503.5 119.871 cir0
49204.9 64109.3 119.871 cir0
49204.9 60453.2 119.871 cir0
49624.5 62131.4 119.871 cir0
49684.4 68125 119.871 cir0
49684.4 50863.5 119.871 cir0
49804.3 52661.6 119.871 cir0
50044 64888.5 119.871 cir0
50104 67166 119.871 cir0
50163.9 70162.8 119.871 cir0
50163.9 48466.1 119.871 cir0
50163.9 40434.7 119.871 cir0
50283.8 78254.1 119.871 cir0
50403.7 63809.6 119.871 cir0
50463.6 60932.7 119.871 cir0
50583.5 57216.7 119.871 cir0
50583.5 56557.4 119.871 cir0
50763.3 67645.5 119.871 cir0
50823.2 50563.8 119.871 cir0
50883.1 55358.7 119.871 cir0
51182.8 59074.7 119.871 cir0
51182.8 51283.1 119.871 cir0
51362.6 40794.3 119.871 cir0
51542.4 50024.4 119.871 cir0
51782.2 78254.1 119.871 cir0
51782.2 68005.1 119.871 cir0
51782.2 55059 119.871 cir0
52201.7 68005.1 119.871 cir0
52201.7 49305.2 119.871 cir0
52261.7 58655.2 119.871 cir0
52321.6 44570.3 119.871 cir0
52621.3 70267.7 119.871 cir0
52621.3 68005.1 119.871 cir0
52681.2 40734.4 119.871 cir0
52741.1 67046.2 119.871 cir0
52801.1 53186 119.871 cir0
52861 73279.5 119.871 cir0
52861 42412.6 119.871 cir0
53280.6 78254.1 119.871 cir0
53280.6 70102.9 119.871 cir0
53280.6 67945.2 119.871 cir0
53340.5 64948.4 119.871 cir0
53580.2 56857.1 119.871 cir0
53879.9 70042.9 119.871 cir0
53879.9 67945.2 119.871 cir0
53999.8 64349.1 119.871 cir0
54059.7 78973.4 119.871 cir0
54059.7 77534.9 119.871 cir0
54059.7 70942 119.871 cir0
54059.7 56077.9 119.871 cir0
54239.5 43671.2 119.871 cir0
54239.5 41873.2 119.871 cir0
54359.4 66926.3 119.871 cir0
54719 55418.6 119.871 cir0
54838.9 65967.3 119.871 cir0
54838.9 46308.4 119.871 cir0
55018.7 78254.1 119.871 cir0
55018.7 43071.9 119.871 cir0
55078.6 58175.7 119.871 cir0
55460.6 65450.3 119.871 cir0
55558.1 54339.8 119.871 cir0
55603.1 64828.5 119.871 cir0
55737.9 72919.9 119.871 cir0
55737.9 40854.3 119.871 cir0
55767.9 61951.6 119.871 cir0
55797.9 61292.3 119.871 cir0
55874 60633 119.871 cir0
55917.7 60033.7 119.871 cir0
56037.6 53860.3 119.871 cir0
56037.6 43851 119.871 cir0
56157.5 75617 119.871 cir0
56397.2 78254.1 119.871 cir0
56457.2 42112.9 119.871 cir0
56816.8 70942 119.871 cir0
57176.4 65248.1 119.871 cir0
57236.3 72560.2 119.871 cir0
57236.3 49964.5 119.871 cir0
57236.3 40914.2 119.871 cir0
57356.2 58715.1 119.871 cir0
57416.1 69323.7 119.871 cir0
57476.1 66566.7 119.871 cir0
57476.1 55178.9 119.871 cir0
57595.9 64768.6 119.871 cir0
57715.8 56797.2 119.871 cir0
57775.7 78254.1 119.871 cir0
57775.7 44570.3 119.871 cir0
57835.7 65967.3 119.871 cir0
58255.2 62670.9 119.871 cir0
58375.1 57201.7 119.871 cir0
58495 55178.9 119.871 cir0
58614.8 79033.3 119.871 cir0
58614.8 77534.9 119.871 cir0
58614.8 42652.3 119.871 cir0
58674.8 65427.9 119.871 cir0
58674.8 63270.2 119.871 cir0
58794.6 71601.3 119.871 cir0
58794.6 40914.2 119.871 cir0
59154.3 53380.8 119.871 cir0
59274.1 58715.1 119.871 cir0
59394 61292.3 119.871 cir0
59453.9 45169.6 119.871 cir0
59513.9 78254.1 119.871 cir0
59633.7 66806.4 119.871 cir0
59693.7 55598.4 119.871 cir0
60233.1 72740.1 119.871 cir0
60233.1 71361.5 119.871 cir0
60293 43131.8 119.871 cir0
60353 54399.7 119.871 cir0
60368 53725.5 119.871 cir0
60712.6 55178.9 119.871 cir0
60772.5 40854.3 119.871 cir0
60952.3 78254.1 119.871 cir0
61192.1 63989.4 119.871 cir0
61431.8 58715.1 119.871 cir0
61671.6 61292.3 119.871 cir0
61731.5 45169.6 119.871 cir0
61731.5 44570.3 119.871 cir0
61731.5 43851 119.871 cir0
61731.5 43131.8 119.871 cir0
61731.5 42172.9 119.871 cir0
61851.4 66746.5 119.871 cir0
61851.4 65427.9 119.871 cir0
62091.1 70402.6 119.871 cir0
62390.8 78254.1 119.871 cir0
62390.8 41573.5 119.871 cir0
62450.7 75617 119.871 cir0
62450.7 42652.3 119.871 cir0
62570.6 66746.5 119.871 cir0
62570.6 65487.8 119.871 cir0
62630.5 54639.5 119.871 cir0
62690.5 68664.4 119.871 cir0
62810.3 52481.8 119.871 cir0
62817.6 62662.9 119.871 cir0
63349.8 38696.6 119.871 cir0
63402.1 65480.2 119.871 cir0
63477.1 61884.2 119.871 cir0
63529.6 58715.1 119.871 cir0
63529.6 41034.1 119.871 cir0
63709.4 69443.6 119.871 cir0
63780.2 68727.8 119.871 cir0
63949.1 78254.1 119.871 cir0
64368.7 52901.3 119.871 cir0
64428.6 55119 119.871 cir0
64428.6 54459.7 119.871 cir0
64428.6 53740.4 119.871 cir0
64608.4 56677.3 119.871 cir0
64848.2 62251.3 119.871 cir0
64848.2 57756.1 119.871 cir0
65387.6 43012 119.871 cir0
65507.4 78254.1 119.871 cir0
65747.2 45709.1 119.871 cir0
65807.1 50623.8 119.871 cir0
65927 62610.9 119.871 cir0
66046.9 51942.4 119.871 cir0
66226.7 79033.3 119.871 cir0
66226.7 77594.8 119.871 cir0
66226.7 56377.6 119.871 cir0
66391.5 66926.3 119.871 cir0
66391.5 66326.9 119.871 cir0
66466.4 75676.9 119.871 cir0
66586.3 62371.2 119.871 cir0
66706.2 63689.8 119.871 cir0
66706.2 55119 119.871 cir0
67005.8 56422.6 119.871 cir0
67005.8 37797.5 119.871 cir0
67065.8 78254.1 119.871 cir0
67545.3 51702.6 119.871 cir0
67597.6 62363.6 119.871 cir0
68084.7 55059 119.871 cir0
68174.6 59164.6 119.871 cir0
68264.5 75617 119.871 cir0
68384.4 78254.1 119.871 cir0
68384.4 58295.6 119.871 cir0
68564.2 73099.7 119.871 cir0
68564.2 70342.6 119.871 cir0
68848.9 72440.4 119.871 cir0
68983.7 69743.3 119.871 cir0
69103.6 51642.7 119.871 cir0
69283.4 79093.2 119.871 cir0
69283.4 55658.4 119.871 cir0
69523.1 75736.8 119.871 cir0
69673 57546.4 119.871 cir0
69702.9 59674.1 119.871 cir0
69822.8 66267 119.871 cir0
69822.8 54999.1 119.871 cir0
69882.7 73099.7 119.871 cir0
69882.7 66926.3 119.871 cir0
69882.7 64588.8 119.871 cir0
70062.6 65487.8 119.871 cir0
70122.5 78254.1 119.871 cir0
70122.5 68184.9 119.871 cir0
70182.4 63689.8 119.871 cir0
70302.3 71781.1 119.871 cir0
70429.8 56909.4 119.871 cir0
70482.1 55658.4 119.871 cir0
70602 67166 119.871 cir0
70841.7 60033.7 119.871 cir0
71081.5 59374.4 119.871 cir0
71081.5 56617.4 119.871 cir0
71201.3 67525.6 119.871 cir0
71560.9 78254.1 119.871 cir0
71860.6 69983 119.871 cir0
71980.5 63809.6 119.871 cir0
72040.4 72080.8 119.871 cir0
72160.3 37677.7 119.871 cir0
72460 59314.5 119.871 cir0
72579.9 65847.4 119.871 cir0
72759.7 62071.5 119.871 cir0
72759.7 55658.4 119.871 cir0
72819.6 54999.1 119.871 cir0
73179.2 59494.3 119.871 cir0
73478.9 62790.7 119.871 cir0
73478.9 56018 119.871 cir0
73778.6 64049.4 119.871 cir0
73838.5 61816.8 119.871 cir0
74258.1 56377.6 119.871 cir0
74370.6 57087.4 119.871 cir0
74377.9 75017.6 119.871 cir0
74377.9 73399.3 119.871 cir0
74377.9 55538.5 119.871 cir0
74437.9 74358.3 119.871 cir0
74437.9 72485.3 119.871 cir0
74557.7 71241.7 119.871 cir0
74557.7 68544.6 119.871 cir0
74617.7 54939.2 119.871 cir0
74737.5 57561.3 119.871 cir0
74797.5 54279.9 119.871 cir0
75217 45948.8 119.871 cir0
75336.9 75856.7 119.871 cir0
75366.9 57816.1 119.871 cir0
75764.8 59102.1 119.871 cir0
75988.6 65015.9 119.871 cir0
75996.2 61412.2 119.871 cir0
76086.1 63180.3 119.871 cir0
76123.6 69735.8 119.871 cir0
76176 72380.4 119.871 cir0
76176 71421.5 119.871 cir0
76176 68784.3 119.871 cir0
76235.9 67390.8 119.871 cir0
76235.9 53980.2 119.871 cir0
76295.9 55119 119.871 cir0
76295.9 52481.8 119.871 cir0
76415.7 51462.9 119.871 cir0
76475.7 59374.4 119.871 cir0
76535.6 61711.9 119.871 cir0
76586.7 64977 119.871 cir0
76595.5 70342.6 119.871 cir0
76655.5 58655.2 119.871 cir0
76655.5 46008.7 119.871 cir0
76715.4 68184.9 119.871 cir0
77075 66087.2 119.871 cir0
77135 75317.3 119.871 cir0
77314.8 69743.3 119.871 cir0
77494.6 62491 119.871 cir0
77554.5 64409 119.871 cir0
77614.5 73504.2 119.871 cir0
77674.4 37677.7 119.871 cir0
77854.2 51582.8 119.871 cir0
77854.2 47087.6 119.871 cir0
77974.1 46008.7 119.871 cir0
78093.9 59793.9 119.871 cir0
78333.7 54459.7 119.871 cir0
78453.6 69623.4 119.871 cir0
78453.6 66926.3 119.871 cir0
78453.6 61711.9 119.871 cir0
78573.4 77774.6 119.871 cir0
78633.4 53021.2 119.871 cir0
78723.3 53710.5 119.871 cir0
78873.1 44810 119.871 cir0
79112.8 70522.4 119.871 cir0
79172.8 69263.8 119.871 cir0
79172.8 66027.3 119.871 cir0
79232.7 52242 119.871 cir0
79292.7 64409 119.871 cir0
79292.7 58475.4 119.871 cir0
79412.5 45948.8 119.871 cir0
79592.3 43071.9 119.871 cir0
79772.1 61771.8 119.871 cir0
79772.1 55059 119.871 cir0
79772.1 38696.6 119.871 cir0
80011.9 79093.2 119.871 cir0
80251.6 56617.4 119.871 cir0
80311.6 73399.3 119.871 cir0
80311.6 67585.6 119.871 cir0
80371.5 72080.8 119.871 cir0
80731.1 70102.9 119.871 cir0
80731.1 45289.5 119.871 cir0
80851 77774.6 119.871 cir0
80851 49604.9 119.871 cir0
81030.8 66087.2 119.871 cir0
81090.7 51223.1 119.871 cir0
81150.7 57995.9 119.871 cir0
81150.7 40434.7 119.871 cir0
81270.5 46548.2 119.871 cir0
81330.5 64468.9 119.871 cir0
81510.3 43731.2 119.871 cir0
82289.4 36059.4 119.871 cir0
82529.2 59254.5 119.871 cir0
82768.9 51702.6 119.871 cir0
82768.9 44450.4 119.871 cir0
83248.4 37138.3 119.871 cir0
83368.3 41933.1 119.871 cir0
83428.2 69383.7 119.871 cir0
84207.4 78134.3 119.871 cir0
84327.2 74118.6 119.871 cir0
84327.2 52361.9 119.871 cir0
84327.2 48645.9 119.871 cir0
84447.1 43371.6 119.871 cir0
84866.7 39295.9 119.871 cir0
85106.4 36299.2 119.871 cir0
59.9357 setlinewidth
newpath
34610.6 79632.7 moveto
34610.6 79033.3 lineto
stroke
newpath
34310.9 79333 moveto
34910.3 79333 lineto
stroke
newpath
34610.6 78134.3 moveto
34610.6 77534.9 lineto
stroke
newpath
34310.9 77834.6 moveto
34910.3 77834.6 lineto
stroke
newpath
34610.6 76635.9 moveto
34610.6 76036.5 lineto
stroke
newpath
34310.9 76336.2 moveto
34910.3 76336.2 lineto
stroke
newpath
34610.6 75137.5 moveto
34610.6 74538.1 lineto
stroke
newpath
34310.9 74837.8 moveto
34910.3 74837.8 lineto
stroke
newpath
34670.5 72170.7 moveto
34670.5 71571.3 lineto
stroke
newpath
34370.9 71871 moveto
34970.2 71871 lineto
stroke
newpath
34670.5 70672.3 moveto
34670.5 70072.9 lineto
stroke
newpath
34370.9 70372.6 moveto
34970.2 70372.6 lineto
stroke
newpath
34670.5 69173.9 moveto
34670.5 68574.5 lineto
stroke
newpath
34370.9 68874.2 moveto
34970.2 68874.2 lineto
stroke
newpath
34670.5 67675.5 moveto
34670.5 67076.1 lineto
stroke
newpath
34370.9 67375.8 moveto
34970.2 67375.8 lineto
stroke
newpath
34670.5 64678.7 moveto
34670.5 64079.3 lineto
stroke
newpath
34370.9 64379 moveto
34970.2 64379 lineto
stroke
newpath
34670.5 63180.3 moveto
34670.5 62581 lineto
stroke
newpath
34370.9 62880.6 moveto
34970.2 62880.6 lineto
stroke
newpath
34700.5 60243.5 moveto
34700.5 59644.1 lineto
stroke
newpath
34400.8 59943.8 moveto
35000.2 59943.8 lineto
stroke
newpath
34700.5 58745.1 moveto
34700.5 58145.7 lineto
stroke
newpath
34400.8 58445.4 moveto
35000.2 58445.4 lineto
stroke
newpath
34700.5 57246.7 moveto
34700.5 56647.3 lineto
stroke
newpath
34400.8 56947 moveto
35000.2 56947 lineto
stroke
newpath
34700.5 55748.3 moveto
34700.5 55148.9 lineto
stroke
newpath
34400.8 55448.6 moveto
35000.2 55448.6 lineto
stroke
newpath
34700.5 54249.9 moveto
34700.5 53650.5 lineto
stroke
newpath
34400.8 53950.2 moveto
35000.2 53950.2 lineto
stroke
newpath
34700.5 51283.1 moveto
34700.5 50683.7 lineto
stroke
newpath
34400.8 50983.4 moveto
35000.2 50983.4 lineto
stroke
newpath
34700.5 49784.7 moveto
34700.5 49185.3 lineto
stroke
newpath
34400.8 49485 moveto
35000.2 49485 lineto
stroke
newpath
34700.5 48286.3 moveto
34700.5 47686.9 lineto
stroke
newpath
34400.8 47986.6 moveto
35000.2 47986.6 lineto
stroke
newpath
34700.5 46787.9 moveto
34700.5 46188.5 lineto
stroke
newpath
34400.8 46488.2 moveto
35000.2 46488.2 lineto
stroke
newpath
34700.5 45289.5 moveto
34700.5 44690.1 lineto
stroke
newpath
34400.8 44989.8 moveto
35000.2 44989.8 lineto
stroke
newpath
38596.3 40135 moveto
38596.3 39535.7 lineto
stroke
newpath
38296.6 39835.4 moveto
38896 39835.4 lineto
stroke
newpath
40094.7 40135 moveto
40094.7 39535.7 lineto
stroke
newpath
39795 39835.4 moveto
40394.4 39835.4 lineto
stroke
newpath
41593.1 40135 moveto
41593.1 39535.7 lineto
stroke
newpath
41293.4 39835.4 moveto
41892.8 39835.4 lineto
stroke
newpath
43091.5 40135 moveto
43091.5 39535.7 lineto
stroke
newpath
42791.8 39835.4 moveto
43391.2 39835.4 lineto
stroke
newpath
44589.9 40135 moveto
44589.9 39535.7 lineto
stroke
newpath
44290.2 39835.4 moveto
44889.6 39835.4 lineto
stroke
newpath
46088.3 40135 moveto
46088.3 39535.7 lineto
stroke
newpath
45788.6 39835.4 moveto
46388 39835.4 lineto
stroke
newpath
47586.7 40135 moveto
47586.7 39535.7 lineto
stroke
newpath
47287 39835.4 moveto
47886.4 39835.4 lineto
stroke
newpath
49085.1 40135 moveto
49085.1 39535.7 lineto
stroke
newpath
48785.4 39835.4 moveto
49384.7 39835.4 lineto
stroke
newpath
51962 40135 moveto
51962 39535.7 lineto
stroke
newpath
51662.3 39835.4 moveto
52261.7 39835.4 lineto
stroke
newpath
53460.4 40135 moveto
53460.4 39535.7 lineto
stroke
newpath
53160.7 39835.4 moveto
53760 39835.4 lineto
stroke
newpath
54958.8 40135 moveto
54958.8 39535.7 lineto
stroke
newpath
54659.1 39835.4 moveto
55258.4 39835.4 lineto
stroke
newpath
56457.2 40135 moveto
56457.2 39535.7 lineto
stroke
newpath
56157.5 39835.4 moveto
56756.8 39835.4 lineto
stroke
newpath
57416.1 67945.2 moveto
57416.1 67345.8 lineto
stroke
newpath
57116.4 67645.5 moveto
57715.8 67645.5 lineto
stroke
newpath
57955.5 40135 moveto
57955.5 39535.7 lineto
stroke
newpath
57655.9 39835.4 moveto
58255.2 39835.4 lineto
stroke
newpath
58914.5 67945.2 moveto
58914.5 67345.8 lineto
stroke
newpath
58614.8 67645.5 moveto
59214.2 67645.5 lineto
stroke
newpath
59453.9 40135 moveto
59453.9 39535.7 lineto
stroke
newpath
59154.3 39835.4 moveto
59753.6 39835.4 lineto
stroke
newpath
60412.9 67945.2 moveto
60412.9 67345.8 lineto
stroke
newpath
60113.2 67645.5 moveto
60712.6 67645.5 lineto
stroke
newpath
60952.3 40135 moveto
60952.3 39535.7 lineto
stroke
newpath
60652.7 39835.4 moveto
61252 39835.4 lineto
stroke
newpath
62450.7 40135 moveto
62450.7 39535.7 lineto
stroke
newpath
62151 39835.4 moveto
62750.4 39835.4 lineto
stroke
newpath
65387.6 40135 moveto
65387.6 39535.7 lineto
stroke
newpath
65087.9 39835.4 moveto
65687.3 39835.4 lineto
stroke
newpath
66886 40135 moveto
66886 39535.7 lineto
stroke
newpath
66586.3 39835.4 moveto
67185.6 39835.4 lineto
stroke
newpath
68384.4 40135 moveto
68384.4 39535.7 lineto
stroke
newpath
68084.7 39835.4 moveto
68684 39835.4 lineto
stroke
newpath
69882.7 40135 moveto
69882.7 39535.7 lineto
stroke
newpath
69583.1 39835.4 moveto
70182.4 39835.4 lineto
stroke
newpath
72759.7 40135 moveto
72759.7 39535.7 lineto
stroke
newpath
72460 39835.4 moveto
73059.3 39835.4 lineto
stroke
newpath
74258.1 40135 moveto
74258.1 39535.7 lineto
stroke
newpath
73958.4 39835.4 moveto
74557.7 39835.4 lineto
stroke
newpath
75756.4 40135 moveto
75756.4 39535.7 lineto
stroke
newpath
75456.8 39835.4 moveto
76056.1 39835.4 lineto
stroke
newpath
77254.8 40135 moveto
77254.8 39535.7 lineto
stroke
newpath
76955.2 39835.4 moveto
77554.5 39835.4 lineto
stroke
newpath
82289.4 78973.4 moveto
82289.4 78374 lineto
stroke
newpath
81989.8 78673.7 moveto
82589.1 78673.7 lineto
stroke
newpath
82289.4 77475 moveto
82289.4 76875.6 lineto
stroke
newpath
81989.8 77175.3 moveto
82589.1 77175.3 lineto
stroke
newpath
82289.4 75976.6 moveto
82289.4 75377.2 lineto
stroke
newpath
81989.8 75676.9 moveto
82589.1 75676.9 lineto
stroke
newpath
82289.4 74478.2 moveto
82289.4 73878.8 lineto
stroke
newpath
81989.8 74178.5 moveto
82589.1 74178.5 lineto
stroke
newpath
82289.4 72979.8 moveto
82289.4 72380.4 lineto
stroke
newpath
81989.8 72680.1 moveto
82589.1 72680.1 lineto
stroke
newpath
82289.4 71481.4 moveto
82289.4 70882 lineto
stroke
newpath
81989.8 71181.7 moveto
82589.1 71181.7 lineto
stroke
newpath
82289.4 68484.6 moveto
82289.4 67885.3 lineto
stroke
newpath
81989.8 68184.9 moveto
82589.1 68184.9 lineto
stroke
newpath
82289.4 66986.2 moveto
82289.4 66386.9 lineto
stroke
newpath
81989.8 66686.5 moveto
82589.1 66686.5 lineto
stroke
newpath
82289.4 65487.8 moveto
82289.4 64888.5 lineto
stroke
newpath
81989.8 65188.2 moveto
82589.1 65188.2 lineto
stroke
newpath
82289.4 63989.4 moveto
82289.4 63390.1 lineto
stroke
newpath
81989.8 63689.8 moveto
82589.1 63689.8 lineto
stroke
newpath
82289.4 62491 moveto
82289.4 61891.7 lineto
stroke
newpath
81989.8 62191.4 moveto
82589.1 62191.4 lineto
stroke
newpath
82289.4 60992.7 moveto
82289.4 60393.3 lineto
stroke
newpath
81989.8 60693 moveto
82589.1 60693 lineto
stroke
newpath
82289.4 57995.9 moveto
82289.4 57396.5 lineto
stroke
newpath
81989.8 57696.2 moveto
82589.1 57696.2 lineto
stroke
newpath
82289.4 56497.5 moveto
82289.4 55898.1 lineto
stroke
newpath
81989.8 56197.8 moveto
82589.1 56197.8 lineto
stroke
newpath
82289.4 54999.1 moveto
82289.4 54399.7 lineto
stroke
newpath
81989.8 54699.4 moveto
82589.1 54699.4 lineto
stroke
newpath
82289.4 53500.7 moveto
82289.4 52901.3 lineto
stroke
newpath
81989.8 53201 moveto
82589.1 53201 lineto
stroke
newpath
82289.4 50563.8 moveto
82289.4 49964.5 lineto
stroke
newpath
81989.8 50264.2 moveto
82589.1 50264.2 lineto
stroke
newpath
82289.4 49065.5 moveto
82289.4 48466.1 lineto
stroke
newpath
81989.8 48765.8 moveto
82589.1 48765.8 lineto
stroke
newpath
82289.4 47567.1 moveto
82289.4 46967.7 lineto
stroke
newpath
81989.8 47267.4 moveto
82589.1 47267.4 lineto
stroke
newpath
82289.4 46068.7 moveto
82289.4 45469.3 lineto
stroke
newpath
81989.8 45769 moveto
82589.1 45769 lineto
stroke
newpath
82289.4 42952 moveto
82289.4 42352.7 lineto
stroke
newpath
81989.8 42652.3 moveto
82589.1 42652.3 lineto
stroke
newpath
82289.4 41453.6 moveto
82289.4 40854.3 lineto
stroke
newpath
81989.8 41153.9 moveto
82589.1 41153.9 lineto
stroke
newpath
82289.4 39955.2 moveto
82289.4 39355.9 lineto
stroke
newpath
81989.8 39655.6 moveto
82589.1 39655.6 lineto
stroke
newpath
82289.4 38456.8 moveto
82289.4 37857.5 lineto
stroke
newpath
81989.8 38157.2 moveto
82589.1 38157.2 lineto
stroke
119.871 setlinewidth
78.7399 setlinewidth
0 0 0 setrgbcolor
0 0 0 setrgbcolor
newpath
30919.9 33818.2 moveto
30919.9 34605.6 lineto
31107.4 34605.6 lineto
31219.9 34568.1 lineto
31294.8 34493.1 lineto
31332.3 34418.1 lineto
31369.8 34268.1 lineto
31369.8 34155.6 lineto
31332.3 34005.6 lineto
31294.8 33930.6 lineto
31219.9 33855.7 lineto
31107.4 33818.2 lineto
30919.9 33818.2 lineto
stroke
newpath
31707.3 33818.2 moveto
31707.3 34343.1 lineto
stroke
newpath
31707.3 34193.1 moveto
31744.8 34268.1 lineto
31782.3 34305.6 lineto
31857.3 34343.1 lineto
31932.3 34343.1 lineto
stroke
newpath
32194.7 33818.2 moveto
32194.7 34343.1 lineto
stroke
newpath
32194.7 34605.6 moveto
32157.2 34568.1 lineto
32194.7 34530.6 lineto
32232.2 34568.1 lineto
32194.7 34605.6 lineto
32194.7 34530.6 lineto
stroke
newpath
32682.2 33818.2 moveto
32607.2 33855.7 lineto
32569.7 33930.6 lineto
32569.7 34605.6 lineto
stroke
newpath
33094.6 33818.2 moveto
33019.6 33855.7 lineto
32982.1 33930.6 lineto
32982.1 34605.6 lineto
stroke
newpath
33994.5 33818.2 moveto
33994.5 34605.6 lineto
34257 34043.1 lineto
34519.4 34605.6 lineto
34519.4 33818.2 lineto
stroke
newpath
35231.9 33818.2 moveto
35231.9 34230.6 lineto
35194.4 34305.6 lineto
35119.4 34343.1 lineto
34969.4 34343.1 lineto
34894.4 34305.6 lineto
stroke
newpath
35231.9 33855.7 moveto
35156.9 33818.2 lineto
34969.4 33818.2 lineto
34894.4 33855.7 lineto
34856.9 33930.6 lineto
34856.9 34005.6 lineto
34894.4 34080.6 lineto
34969.4 34118.1 lineto
35156.9 34118.1 lineto
35231.9 34155.6 lineto
stroke
newpath
35606.8 34343.1 moveto
35606.8 33555.7 lineto
stroke
newpath
35606.8 34305.6 moveto
35681.8 34343.1 lineto
35831.8 34343.1 lineto
35906.8 34305.6 lineto
35944.3 34268.1 lineto
35981.8 34193.1 lineto
35981.8 33968.1 lineto
35944.3 33893.1 lineto
35906.8 33855.7 lineto
35831.8 33818.2 lineto
35681.8 33818.2 lineto
35606.8 33855.7 lineto
stroke
newpath
36319.2 33893.1 moveto
36356.7 33855.7 lineto
36319.2 33818.2 lineto
36281.7 33855.7 lineto
36319.2 33893.1 lineto
36319.2 33818.2 lineto
stroke
newpath
36319.2 34305.6 moveto
36356.7 34268.1 lineto
36319.2 34230.6 lineto
36281.7 34268.1 lineto
36319.2 34305.6 lineto
36319.2 34230.6 lineto
stroke
17.9807 setlinewidth
newpath
29725.8 32610.7 moveto
29905.6 32430.9 lineto
stroke
newpath
29905.6 32610.7 moveto
29725.8 32430.9 lineto
stroke
119.871 setlinewidth
78.7399 setlinewidth
0 0 0 setrgbcolor
0 0 0 setrgbcolor
newpath
31069.9 32952 moveto
31144.9 32952 lineto
31219.9 32914.5 lineto
31257.4 32877 lineto
31294.8 32802 lineto
31332.3 32652.1 lineto
31332.3 32464.6 lineto
31294.8 32314.6 lineto
31257.4 32239.6 lineto
31219.9 32202.1 lineto
31144.9 32164.6 lineto
31069.9 32164.6 lineto
30994.9 32202.1 lineto
30957.4 32239.6 lineto
30919.9 32314.6 lineto
30882.4 32464.6 lineto
30882.4 32652.1 lineto
30919.9 32802 lineto
30957.4 32877 lineto
30994.9 32914.5 lineto
31069.9 32952 lineto
stroke
newpath
31669.8 32239.6 moveto
31707.3 32202.1 lineto
31669.8 32164.6 lineto
31632.3 32202.1 lineto
31669.8 32239.6 lineto
31669.8 32164.6 lineto
stroke
newpath
31969.8 32952 moveto
32457.2 32952 lineto
32194.7 32652.1 lineto
32307.2 32652.1 lineto
32382.2 32614.6 lineto
32419.7 32577.1 lineto
32457.2 32502.1 lineto
32457.2 32314.6 lineto
32419.7 32239.6 lineto
32382.2 32202.1 lineto
32307.2 32164.6 lineto
32082.2 32164.6 lineto
32007.3 32202.1 lineto
31969.8 32239.6 lineto
stroke
newpath
32944.6 32952 moveto
33019.6 32952 lineto
33094.6 32914.5 lineto
33132.1 32877 lineto
33169.6 32802 lineto
33207.1 32652.1 lineto
33207.1 32464.6 lineto
33169.6 32314.6 lineto
33132.1 32239.6 lineto
33094.6 32202.1 lineto
33019.6 32164.6 lineto
32944.6 32164.6 lineto
32869.6 32202.1 lineto
32832.2 32239.6 lineto
32794.7 32314.6 lineto
32757.2 32464.6 lineto
32757.2 32652.1 lineto
32794.7 32802 lineto
32832.2 32877 lineto
32869.6 32914.5 lineto
32944.6 32952 lineto
stroke
newpath
33694.5 32952 moveto
33769.5 32952 lineto
33844.5 32914.5 lineto
33882 32877 lineto
33919.5 32802 lineto
33957 32652.1 lineto
33957 32464.6 lineto
33919.5 32314.6 lineto
33882 32239.6 lineto
33844.5 32202.1 lineto
33769.5 32164.6 lineto
33694.5 32164.6 lineto
33619.6 32202.1 lineto
33582.1 32239.6 lineto
33544.6 32314.6 lineto
33507.1 32464.6 lineto
33507.1 32652.1 lineto
33544.6 32802 lineto
33582.1 32877 lineto
33619.6 32914.5 lineto
33694.5 32952 lineto
stroke
newpath
34294.5 32164.6 moveto
34294.5 32689.5 lineto
stroke
newpath
34294.5 32614.6 moveto
34332 32652.1 lineto
34407 32689.5 lineto
34519.4 32689.5 lineto
34594.4 32652.1 lineto
34631.9 32577.1 lineto
34631.9 32164.6 lineto
stroke
newpath
34631.9 32577.1 moveto
34669.4 32652.1 lineto
34744.4 32689.5 lineto
34856.9 32689.5 lineto
34931.9 32652.1 lineto
34969.4 32577.1 lineto
34969.4 32164.6 lineto
stroke
newpath
35344.3 32164.6 moveto
35344.3 32689.5 lineto
stroke
newpath
35344.3 32614.6 moveto
35381.8 32652.1 lineto
35456.8 32689.5 lineto
35569.3 32689.5 lineto
35644.3 32652.1 lineto
35681.8 32577.1 lineto
35681.8 32164.6 lineto
stroke
newpath
35681.8 32577.1 moveto
35719.3 32652.1 lineto
35794.3 32689.5 lineto
35906.8 32689.5 lineto
35981.8 32652.1 lineto
36019.3 32577.1 lineto
36019.3 32164.6 lineto
stroke
newpath
37556.6 32989.5 moveto
36881.6 31977.1 lineto
stroke
newpath
38568.9 32952 moveto
38643.9 32952 lineto
38718.9 32914.5 lineto
38756.4 32877 lineto
38793.9 32802 lineto
38831.4 32652.1 lineto
38831.4 32464.6 lineto
38793.9 32314.6 lineto
38756.4 32239.6 lineto
38718.9 32202.1 lineto
38643.9 32164.6 lineto
38568.9 32164.6 lineto
38493.9 32202.1 lineto
38456.5 32239.6 lineto
38419 32314.6 lineto
38381.5 32464.6 lineto
38381.5 32652.1 lineto
38419 32802 lineto
38456.5 32877 lineto
38493.9 32914.5 lineto
38568.9 32952 lineto
stroke
newpath
39168.9 32239.6 moveto
39206.4 32202.1 lineto
39168.9 32164.6 lineto
39131.4 32202.1 lineto
39168.9 32239.6 lineto
39168.9 32164.6 lineto
stroke
newpath
39693.8 32952 moveto
39768.8 32952 lineto
39843.8 32914.5 lineto
39881.3 32877 lineto
39918.8 32802 lineto
39956.3 32652.1 lineto
39956.3 32464.6 lineto
39918.8 32314.6 lineto
39881.3 32239.6 lineto
39843.8 32202.1 lineto
39768.8 32164.6 lineto
39693.8 32164.6 lineto
39618.8 32202.1 lineto
39581.3 32239.6 lineto
39543.8 32314.6 lineto
39506.3 32464.6 lineto
39506.3 32652.1 lineto
39543.8 32802 lineto
39581.3 32877 lineto
39618.8 32914.5 lineto
39693.8 32952 lineto
stroke
newpath
40706.2 32164.6 moveto
40256.2 32164.6 lineto
stroke
newpath
40481.2 32164.6 moveto
40481.2 32952 lineto
40406.2 32839.5 lineto
40331.2 32764.5 lineto
40256.2 32727 lineto
stroke
newpath
41456.1 32164.6 moveto
41006.1 32164.6 lineto
stroke
newpath
41231.1 32164.6 moveto
41231.1 32952 lineto
41156.1 32839.5 lineto
41081.1 32764.5 lineto
41006.1 32727 lineto
stroke
newpath
41906 32614.6 moveto
41831 32652.1 lineto
41793.5 32689.5 lineto
41756 32764.5 lineto
41756 32802 lineto
41793.5 32877 lineto
41831 32914.5 lineto
41906 32952 lineto
42056 32952 lineto
42131 32914.5 lineto
42168.5 32877 lineto
42206 32802 lineto
42206 32764.5 lineto
42168.5 32689.5 lineto
42131 32652.1 lineto
42056 32614.6 lineto
41906 32614.6 lineto
41831 32577.1 lineto
41793.5 32539.6 lineto
41756 32464.6 lineto
41756 32314.6 lineto
41793.5 32239.6 lineto
41831 32202.1 lineto
41906 32164.6 lineto
42056 32164.6 lineto
42131 32202.1 lineto
42168.5 32239.6 lineto
42206 32314.6 lineto
42206 32464.6 lineto
42168.5 32539.6 lineto
42131 32577.1 lineto
42056 32614.6 lineto
stroke
newpath
42505.9 32952 moveto
42505.9 32802 lineto
stroke
newpath
42805.9 32952 moveto
42805.9 32802 lineto
stroke
newpath
43968.3 31864.7 moveto
43930.8 31902.1 lineto
43855.8 32014.6 lineto
43818.3 32089.6 lineto
43780.8 32202.1 lineto
43743.3 32389.6 lineto
43743.3 32539.6 lineto
43780.8 32727 lineto
43818.3 32839.5 lineto
43855.8 32914.5 lineto
43930.8 33027 lineto
43968.3 33064.5 lineto
stroke
newpath
44230.7 32877 moveto
44268.2 32914.5 lineto
44343.2 32952 lineto
44530.7 32952 lineto
44605.7 32914.5 lineto
44643.2 32877 lineto
44680.7 32802 lineto
44680.7 32727 lineto
44643.2 32614.6 lineto
44193.2 32164.6 lineto
44680.7 32164.6 lineto
stroke
newpath
45618.1 32164.6 moveto
45618.1 32952 lineto
stroke
newpath
45955.5 32164.6 moveto
45955.5 32577.1 lineto
45918 32652.1 lineto
45843 32689.5 lineto
45730.5 32689.5 lineto
45655.5 32652.1 lineto
45618.1 32614.6 lineto
stroke
newpath
46443 32164.6 moveto
46368 32202.1 lineto
46330.5 32239.6 lineto
46293 32314.6 lineto
46293 32539.6 lineto
46330.5 32614.6 lineto
46368 32652.1 lineto
46443 32689.5 lineto
46555.4 32689.5 lineto
46630.4 32652.1 lineto
46667.9 32614.6 lineto
46705.4 32539.6 lineto
46705.4 32314.6 lineto
46667.9 32239.6 lineto
46630.4 32202.1 lineto
46555.4 32164.6 lineto
46443 32164.6 lineto
stroke
newpath
47155.4 32164.6 moveto
47080.4 32202.1 lineto
47042.9 32277.1 lineto
47042.9 32952 lineto
stroke
newpath
47755.3 32202.1 moveto
47680.3 32164.6 lineto
47530.3 32164.6 lineto
47455.3 32202.1 lineto
47417.8 32277.1 lineto
47417.8 32577.1 lineto
47455.3 32652.1 lineto
47530.3 32689.5 lineto
47680.3 32689.5 lineto
47755.3 32652.1 lineto
47792.8 32577.1 lineto
47792.8 32502.1 lineto
47417.8 32427.1 lineto
stroke
newpath
48092.7 32202.1 moveto
48167.7 32164.6 lineto
48317.7 32164.6 lineto
48392.7 32202.1 lineto
48430.2 32277.1 lineto
48430.2 32314.6 lineto
48392.7 32389.6 lineto
48317.7 32427.1 lineto
48205.2 32427.1 lineto
48130.2 32464.6 lineto
48092.7 32539.6 lineto
48092.7 32577.1 lineto
48130.2 32652.1 lineto
48205.2 32689.5 lineto
48317.7 32689.5 lineto
48392.7 32652.1 lineto
stroke
newpath
48692.7 31864.7 moveto
48730.2 31902.1 lineto
48805.2 32014.6 lineto
48842.7 32089.6 lineto
48880.1 32202.1 lineto
48917.6 32389.6 lineto
48917.6 32539.6 lineto
48880.1 32727 lineto
48842.7 32839.5 lineto
48805.2 32914.5 lineto
48730.2 33027 lineto
48692.7 33064.5 lineto
stroke
23.9743 setlinewidth
29785.8 31481.5 119.871 cir0
119.871 setlinewidth
78.7399 setlinewidth
0 0 0 setrgbcolor
0 0 0 setrgbcolor
newpath
31069.9 31912.6 moveto
31144.9 31912.6 lineto
31219.9 31875.2 lineto
31257.4 31837.7 lineto
31294.8 31762.7 lineto
31332.3 31612.7 lineto
31332.3 31425.2 lineto
31294.8 31275.2 lineto
31257.4 31200.2 lineto
31219.9 31162.7 lineto
31144.9 31125.2 lineto
31069.9 31125.2 lineto
30994.9 31162.7 lineto
30957.4 31200.2 lineto
30919.9 31275.2 lineto
30882.4 31425.2 lineto
30882.4 31612.7 lineto
30919.9 31762.7 lineto
30957.4 31837.7 lineto
30994.9 31875.2 lineto
31069.9 31912.6 lineto
stroke
newpath
31669.8 31200.2 moveto
31707.3 31162.7 lineto
31669.8 31125.2 lineto
31632.3 31162.7 lineto
31669.8 31200.2 lineto
31669.8 31125.2 lineto
stroke
newpath
32382.2 31650.2 moveto
32382.2 31125.2 lineto
stroke
newpath
32194.7 31950.1 moveto
32007.3 31387.7 lineto
32494.7 31387.7 lineto
stroke
newpath
32944.6 31912.6 moveto
33019.6 31912.6 lineto
33094.6 31875.2 lineto
33132.1 31837.7 lineto
33169.6 31762.7 lineto
33207.1 31612.7 lineto
33207.1 31425.2 lineto
33169.6 31275.2 lineto
33132.1 31200.2 lineto
33094.6 31162.7 lineto
33019.6 31125.2 lineto
32944.6 31125.2 lineto
32869.6 31162.7 lineto
32832.2 31200.2 lineto
32794.7 31275.2 lineto
32757.2 31425.2 lineto
32757.2 31612.7 lineto
32794.7 31762.7 lineto
32832.2 31837.7 lineto
32869.6 31875.2 lineto
32944.6 31912.6 lineto
stroke
newpath
33694.5 31912.6 moveto
33769.5 31912.6 lineto
33844.5 31875.2 lineto
33882 31837.7 lineto
33919.5 31762.7 lineto
33957 31612.7 lineto
33957 31425.2 lineto
33919.5 31275.2 lineto
33882 31200.2 lineto
33844.5 31162.7 lineto
33769.5 31125.2 lineto
33694.5 31125.2 lineto
33619.6 31162.7 lineto
33582.1 31200.2 lineto
33544.6 31275.2 lineto
33507.1 31425.2 lineto
33507.1 31612.7 lineto
33544.6 31762.7 lineto
33582.1 31837.7 lineto
33619.6 31875.2 lineto
33694.5 31912.6 lineto
stroke
newpath
34294.5 31125.2 moveto
34294.5 31650.2 lineto
stroke
newpath
34294.5 31575.2 moveto
34332 31612.7 lineto
34407 31650.2 lineto
34519.4 31650.2 lineto
34594.4 31612.7 lineto
34631.9 31537.7 lineto
34631.9 31125.2 lineto
stroke
newpath
34631.9 31537.7 moveto
34669.4 31612.7 lineto
34744.4 31650.2 lineto
34856.9 31650.2 lineto
34931.9 31612.7 lineto
34969.4 31537.7 lineto
34969.4 31125.2 lineto
stroke
newpath
35344.3 31125.2 moveto
35344.3 31650.2 lineto
stroke
newpath
35344.3 31575.2 moveto
35381.8 31612.7 lineto
35456.8 31650.2 lineto
35569.3 31650.2 lineto
35644.3 31612.7 lineto
35681.8 31537.7 lineto
35681.8 31125.2 lineto
stroke
newpath
35681.8 31537.7 moveto
35719.3 31612.7 lineto
35794.3 31650.2 lineto
35906.8 31650.2 lineto
35981.8 31612.7 lineto
36019.3 31537.7 lineto
36019.3 31125.2 lineto
stroke
newpath
37556.6 31950.1 moveto
36881.6 30937.8 lineto
stroke
newpath
38568.9 31912.6 moveto
38643.9 31912.6 lineto
38718.9 31875.2 lineto
38756.4 31837.7 lineto
38793.9 31762.7 lineto
38831.4 31612.7 lineto
38831.4 31425.2 lineto
38793.9 31275.2 lineto
38756.4 31200.2 lineto
38718.9 31162.7 lineto
38643.9 31125.2 lineto
38568.9 31125.2 lineto
38493.9 31162.7 lineto
38456.5 31200.2 lineto
38419 31275.2 lineto
38381.5 31425.2 lineto
38381.5 31612.7 lineto
38419 31762.7 lineto
38456.5 31837.7 lineto
38493.9 31875.2 lineto
38568.9 31912.6 lineto
stroke
newpath
39168.9 31200.2 moveto
39206.4 31162.7 lineto
39168.9 31125.2 lineto
39131.4 31162.7 lineto
39168.9 31200.2 lineto
39168.9 31125.2 lineto
stroke
newpath
39693.8 31912.6 moveto
39768.8 31912.6 lineto
39843.8 31875.2 lineto
39881.3 31837.7 lineto
39918.8 31762.7 lineto
39956.3 31612.7 lineto
39956.3 31425.2 lineto
39918.8 31275.2 lineto
39881.3 31200.2 lineto
39843.8 31162.7 lineto
39768.8 31125.2 lineto
39693.8 31125.2 lineto
39618.8 31162.7 lineto
39581.3 31200.2 lineto
39543.8 31275.2 lineto
39506.3 31425.2 lineto
39506.3 31612.7 lineto
39543.8 31762.7 lineto
39581.3 31837.7 lineto
39618.8 31875.2 lineto
39693.8 31912.6 lineto
stroke
newpath
40706.2 31125.2 moveto
40256.2 31125.2 lineto
stroke
newpath
40481.2 31125.2 moveto
40481.2 31912.6 lineto
40406.2 31800.2 lineto
40331.2 31725.2 lineto
40256.2 31687.7 lineto
stroke
newpath
41418.6 31912.6 moveto
41043.6 31912.6 lineto
41006.1 31537.7 lineto
41043.6 31575.2 lineto
41118.6 31612.7 lineto
41306.1 31612.7 lineto
41381.1 31575.2 lineto
41418.6 31537.7 lineto
41456.1 31462.7 lineto
41456.1 31275.2 lineto
41418.6 31200.2 lineto
41381.1 31162.7 lineto
41306.1 31125.2 lineto
41118.6 31125.2 lineto
41043.6 31162.7 lineto
41006.1 31200.2 lineto
stroke
newpath
41718.5 31912.6 moveto
42243.5 31912.6 lineto
41906 31125.2 lineto
stroke
newpath
42505.9 31912.6 moveto
42505.9 31762.7 lineto
stroke
newpath
42805.9 31912.6 moveto
42805.9 31762.7 lineto
stroke
newpath
43968.3 30825.3 moveto
43930.8 30862.8 lineto
43855.8 30975.3 lineto
43818.3 31050.3 lineto
43780.8 31162.7 lineto
43743.3 31350.2 lineto
43743.3 31500.2 lineto
43780.8 31687.7 lineto
43818.3 31800.2 lineto
43855.8 31875.2 lineto
43930.8 31987.6 lineto
43968.3 32025.1 lineto
stroke
newpath
44605.7 31650.2 moveto
44605.7 31125.2 lineto
stroke
newpath
44418.2 31950.1 moveto
44230.7 31387.7 lineto
44718.2 31387.7 lineto
stroke
newpath
45430.6 31125.2 moveto
44980.6 31125.2 lineto
stroke
newpath
45205.6 31125.2 moveto
45205.6 31912.6 lineto
45130.6 31800.2 lineto
45055.6 31725.2 lineto
44980.6 31687.7 lineto
stroke
newpath
46105.5 31912.6 moveto
45955.5 31912.6 lineto
45880.5 31875.2 lineto
45843 31837.7 lineto
45768 31725.2 lineto
45730.5 31575.2 lineto
45730.5 31275.2 lineto
45768 31200.2 lineto
45805.5 31162.7 lineto
45880.5 31125.2 lineto
46030.5 31125.2 lineto
46105.5 31162.7 lineto
46143 31200.2 lineto
46180.5 31275.2 lineto
46180.5 31462.7 lineto
46143 31537.7 lineto
46105.5 31575.2 lineto
46030.5 31612.7 lineto
45880.5 31612.7 lineto
45805.5 31575.2 lineto
45768 31537.7 lineto
45730.5 31462.7 lineto
stroke
newpath
47117.9 31125.2 moveto
47117.9 31912.6 lineto
stroke
newpath
47455.3 31125.2 moveto
47455.3 31537.7 lineto
47417.8 31612.7 lineto
47342.8 31650.2 lineto
47230.4 31650.2 lineto
47155.4 31612.7 lineto
47117.9 31575.2 lineto
stroke
newpath
47942.8 31125.2 moveto
47867.8 31162.7 lineto
47830.3 31200.2 lineto
47792.8 31275.2 lineto
47792.8 31500.2 lineto
47830.3 31575.2 lineto
47867.8 31612.7 lineto
47942.8 31650.2 lineto
48055.2 31650.2 lineto
48130.2 31612.7 lineto
48167.7 31575.2 lineto
48205.2 31500.2 lineto
48205.2 31275.2 lineto
48167.7 31200.2 lineto
48130.2 31162.7 lineto
48055.2 31125.2 lineto
47942.8 31125.2 lineto
stroke
newpath
48655.2 31125.2 moveto
48580.2 31162.7 lineto
48542.7 31237.7 lineto
48542.7 31912.6 lineto
stroke
newpath
49255.1 31162.7 moveto
49180.1 31125.2 lineto
49030.1 31125.2 lineto
48955.1 31162.7 lineto
48917.6 31237.7 lineto
48917.6 31537.7 lineto
48955.1 31612.7 lineto
49030.1 31650.2 lineto
49180.1 31650.2 lineto
49255.1 31612.7 lineto
49292.6 31537.7 lineto
49292.6 31462.7 lineto
48917.6 31387.7 lineto
stroke
newpath
49592.6 31162.7 moveto
49667.5 31125.2 lineto
49817.5 31125.2 lineto
49892.5 31162.7 lineto
49930 31237.7 lineto
49930 31275.2 lineto
49892.5 31350.2 lineto
49817.5 31387.7 lineto
49705 31387.7 lineto
49630.1 31425.2 lineto
49592.6 31500.2 lineto
49592.6 31537.7 lineto
49630.1 31612.7 lineto
49705 31650.2 lineto
49817.5 31650.2 lineto
49892.5 31612.7 lineto
stroke
newpath
50192.5 30825.3 moveto
50230 30862.8 lineto
50305 30975.3 lineto
50342.5 31050.3 lineto
50380 31162.7 lineto
50417.5 31350.2 lineto
50417.5 31500.2 lineto
50380 31687.7 lineto
50342.5 31800.2 lineto
50305 31875.2 lineto
50230 31987.6 lineto
50192.5 32025.1 lineto
stroke
59.9357 setlinewidth
newpath
29606 30741.8 moveto
29606 30142.4 lineto
stroke
newpath
29306.3 30442.1 moveto
29905.6 30442.1 lineto
stroke
119.871 setlinewidth
78.7399 setlinewidth
0 0 0 setrgbcolor
0 0 0 setrgbcolor
newpath
31332.3 30085.9 moveto
30882.4 30085.9 lineto
stroke
newpath
31107.4 30085.9 moveto
31107.4 30873.3 lineto
31032.4 30760.8 lineto
30957.4 30685.8 lineto
30882.4 30648.3 lineto
stroke
newpath
31669.8 30160.9 moveto
31707.3 30123.4 lineto
31669.8 30085.9 lineto
31632.3 30123.4 lineto
31669.8 30160.9 lineto
31669.8 30085.9 lineto
stroke
newpath
32194.7 30873.3 moveto
32269.7 30873.3 lineto
32344.7 30835.8 lineto
32382.2 30798.3 lineto
32419.7 30723.3 lineto
32457.2 30573.3 lineto
32457.2 30385.8 lineto
32419.7 30235.9 lineto
32382.2 30160.9 lineto
32344.7 30123.4 lineto
32269.7 30085.9 lineto
32194.7 30085.9 lineto
32119.7 30123.4 lineto
32082.2 30160.9 lineto
32044.8 30235.9 lineto
32007.3 30385.8 lineto
32007.3 30573.3 lineto
32044.8 30723.3 lineto
32082.2 30798.3 lineto
32119.7 30835.8 lineto
32194.7 30873.3 lineto
stroke
newpath
32944.6 30873.3 moveto
33019.6 30873.3 lineto
33094.6 30835.8 lineto
33132.1 30798.3 lineto
33169.6 30723.3 lineto
33207.1 30573.3 lineto
33207.1 30385.8 lineto
33169.6 30235.9 lineto
33132.1 30160.9 lineto
33094.6 30123.4 lineto
33019.6 30085.9 lineto
32944.6 30085.9 lineto
32869.6 30123.4 lineto
32832.2 30160.9 lineto
32794.7 30235.9 lineto
32757.2 30385.8 lineto
32757.2 30573.3 lineto
32794.7 30723.3 lineto
32832.2 30798.3 lineto
32869.6 30835.8 lineto
32944.6 30873.3 lineto
stroke
newpath
33694.5 30873.3 moveto
33769.5 30873.3 lineto
33844.5 30835.8 lineto
33882 30798.3 lineto
33919.5 30723.3 lineto
33957 30573.3 lineto
33957 30385.8 lineto
33919.5 30235.9 lineto
33882 30160.9 lineto
33844.5 30123.4 lineto
33769.5 30085.9 lineto
33694.5 30085.9 lineto
33619.6 30123.4 lineto
33582.1 30160.9 lineto
33544.6 30235.9 lineto
33507.1 30385.8 lineto
33507.1 30573.3 lineto
33544.6 30723.3 lineto
33582.1 30798.3 lineto
33619.6 30835.8 lineto
33694.5 30873.3 lineto
stroke
newpath
34294.5 30085.9 moveto
34294.5 30610.8 lineto
stroke
newpath
34294.5 30535.8 moveto
34332 30573.3 lineto
34407 30610.8 lineto
34519.4 30610.8 lineto
34594.4 30573.3 lineto
34631.9 30498.3 lineto
34631.9 30085.9 lineto
stroke
newpath
34631.9 30498.3 moveto
34669.4 30573.3 lineto
34744.4 30610.8 lineto
34856.9 30610.8 lineto
34931.9 30573.3 lineto
34969.4 30498.3 lineto
34969.4 30085.9 lineto
stroke
newpath
35344.3 30085.9 moveto
35344.3 30610.8 lineto
stroke
newpath
35344.3 30535.8 moveto
35381.8 30573.3 lineto
35456.8 30610.8 lineto
35569.3 30610.8 lineto
35644.3 30573.3 lineto
35681.8 30498.3 lineto
35681.8 30085.9 lineto
stroke
newpath
35681.8 30498.3 moveto
35719.3 30573.3 lineto
35794.3 30610.8 lineto
35906.8 30610.8 lineto
35981.8 30573.3 lineto
36019.3 30498.3 lineto
36019.3 30085.9 lineto
stroke
newpath
37556.6 30910.8 moveto
36881.6 29898.4 lineto
stroke
newpath
38568.9 30873.3 moveto
38643.9 30873.3 lineto
38718.9 30835.8 lineto
38756.4 30798.3 lineto
38793.9 30723.3 lineto
38831.4 30573.3 lineto
38831.4 30385.8 lineto
38793.9 30235.9 lineto
38756.4 30160.9 lineto
38718.9 30123.4 lineto
38643.9 30085.9 lineto
38568.9 30085.9 lineto
38493.9 30123.4 lineto
38456.5 30160.9 lineto
38419 30235.9 lineto
38381.5 30385.8 lineto
38381.5 30573.3 lineto
38419 30723.3 lineto
38456.5 30798.3 lineto
38493.9 30835.8 lineto
38568.9 30873.3 lineto
stroke
newpath
39168.9 30160.9 moveto
39206.4 30123.4 lineto
39168.9 30085.9 lineto
39131.4 30123.4 lineto
39168.9 30160.9 lineto
39168.9 30085.9 lineto
stroke
newpath
39693.8 30873.3 moveto
39768.8 30873.3 lineto
39843.8 30835.8 lineto
39881.3 30798.3 lineto
39918.8 30723.3 lineto
39956.3 30573.3 lineto
39956.3 30385.8 lineto
39918.8 30235.9 lineto
39881.3 30160.9 lineto
39843.8 30123.4 lineto
39768.8 30085.9 lineto
39693.8 30085.9 lineto
39618.8 30123.4 lineto
39581.3 30160.9 lineto
39543.8 30235.9 lineto
39506.3 30385.8 lineto
39506.3 30573.3 lineto
39543.8 30723.3 lineto
39581.3 30798.3 lineto
39618.8 30835.8 lineto
39693.8 30873.3 lineto
stroke
newpath
40218.7 30873.3 moveto
40706.2 30873.3 lineto
40443.7 30573.3 lineto
40556.2 30573.3 lineto
40631.2 30535.8 lineto
40668.7 30498.3 lineto
40706.2 30423.3 lineto
40706.2 30235.9 lineto
40668.7 30160.9 lineto
40631.2 30123.4 lineto
40556.2 30085.9 lineto
40331.2 30085.9 lineto
40256.2 30123.4 lineto
40218.7 30160.9 lineto
stroke
newpath
41081.1 30085.9 moveto
41231.1 30085.9 lineto
41306.1 30123.4 lineto
41343.6 30160.9 lineto
41418.6 30273.4 lineto
41456.1 30423.3 lineto
41456.1 30723.3 lineto
41418.6 30798.3 lineto
41381.1 30835.8 lineto
41306.1 30873.3 lineto
41156.1 30873.3 lineto
41081.1 30835.8 lineto
41043.6 30798.3 lineto
41006.1 30723.3 lineto
41006.1 30535.8 lineto
41043.6 30460.8 lineto
41081.1 30423.3 lineto
41156.1 30385.8 lineto
41306.1 30385.8 lineto
41381.1 30423.3 lineto
41418.6 30460.8 lineto
41456.1 30535.8 lineto
stroke
newpath
42131 30610.8 moveto
42131 30085.9 lineto
stroke
newpath
41943.5 30910.8 moveto
41756 30348.3 lineto
42243.5 30348.3 lineto
stroke
newpath
42505.9 30873.3 moveto
42505.9 30723.3 lineto
stroke
newpath
42805.9 30873.3 moveto
42805.9 30723.3 lineto
stroke
newpath
43968.3 29785.9 moveto
43930.8 29823.4 lineto
43855.8 29935.9 lineto
43818.3 30010.9 lineto
43780.8 30123.4 lineto
43743.3 30310.8 lineto
43743.3 30460.8 lineto
43780.8 30648.3 lineto
43818.3 30760.8 lineto
43855.8 30835.8 lineto
43930.8 30948.3 lineto
43968.3 30985.8 lineto
stroke
newpath
44193.2 30873.3 moveto
44718.2 30873.3 lineto
44380.7 30085.9 lineto
stroke
newpath
45430.6 30085.9 moveto
44980.6 30085.9 lineto
stroke
newpath
45205.6 30085.9 moveto
45205.6 30873.3 lineto
45130.6 30760.8 lineto
45055.6 30685.8 lineto
44980.6 30648.3 lineto
stroke
newpath
46368 30085.9 moveto
46368 30873.3 lineto
stroke
newpath
46705.4 30085.9 moveto
46705.4 30498.3 lineto
46667.9 30573.3 lineto
46592.9 30610.8 lineto
46480.4 30610.8 lineto
46405.5 30573.3 lineto
46368 30535.8 lineto
stroke
newpath
47192.9 30085.9 moveto
47117.9 30123.4 lineto
47080.4 30160.9 lineto
47042.9 30235.9 lineto
47042.9 30460.8 lineto
47080.4 30535.8 lineto
47117.9 30573.3 lineto
47192.9 30610.8 lineto
47305.3 30610.8 lineto
47380.3 30573.3 lineto
47417.8 30535.8 lineto
47455.3 30460.8 lineto
47455.3 30235.9 lineto
47417.8 30160.9 lineto
47380.3 30123.4 lineto
47305.3 30085.9 lineto
47192.9 30085.9 lineto
stroke
newpath
47905.3 30085.9 moveto
47830.3 30123.4 lineto
47792.8 30198.4 lineto
47792.8 30873.3 lineto
stroke
newpath
48505.2 30123.4 moveto
48430.2 30085.9 lineto
48280.2 30085.9 lineto
48205.2 30123.4 lineto
48167.7 30198.4 lineto
48167.7 30498.3 lineto
48205.2 30573.3 lineto
48280.2 30610.8 lineto
48430.2 30610.8 lineto
48505.2 30573.3 lineto
48542.7 30498.3 lineto
48542.7 30423.3 lineto
48167.7 30348.3 lineto
stroke
newpath
48842.7 30123.4 moveto
48917.6 30085.9 lineto
49067.6 30085.9 lineto
49142.6 30123.4 lineto
49180.1 30198.4 lineto
49180.1 30235.9 lineto
49142.6 30310.8 lineto
49067.6 30348.3 lineto
48955.1 30348.3 lineto
48880.1 30385.8 lineto
48842.7 30460.8 lineto
48842.7 30498.3 lineto
48880.1 30573.3 lineto
48955.1 30610.8 lineto
49067.6 30610.8 lineto
49142.6 30573.3 lineto
stroke
newpath
49442.6 29785.9 moveto
49480.1 29823.4 lineto
49555.1 29935.9 lineto
49592.6 30010.9 lineto
49630.1 30123.4 lineto
49667.5 30310.8 lineto
49667.5 30460.8 lineto
49630.1 30648.3 lineto
49592.6 30760.8 lineto
49555.1 30835.8 lineto
49480.1 30948.3 lineto
49442.6 30985.8 lineto
stroke
showpage
grestore
%%EOF
