M48
; DRILL file {KiCad 5.99.0-unknown-a9f86c6f3d~118~ubuntu20.10.1} date Mon Apr 12 16:25:04 2021
; FORMAT={-:-/ absolute / metric / decimal}
; #@! TF.CreationDate,2021-04-12T16:25:04+02:00
; #@! TF.GenerationSoftware,Kicad,Pcbnew,5.99.0-unknown-a9f86c6f3d~118~ubuntu20.10.1
; #@! TF.FileFunction,Plated,1,2,PTH
FMAT,2
METRIC
; #@! TA.AperFunction,ComponentDrill,Plated,PTH
T1C0.300
; #@! TA.AperFunction,ViaDrill
T2C0.400
; #@! TA.AperFunction,ComponentDrill,Plated,PTH
T3C1.000
%
G90
G05
T1
; plated pad hole
X128.75Y-90.3
X129.95Y-90.3
T2
; via hole
X105.4Y-104.05
X105.5Y-96.45
X105.5Y-99.05
X105.5Y-101.55
X105.5Y-106.55
X105.5Y-116.45
X105.5Y-118.95
X106.0Y-113.95
X106.3Y-79.05
X106.7Y-69.75
X107.1Y-81.75
X107.1Y-88.85
X107.6Y-91.45
X107.7Y-110.05
X107.9Y-67.25
X108.7Y-71.65
X109.2Y-125.35
X109.3Y-65.35
X109.4Y-77.25
X110.1Y-65.35
X110.2Y-77.25
X110.9Y-65.35
X111.0Y-77.25
X111.6Y-127.15
X111.7Y-82.05
X111.7Y-122.55
X112.5Y-79.05
X112.5Y-124.25
X112.7Y-70.45
X112.8Y-106.55
X112.9Y-96.55
X112.9Y-99.05
X112.9Y-101.65
X112.9Y-104.15
X113.2Y-71.75
X113.2Y-109.85
X113.3Y-120.35
X113.5Y-74.05
X113.5Y-74.85
X113.5Y-75.65
X113.5Y-76.45
X113.5Y-77.25
X114.2Y-126.55
X114.4Y-88.95
X115.0Y-86.65
X115.3Y-93.35
X116.9Y-91.45
X116.9Y-102.225
X117.0Y-99.15
X117.0Y-119.15
X117.0Y-121.45
X117.0Y-126.05
X117.1Y-94.55
X117.1Y-97.05
X117.2Y-104.15
X117.2Y-106.35
X117.8Y-70.45
X118.0Y-69.05
X118.2Y-61.65
X118.9Y-116.75
X119.3Y-119.75
X119.4Y-99.35
X119.5Y-91.55
X119.6Y-90.35
X119.6Y-126.65
X119.9Y-111.95
X120.6Y-95.45
X120.7Y-89.25
X120.7Y-92.15
X120.7Y-93.25
X121.0Y-97.85
X121.0Y-108.15
X121.02Y-62.03
X121.6Y-64.75
X121.8Y-75.35
X122.0Y-127.15
X122.3Y-97.75
X122.6Y-84.75
X122.6Y-93.25
X122.6Y-95.35
X122.7Y-91.05
X123.4Y-65.95
X123.4Y-113.05
X123.5Y-63.65
X123.8Y-80.35
X124.1Y-86.15
X124.1Y-106.25
X124.6Y-109.15
X124.8Y-74.05
X124.8Y-78.05
X125.1Y-88.05
X125.1Y-90.35
X125.5Y-75.775
X125.5Y-97.25
X125.6Y-85.45
X126.0Y-63.55
X126.0Y-81.85
X126.1Y-65.95
X126.1Y-83.35
X126.512Y-75.775
X126.7Y-105.35
X126.9Y-111.15
X126.9Y-114.45
X127.1Y-100.45
X127.3Y-64.75
X127.6Y-85.75
X127.8Y-79.35
X128.1Y-88.35
X128.1Y-94.45
X128.8Y-91.65
X128.9Y-81.65
X128.9Y-110.45
X129.1Y-107.45
X129.5Y-87.05
X129.6Y-83.25
X129.7Y-78.25
X129.7Y-114.45
X129.7Y-127.85
X129.9Y-64.75
X130.1Y-88.85
X130.2Y-93.65
X130.4Y-99.85
X130.4Y-100.95
X130.7Y-82.45
X130.8Y-110.95
X130.9Y-102.95
X131.4Y-96.75
X131.4Y-109.75
X131.7Y-127.25
X132.0Y-111.85
X132.4Y-64.75
X132.4Y-81.85
X132.4Y-103.45
X133.1Y-81.85
X133.1Y-113.05
X133.2Y-97.45
X133.3Y-120.95
X133.8Y-78.075
X133.8Y-81.85
X133.9Y-127.35
X134.0Y-83.45
X134.1Y-106.575
X134.2Y-73.05
X134.2Y-124.55
X134.9Y-64.75
X134.9Y-78.35
X134.9Y-81.95
X135.0Y-86.95
X135.4Y-100.45
X135.9Y-78.45
X135.9Y-81.95
X136.1Y-87.95
X136.2Y-63.55
X136.2Y-65.95
X136.2Y-76.95
X136.2Y-101.75
X136.5Y-122.45
X136.5Y-125.45
X136.7Y-83.65
X137.3Y-102.85
X137.5Y-85.25
X137.5Y-118.05
X137.8Y-64.75
X137.8Y-123.45
X137.9Y-98.25
X138.537Y-86.113
X138.7Y-104.65
X138.775Y-87.15
X139.0Y-73.65
X139.0Y-127.15
X139.05Y-91.95
X139.1Y-93.05
X139.227Y-94.15
X139.3Y-95.15
X139.5Y-105.45
X139.5Y-122.15
X139.7Y-69.15
X140.1Y-64.75
X140.2Y-125.05
X140.8Y-76.95
X141.4Y-86.45
X141.5Y-74.25
X141.5Y-111.95
X141.5Y-127.05
X141.7Y-97.35
X141.8Y-79.65
X141.9Y-84.25
X141.9Y-103.25
X142.1Y-87.25
X142.3Y-100.55
X142.4Y-64.75
X142.4Y-120.95
X142.5Y-85.25
X143.2Y-90.75
X143.4Y-99.875
X143.6Y-103.25
X143.8Y-63.45
X143.8Y-65.95
X143.8Y-124.15
X143.9Y-86.15
X143.9Y-89.75
X144.1Y-75.85
X144.1Y-127.05
X144.7Y-106.25
X144.9Y-97.35
X145.1Y-93.05
X145.2Y-119.95
X145.3Y-64.75
X145.5Y-83.85
X145.6Y-102.55
X146.5Y-73.95
X146.5Y-76.25
X146.6Y-123.35
X146.7Y-104.55
X146.725Y-105.675
X147.3Y-103.25
X147.4Y-127.15
X147.7Y-64.75
X148.1Y-88.55
X148.5Y-97.35
X148.9Y-93.05
X149.0Y-119.95
X149.0Y-120.95
X149.0Y-122.15
X149.0Y-123.35
X149.0Y-124.95
X149.2Y-83.95
X149.2Y-86.15
X149.6Y-77.85
X150.1Y-64.75
X150.1Y-125.95
X150.2Y-69.15
X150.2Y-124.15
X150.4Y-83.95
X150.4Y-86.05
X150.5Y-104.15
X150.6Y-80.75
X150.8Y-107.75
X150.812Y-90.763
X151.7Y-130.75
X151.787Y-86.063
X151.912Y-92.062
X152.0Y-97.35
X152.0Y-126.85
X152.3Y-79.45
X152.418Y-80.644
X152.7Y-64.75
X153.4Y-107.05
X153.5Y-103.35
X153.5Y-104.45
X153.5Y-105.65
X153.8Y-100.75
X154.2Y-91.45
X154.2Y-98.95
X155.1Y-123.55
X155.3Y-64.75
X155.7Y-119.05
X155.8Y-110.85
X156.0Y-90.85
X156.2Y-108.65
X156.5Y-63.45
X156.5Y-65.85
X156.5Y-101.25
X156.775Y-83.65
X156.775Y-84.65
X156.9Y-69.05
X157.1Y-91.25
X157.3Y-89.05
X157.3Y-103.35
X157.8Y-101.175
X157.8Y-132.25
X157.9Y-64.75
X158.7Y-109.05
X158.787Y-91.263
X159.6Y-103.45
X159.75Y-96.6
X159.9Y-69.15
X160.1Y-64.75
X160.1Y-98.05
X160.4Y-73.35
X160.4Y-77.95
X160.875Y-74.45
X161.1Y-78.95
X161.3Y-109.15
X161.6Y-63.35
X161.6Y-102.45
X162.0Y-68.95
X162.25Y-99.3
X162.3Y-95.75
X162.5Y-84.75
X162.5Y-103.55
X162.6Y-73.35
X162.6Y-83.65
X162.6Y-87.55
X162.9Y-86.05
X163.0Y-64.75
X163.0Y-81.55
X163.1Y-89.05
X163.3Y-75.55
X163.513Y-100.363
X163.6Y-102.45
X163.8Y-83.25
X164.2Y-95.15
X164.6Y-96.25
X164.6Y-100.85
X164.8Y-82.65
X165.4Y-64.75
X165.9Y-78.55
X166.1Y-88.85
X166.2Y-75.05
X166.4Y-132.45
X166.9Y-96.35
X167.1Y-85.45
X167.4Y-91.75
X167.4Y-102.45
X167.5Y-103.55
X168.1Y-96.05
X168.6Y-90.55
X168.6Y-101.85
X169.1Y-88.45
X169.2Y-92.175
X169.9Y-101.25
X170.088Y-100.066
X170.1Y-70.15
X170.1Y-72.85
X170.1Y-102.65
X170.2Y-71.25
X170.2Y-74.375
X170.4Y-76.45
X170.4Y-80.95
X170.5Y-103.65
X170.7Y-99.275
X170.8Y-104.75
X171.5Y-118.65
X171.7Y-68.75
X171.75Y-98.85
X172.414Y-96.704
X172.787Y-86.837
X172.8Y-92.85
X172.95Y-89.9
X173.012Y-78.962
X173.1Y-74.55
X173.1Y-76.15
X173.1Y-80.55
X173.2Y-82.875
X173.2Y-105.25
X173.3Y-103.35
X173.3Y-107.75
X173.5Y-109.45
X173.6Y-96.25
X173.7Y-92.35
X173.785Y-86.902
X173.8Y-77.95
X173.9Y-97.45
X173.9Y-118.55
X174.0Y-81.55
X174.6Y-85.05
X174.7Y-69.65
X175.0Y-78.95
X175.3Y-91.05
X175.4Y-87.85
X175.5Y-72.675
X175.6Y-132.45
X175.9Y-109.25
X175.9Y-116.75
X176.1Y-118.55
X176.3Y-95.55
X176.7Y-104.45
X176.9Y-79.15
X176.9Y-83.65
X176.9Y-92.35
X177.1Y-65.55
X177.2Y-106.85
X177.35Y-105.7
X177.6Y-120.55
X178.0Y-77.65
X178.1Y-79.75
X178.1Y-85.15
X178.2Y-108.15
X178.3Y-87.85
X178.3Y-97.75
X178.5Y-118.65
X178.8Y-123.45
X179.1Y-92.25
X179.1Y-103.45
X179.1Y-130.75
X179.5Y-63.35
X179.9Y-100.85
X180.0Y-72.85
X180.0Y-82.55
X180.1Y-75.05
X180.7Y-78.35
X180.7Y-119.75
X180.9Y-65.55
X180.9Y-112.55
X181.2Y-85.05
X181.3Y-109.85
X181.4Y-98.55
X181.4Y-127.85
X181.6Y-117.65
X181.7Y-87.75
X182.0Y-122.35
X183.3Y-135.15
X183.7Y-96.45
X184.1Y-109.05
X184.1Y-121.15
X184.9Y-133.35
X185.1Y-125.35
X185.2Y-79.55
X186.5Y-64.95
X186.7Y-71.65
X186.7Y-107.95
X186.7Y-114.15
X186.9Y-122.95
X187.6Y-129.75
X188.0Y-134.75
T3
; plated pad hole
X103.75Y-62.95
X103.75Y-65.45
X103.75Y-67.95
X103.75Y-70.45
X103.85Y-75.4
X103.85Y-77.9
X103.85Y-80.4
X103.85Y-82.9
X103.85Y-87.9
X103.85Y-90.4
X103.9Y-95.3
X103.9Y-97.8
X103.9Y-100.3
X103.9Y-102.8
X103.9Y-105.3
X103.9Y-110.25
X103.9Y-112.75
X103.9Y-115.25
X103.9Y-117.75
X103.9Y-120.25
X110.4Y-128.85
X112.9Y-128.85
X115.4Y-128.85
X117.9Y-128.85
X120.4Y-128.85
X122.9Y-128.85
X125.4Y-128.85
X127.9Y-128.85
X132.7Y-128.85
X135.2Y-128.85
X137.7Y-128.85
X140.2Y-128.85
X141.8Y-82.45
X142.7Y-128.85
X144.3Y-82.45
X145.2Y-128.85
X146.8Y-82.45
X147.7Y-128.85
X150.2Y-128.85
X155.1Y-128.85
X157.6Y-128.85
X160.1Y-128.85
X162.6Y-128.85
X167.4Y-128.85
X169.9Y-128.85
X172.4Y-128.85
X174.9Y-128.85
X183.3Y-64.05
X183.3Y-66.55
X183.3Y-69.05
X183.3Y-71.55
X183.3Y-74.05
X183.3Y-76.55
X183.3Y-81.55
X183.3Y-84.05
X183.3Y-86.55
X183.3Y-89.05
X183.3Y-91.55
X183.3Y-94.05
X183.3Y-99.05
X183.3Y-101.55
X183.3Y-104.05
X183.3Y-106.55
X183.3Y-111.45
X183.3Y-113.95
X183.3Y-116.45
X183.3Y-118.95
X183.3Y-124.15
X183.3Y-126.65
X183.3Y-129.15
X183.3Y-131.65
T0
M30
