%TF.GenerationSoftware,KiCad,Pcbnew,5.99.0-unknown-a9f86c6f3d~118~ubuntu20.10.1*%
%TF.CreationDate,2021-04-12T16:25:13+02:00*%
%TF.ProjectId,amprpish-1,616d7072-7069-4736-982d-312e6b696361,1.0*%
%TF.SameCoordinates,Original*%
%TF.FileFunction,Soldermask,Bot*%
%TF.FilePolarity,Negative*%
%FSLAX46Y46*%
G04 Gerber Fmt 4.6, Leading zero omitted, Abs format (unit mm)*
G04 Created by KiCad (PCBNEW 5.99.0-unknown-a9f86c6f3d~118~ubuntu20.10.1) date 2021-04-12 16:25:13*
%MOMM*%
%LPD*%
G01*
G04 APERTURE LIST*
%ADD10C,0.970000*%
%ADD11C,6.900000*%
%ADD12C,2.000000*%
G04 APERTURE END LIST*
D10*
%TO.C,J2*%
X162850000Y-66020000D03*
X160310000Y-63480000D03*
X150150000Y-63480000D03*
X147610000Y-63480000D03*
X162850000Y-63480000D03*
X134910000Y-63480000D03*
X137450000Y-63480000D03*
X160310000Y-66020000D03*
X127290000Y-66020000D03*
X165390000Y-63480000D03*
X165390000Y-66020000D03*
X124750000Y-66020000D03*
X167930000Y-63480000D03*
X167930000Y-66020000D03*
X134910000Y-66020000D03*
X142530000Y-63480000D03*
X145070000Y-66020000D03*
X124750000Y-63480000D03*
X119670000Y-66020000D03*
X139990000Y-63480000D03*
X150150000Y-66020000D03*
X155230000Y-66020000D03*
X142530000Y-66020000D03*
X145070000Y-63480000D03*
X152690000Y-63480000D03*
X132370000Y-66020000D03*
X157770000Y-66020000D03*
X119670000Y-63480000D03*
X127290000Y-63480000D03*
X137450000Y-66020000D03*
X147610000Y-66020000D03*
X155230000Y-63480000D03*
X122210000Y-66020000D03*
X152690000Y-66020000D03*
X129830000Y-66020000D03*
X157770000Y-63480000D03*
X122210000Y-63480000D03*
X139990000Y-66020000D03*
X132370000Y-63480000D03*
X129830000Y-63480000D03*
%TD*%
D11*
%TO.C,H1*%
X172800000Y-64750000D03*
%TD*%
%TO.C,H2*%
X172800000Y-113750000D03*
%TD*%
%TO.C,H4*%
X114800000Y-113750000D03*
%TD*%
D12*
%TO.C,J1*%
X127900000Y-128850000D03*
X125400000Y-128850000D03*
X122900000Y-128850000D03*
X120400000Y-128850000D03*
X117900000Y-128850000D03*
X115400000Y-128850000D03*
X112900000Y-128850000D03*
X110400000Y-128850000D03*
%TD*%
%TO.C,J3*%
X150200000Y-128850000D03*
X147700000Y-128850000D03*
X145200000Y-128850000D03*
X142700000Y-128850000D03*
X140200000Y-128850000D03*
X137700000Y-128850000D03*
X135200000Y-128850000D03*
X132700000Y-128850000D03*
%TD*%
%TO.C,J4*%
X103900000Y-105300000D03*
X103900000Y-102800000D03*
X103900000Y-100300000D03*
X103900000Y-97800000D03*
X103900000Y-95300000D03*
%TD*%
%TO.C,J5*%
X103900000Y-120250000D03*
X103900000Y-117750000D03*
X103900000Y-115250000D03*
X103900000Y-112750000D03*
X103900000Y-110250000D03*
%TD*%
%TO.C,J6*%
X103850000Y-90400000D03*
X103850000Y-87900000D03*
%TD*%
%TO.C,J7*%
X183300000Y-81550000D03*
X183300000Y-84050000D03*
X183300000Y-86550000D03*
X183300000Y-89050000D03*
X183300000Y-91550000D03*
X183300000Y-94050000D03*
%TD*%
%TO.C,J8*%
X183300000Y-64050000D03*
X183300000Y-66550000D03*
X183300000Y-69050000D03*
X183300000Y-71550000D03*
X183300000Y-74050000D03*
X183300000Y-76550000D03*
%TD*%
%TO.C,J9*%
X103850000Y-82900000D03*
X103850000Y-80400000D03*
X103850000Y-77900000D03*
X103850000Y-75400000D03*
%TD*%
%TO.C,J10*%
X103750000Y-70450000D03*
X103750000Y-67950000D03*
X103750000Y-65450000D03*
X103750000Y-62950000D03*
%TD*%
%TO.C,J11*%
X146800000Y-82450000D03*
X144300000Y-82450000D03*
X141800000Y-82450000D03*
%TD*%
%TO.C,J12*%
X183300000Y-124150000D03*
X183300000Y-126650000D03*
X183300000Y-129150000D03*
X183300000Y-131650000D03*
%TD*%
%TO.C,J13*%
X162600000Y-128850000D03*
X160100000Y-128850000D03*
X157600000Y-128850000D03*
X155100000Y-128850000D03*
%TD*%
%TO.C,J14*%
X183300000Y-111450000D03*
X183300000Y-113950000D03*
X183300000Y-116450000D03*
X183300000Y-118950000D03*
%TD*%
D11*
%TO.C,H3*%
X114800000Y-64750000D03*
%TD*%
D12*
%TO.C,J16*%
X174900000Y-128850000D03*
X172400000Y-128850000D03*
X169900000Y-128850000D03*
X167400000Y-128850000D03*
%TD*%
%TO.C,J15*%
X183300000Y-99050000D03*
X183300000Y-101550000D03*
X183300000Y-104050000D03*
X183300000Y-106550000D03*
%TD*%
D11*
%TO.C,H5*%
X102000000Y-130750000D03*
%TD*%
M02*
