%TF.GenerationSoftware,KiCad,Pcbnew,5.99.0-unknown-14cba9723f~116~ubuntu20.10.1*%
%TF.CreationDate,2021-02-17T12:04:30+01:00*%
%TF.ProjectId,amprpish-1,616d7072-7069-4736-982d-312e6b696361,1.0*%
%TF.SameCoordinates,Original*%
%TF.FileFunction,Soldermask,Top*%
%TF.FilePolarity,Negative*%
%FSLAX46Y46*%
G04 Gerber Fmt 4.6, Leading zero omitted, Abs format (unit mm)*
G04 Created by KiCad (PCBNEW 5.99.0-unknown-14cba9723f~116~ubuntu20.10.1) date 2021-02-17 12:04:30*
%MOMM*%
%LPD*%
G01*
G04 APERTURE LIST*
G04 Aperture macros list*
%AMRoundRect*
0 Rectangle with rounded corners*
0 $1 Rounding radius*
0 $2 $3 $4 $5 $6 $7 $8 $9 X,Y pos of 4 corners*
0 Add a 4 corners polygon primitive as box body*
4,1,4,$2,$3,$4,$5,$6,$7,$8,$9,$2,$3,0*
0 Add four circle primitives for the rounded corners*
1,1,$1+$1,$2,$3*
1,1,$1+$1,$4,$5*
1,1,$1+$1,$6,$7*
1,1,$1+$1,$8,$9*
0 Add four rect primitives between the rounded corners*
20,1,$1+$1,$2,$3,$4,$5,0*
20,1,$1+$1,$4,$5,$6,$7,0*
20,1,$1+$1,$6,$7,$8,$9,0*
20,1,$1+$1,$8,$9,$2,$3,0*%
G04 Aperture macros list end*
%ADD10C,1.070000*%
%ADD11RoundRect,0.050000X-0.635000X-0.840000X0.635000X-0.840000X0.635000X0.840000X-0.635000X0.840000X0*%
%ADD12RoundRect,0.243750X-0.243750X-0.281250X0.243750X-0.281250X0.243750X0.281250X-0.243750X0.281250X0*%
%ADD13RoundRect,0.265625X-0.584375X1.284375X-0.584375X-1.284375X0.584375X-1.284375X0.584375X1.284375X0*%
%ADD14RoundRect,0.243750X0.243750X0.281250X-0.243750X0.281250X-0.243750X-0.281250X0.243750X-0.281250X0*%
%ADD15RoundRect,0.243750X0.281250X-0.243750X0.281250X0.243750X-0.281250X0.243750X-0.281250X-0.243750X0*%
%ADD16RoundRect,0.265625X-1.284375X-0.584375X1.284375X-0.584375X1.284375X0.584375X-1.284375X0.584375X0*%
%ADD17RoundRect,0.268750X0.481250X-0.268750X0.481250X0.268750X-0.481250X0.268750X-0.481250X-0.268750X0*%
%ADD18RoundRect,0.268750X0.268750X0.481250X-0.268750X0.481250X-0.268750X-0.481250X0.268750X-0.481250X0*%
%ADD19RoundRect,0.268750X-0.481250X0.268750X-0.481250X-0.268750X0.481250X-0.268750X0.481250X0.268750X0*%
%ADD20RoundRect,0.243750X-0.281250X0.243750X-0.281250X-0.243750X0.281250X-0.243750X0.281250X0.243750X0*%
%ADD21C,6.900000*%
%ADD22C,2.100000*%
%ADD23RoundRect,0.050000X0.400000X-0.450000X0.400000X0.450000X-0.400000X0.450000X-0.400000X-0.450000X0*%
%ADD24RoundRect,0.050000X-0.530000X-0.325000X0.530000X-0.325000X0.530000X0.325000X-0.530000X0.325000X0*%
%ADD25RoundRect,0.087500X-0.087500X0.375000X-0.087500X-0.375000X0.087500X-0.375000X0.087500X0.375000X0*%
%ADD26RoundRect,0.087500X-0.375000X0.087500X-0.375000X-0.087500X0.375000X-0.087500X0.375000X0.087500X0*%
%ADD27RoundRect,0.050000X-0.850000X0.850000X-0.850000X-0.850000X0.850000X-0.850000X0.850000X0.850000X0*%
%ADD28RoundRect,0.050000X0.325000X0.200000X-0.325000X0.200000X-0.325000X-0.200000X0.325000X-0.200000X0*%
%ADD29RoundRect,0.050000X-0.325000X-0.200000X0.325000X-0.200000X0.325000X0.200000X-0.325000X0.200000X0*%
%ADD30RoundRect,0.050000X-0.200000X0.325000X-0.200000X-0.325000X0.200000X-0.325000X0.200000X0.325000X0*%
%ADD31RoundRect,0.050000X0.200000X-0.325000X0.200000X0.325000X-0.200000X0.325000X-0.200000X-0.325000X0*%
%ADD32RoundRect,0.125000X-0.662500X-0.125000X0.662500X-0.125000X0.662500X0.125000X-0.662500X0.125000X0*%
%ADD33RoundRect,0.050000X-0.400000X0.450000X-0.400000X-0.450000X0.400000X-0.450000X0.400000X0.450000X0*%
%ADD34RoundRect,0.175000X0.175000X-0.850000X0.175000X0.850000X-0.175000X0.850000X-0.175000X-0.850000X0*%
%ADD35RoundRect,0.175000X-0.175000X0.850000X-0.175000X-0.850000X0.175000X-0.850000X0.175000X0.850000X0*%
%ADD36RoundRect,0.150000X0.150000X-0.612500X0.150000X0.612500X-0.150000X0.612500X-0.150000X-0.612500X0*%
%ADD37RoundRect,0.150000X0.612500X0.150000X-0.612500X0.150000X-0.612500X-0.150000X0.612500X-0.150000X0*%
G04 APERTURE END LIST*
D10*
%TO.C,J2*%
X162850000Y-66020000D03*
X160310000Y-63480000D03*
X150150000Y-63480000D03*
X147610000Y-63480000D03*
X162850000Y-63480000D03*
X134910000Y-63480000D03*
X137450000Y-63480000D03*
X160310000Y-66020000D03*
X127290000Y-66020000D03*
X165390000Y-63480000D03*
X165390000Y-66020000D03*
X124750000Y-66020000D03*
X167930000Y-63480000D03*
X167930000Y-66020000D03*
X134910000Y-66020000D03*
X142530000Y-63480000D03*
X145070000Y-66020000D03*
X124750000Y-63480000D03*
X119670000Y-66020000D03*
X139990000Y-63480000D03*
X150150000Y-66020000D03*
X155230000Y-66020000D03*
X142530000Y-66020000D03*
X145070000Y-63480000D03*
X152690000Y-63480000D03*
X132370000Y-66020000D03*
X157770000Y-66020000D03*
X119670000Y-63480000D03*
X127290000Y-63480000D03*
X137450000Y-66020000D03*
X147610000Y-66020000D03*
X155230000Y-63480000D03*
X122210000Y-66020000D03*
X152690000Y-66020000D03*
X129830000Y-66020000D03*
X157770000Y-63480000D03*
X122210000Y-63480000D03*
X139990000Y-66020000D03*
X132370000Y-63480000D03*
X129830000Y-63480000D03*
D11*
X119670000Y-67470000D03*
X119670000Y-62030000D03*
X122210000Y-67470000D03*
X122210000Y-62030000D03*
X124750000Y-67470000D03*
X124750000Y-62030000D03*
X127290000Y-67470000D03*
X127290000Y-62030000D03*
X129830000Y-67470000D03*
X129830000Y-62030000D03*
X132370000Y-67470000D03*
X132370000Y-62030000D03*
X134910000Y-67470000D03*
X134910000Y-62030000D03*
X137450000Y-67470000D03*
X137450000Y-62030000D03*
X139990000Y-67470000D03*
X139990000Y-62030000D03*
X142530000Y-67470000D03*
X142530000Y-62030000D03*
X145070000Y-67470000D03*
X145070000Y-62030000D03*
X147610000Y-67470000D03*
X147610000Y-62030000D03*
X150150000Y-67470000D03*
X150150000Y-62030000D03*
X152690000Y-67470000D03*
X152690000Y-62030000D03*
X155230000Y-67470000D03*
X155230000Y-62030000D03*
X157770000Y-67470000D03*
X157770000Y-62030000D03*
X160310000Y-67470000D03*
X160310000Y-62030000D03*
X162850000Y-67470000D03*
X162850000Y-62030000D03*
X165390000Y-67470000D03*
X165390000Y-62030000D03*
X167930000Y-67470000D03*
X167930000Y-62030000D03*
%TD*%
D12*
%TO.C,C2*%
X131512500Y-114450000D03*
X133087500Y-114450000D03*
%TD*%
D13*
%TO.C,C3*%
X115150000Y-71250000D03*
X115150000Y-75650000D03*
%TD*%
D14*
%TO.C,C4*%
X115387500Y-79000000D03*
X113812500Y-79000000D03*
%TD*%
D15*
%TO.C,C5*%
X120500000Y-76887500D03*
X120500000Y-75312500D03*
%TD*%
D12*
%TO.C,C6*%
X123162500Y-76850000D03*
X124737500Y-76850000D03*
%TD*%
%TO.C,C7*%
X124962500Y-79400000D03*
X126537500Y-79400000D03*
%TD*%
D16*
%TO.C,C8*%
X130200000Y-80100000D03*
X134600000Y-80100000D03*
%TD*%
D12*
%TO.C,C9*%
X126562500Y-87050000D03*
X128137500Y-87050000D03*
%TD*%
D17*
%TO.C,C10*%
X127450000Y-84337500D03*
X127450000Y-82462500D03*
%TD*%
D14*
%TO.C,C11*%
X132287500Y-87100000D03*
X130712500Y-87100000D03*
%TD*%
D18*
%TO.C,C12*%
X132287500Y-84800000D03*
X130412500Y-84800000D03*
%TD*%
D19*
%TO.C,C13*%
X128800000Y-98712500D03*
X128800000Y-100587500D03*
%TD*%
D12*
%TO.C,C14*%
X128512500Y-96750000D03*
X130087500Y-96750000D03*
%TD*%
D20*
%TO.C,C15*%
X119450000Y-96475000D03*
X119450000Y-98050000D03*
%TD*%
D15*
%TO.C,C16*%
X119450000Y-94287500D03*
X119450000Y-92712500D03*
%TD*%
D12*
%TO.C,C17*%
X121812500Y-89950000D03*
X123387500Y-89950000D03*
%TD*%
D14*
%TO.C,C18*%
X123387500Y-92150000D03*
X121812500Y-92150000D03*
%TD*%
D17*
%TO.C,C19*%
X137550000Y-89787500D03*
X137550000Y-87912500D03*
%TD*%
D15*
%TO.C,C20*%
X134950000Y-89837500D03*
X134950000Y-88262500D03*
%TD*%
D14*
%TO.C,C21*%
X177000000Y-81550000D03*
X175425000Y-81550000D03*
%TD*%
D15*
%TO.C,C22*%
X177100000Y-68537500D03*
X177100000Y-66962500D03*
%TD*%
D14*
%TO.C,C23*%
X167687500Y-82950000D03*
X166112500Y-82950000D03*
%TD*%
D20*
%TO.C,C24*%
X167800000Y-86862500D03*
X167800000Y-88437500D03*
%TD*%
D14*
%TO.C,C25*%
X170787500Y-93350000D03*
X169212500Y-93350000D03*
%TD*%
%TO.C,C26*%
X171087500Y-96050000D03*
X169512500Y-96050000D03*
%TD*%
D12*
%TO.C,C27*%
X175112500Y-77650000D03*
X176687500Y-77650000D03*
%TD*%
D20*
%TO.C,C29*%
X171700000Y-78962500D03*
X171700000Y-80537500D03*
%TD*%
%TO.C,C30*%
X151800000Y-87462500D03*
X151800000Y-89037500D03*
%TD*%
D17*
%TO.C,C31*%
X110200000Y-80525000D03*
X110200000Y-78650000D03*
%TD*%
%TO.C,C32*%
X110100000Y-68587500D03*
X110100000Y-66712500D03*
%TD*%
D20*
%TO.C,C33*%
X155050000Y-96262500D03*
X155050000Y-97837500D03*
%TD*%
D14*
%TO.C,C34*%
X186187500Y-135150000D03*
X184612500Y-135150000D03*
%TD*%
%TO.C,C36*%
X176787500Y-96850000D03*
X175212500Y-96850000D03*
%TD*%
D15*
%TO.C,C39*%
X172000000Y-106837500D03*
X172000000Y-105262500D03*
%TD*%
D20*
%TO.C,C40*%
X171400000Y-101062500D03*
X171400000Y-102637500D03*
%TD*%
%TO.C,C42*%
X158650000Y-96462500D03*
X158650000Y-98037500D03*
%TD*%
D15*
%TO.C,C43*%
X171500000Y-121537500D03*
X171500000Y-119962500D03*
%TD*%
D21*
%TO.C,H1*%
X172800000Y-64750000D03*
%TD*%
%TO.C,H2*%
X172800000Y-113750000D03*
%TD*%
%TO.C,H4*%
X114800000Y-113750000D03*
%TD*%
D22*
%TO.C,J1*%
X127900000Y-128850000D03*
X125400000Y-128850000D03*
X122900000Y-128850000D03*
X120400000Y-128850000D03*
X117900000Y-128850000D03*
X115400000Y-128850000D03*
X112900000Y-128850000D03*
X110400000Y-128850000D03*
%TD*%
%TO.C,J3*%
X150200000Y-128850000D03*
X147700000Y-128850000D03*
X145200000Y-128850000D03*
X142700000Y-128850000D03*
X140200000Y-128850000D03*
X137700000Y-128850000D03*
X135200000Y-128850000D03*
X132700000Y-128850000D03*
%TD*%
%TO.C,J4*%
X103900000Y-105300000D03*
X103900000Y-102800000D03*
X103900000Y-100300000D03*
X103900000Y-97800000D03*
X103900000Y-95300000D03*
%TD*%
%TO.C,J5*%
X103900000Y-120250000D03*
X103900000Y-117750000D03*
X103900000Y-115250000D03*
X103900000Y-112750000D03*
X103900000Y-110250000D03*
%TD*%
%TO.C,J6*%
X103850000Y-90400000D03*
X103850000Y-87900000D03*
%TD*%
%TO.C,J7*%
X183300000Y-81550000D03*
X183300000Y-84050000D03*
X183300000Y-86550000D03*
X183300000Y-89050000D03*
X183300000Y-91550000D03*
X183300000Y-94050000D03*
%TD*%
%TO.C,J8*%
X183300000Y-64050000D03*
X183300000Y-66550000D03*
X183300000Y-69050000D03*
X183300000Y-71550000D03*
X183300000Y-74050000D03*
X183300000Y-76550000D03*
%TD*%
%TO.C,J9*%
X103850000Y-82900000D03*
X103850000Y-80400000D03*
X103850000Y-77900000D03*
X103850000Y-75400000D03*
%TD*%
%TO.C,J10*%
X103750000Y-70450000D03*
X103750000Y-67950000D03*
X103750000Y-65450000D03*
X103750000Y-62950000D03*
%TD*%
%TO.C,J11*%
X146800000Y-82450000D03*
X144300000Y-82450000D03*
X141800000Y-82450000D03*
%TD*%
%TO.C,J12*%
X183300000Y-124150000D03*
X183300000Y-126650000D03*
X183300000Y-129150000D03*
X183300000Y-131650000D03*
%TD*%
%TO.C,J13*%
X162600000Y-128850000D03*
X160100000Y-128850000D03*
X157600000Y-128850000D03*
X155100000Y-128850000D03*
%TD*%
%TO.C,J14*%
X183300000Y-111450000D03*
X183300000Y-113950000D03*
X183300000Y-116450000D03*
X183300000Y-118950000D03*
%TD*%
D20*
%TO.C,L1*%
X124950000Y-82762500D03*
X124950000Y-84337500D03*
%TD*%
D23*
%TO.C,Q1*%
X120400000Y-86000000D03*
X122300000Y-86000000D03*
X121350000Y-84000000D03*
%TD*%
D15*
%TO.C,R1*%
X119400000Y-72037500D03*
X119400000Y-70462500D03*
%TD*%
%TO.C,R4*%
X121250000Y-72037500D03*
X121250000Y-70462500D03*
%TD*%
%TO.C,R6*%
X123100000Y-72037500D03*
X123100000Y-70462500D03*
%TD*%
D20*
%TO.C,R9*%
X127300000Y-70462500D03*
X127300000Y-72037500D03*
%TD*%
%TO.C,R10*%
X129400000Y-70462500D03*
X129400000Y-72037500D03*
%TD*%
D15*
%TO.C,R12*%
X131400000Y-72037500D03*
X131400000Y-70462500D03*
%TD*%
D20*
%TO.C,R13*%
X133200000Y-70462500D03*
X133200000Y-72037500D03*
%TD*%
D15*
%TO.C,R15*%
X135000000Y-72037500D03*
X135000000Y-70462500D03*
%TD*%
%TO.C,R16*%
X136900000Y-72037500D03*
X136900000Y-70462500D03*
%TD*%
D20*
%TO.C,R17*%
X138700000Y-70462500D03*
X138700000Y-72037500D03*
%TD*%
%TO.C,R19*%
X140500000Y-70462500D03*
X140500000Y-72037500D03*
%TD*%
D15*
%TO.C,R21*%
X142400000Y-72037500D03*
X142400000Y-70462500D03*
%TD*%
%TO.C,R29*%
X144200000Y-72037500D03*
X144200000Y-70462500D03*
%TD*%
D20*
%TO.C,R30*%
X146000000Y-70462500D03*
X146000000Y-72037500D03*
%TD*%
D15*
%TO.C,R32*%
X147600000Y-72037500D03*
X147600000Y-70462500D03*
%TD*%
D20*
%TO.C,R33*%
X149300000Y-70462500D03*
X149300000Y-72037500D03*
%TD*%
%TO.C,R35*%
X151000000Y-70462500D03*
X151000000Y-72037500D03*
%TD*%
D15*
%TO.C,R36*%
X152700000Y-72037500D03*
X152700000Y-70462500D03*
%TD*%
D20*
%TO.C,R37*%
X154400000Y-70450000D03*
X154400000Y-72025000D03*
%TD*%
D15*
%TO.C,R39*%
X156100000Y-72037500D03*
X156100000Y-70462500D03*
%TD*%
%TO.C,R44*%
X157800000Y-72025000D03*
X157800000Y-70450000D03*
%TD*%
D20*
%TO.C,R45*%
X159500000Y-70462500D03*
X159500000Y-72037500D03*
%TD*%
D15*
%TO.C,R46*%
X161400000Y-72037500D03*
X161400000Y-70462500D03*
%TD*%
%TO.C,R48*%
X163300000Y-72037500D03*
X163300000Y-70462500D03*
%TD*%
D20*
%TO.C,R49*%
X165200000Y-70462500D03*
X165200000Y-72037500D03*
%TD*%
D15*
%TO.C,R51*%
X167100000Y-72037500D03*
X167100000Y-70462500D03*
%TD*%
D20*
%TO.C,R52*%
X169000000Y-70462500D03*
X169000000Y-72037500D03*
%TD*%
%TO.C,R53*%
X171300000Y-70462500D03*
X171300000Y-72037500D03*
%TD*%
D15*
%TO.C,R61*%
X117750000Y-82537500D03*
X117750000Y-80962500D03*
%TD*%
D12*
%TO.C,R62*%
X110825000Y-105350000D03*
X112400000Y-105350000D03*
%TD*%
D15*
%TO.C,R63*%
X117800000Y-86837500D03*
X117800000Y-85262500D03*
%TD*%
D12*
%TO.C,R64*%
X110812500Y-102950000D03*
X112387500Y-102950000D03*
%TD*%
%TO.C,R65*%
X110812500Y-100350000D03*
X112387500Y-100350000D03*
%TD*%
%TO.C,R66*%
X110812500Y-97850000D03*
X112387500Y-97850000D03*
%TD*%
%TO.C,R67*%
X110812500Y-95350000D03*
X112387500Y-95350000D03*
%TD*%
%TO.C,R68*%
X110912500Y-121450000D03*
X112487500Y-121450000D03*
%TD*%
%TO.C,R69*%
X110912500Y-119150000D03*
X112487500Y-119150000D03*
%TD*%
D15*
%TO.C,R70*%
X134800000Y-104437500D03*
X134800000Y-102862500D03*
%TD*%
%TO.C,R71*%
X120000000Y-115937500D03*
X120000000Y-114362500D03*
%TD*%
D12*
%TO.C,R72*%
X116312500Y-109050000D03*
X117887500Y-109050000D03*
%TD*%
%TO.C,R73*%
X110812500Y-107750000D03*
X112387500Y-107750000D03*
%TD*%
%TO.C,R75*%
X121812500Y-94300000D03*
X123387500Y-94300000D03*
%TD*%
%TO.C,R76*%
X121862500Y-96450000D03*
X123437500Y-96450000D03*
%TD*%
D20*
%TO.C,R77*%
X133200000Y-98862500D03*
X133200000Y-100437500D03*
%TD*%
%TO.C,R78*%
X123000000Y-98862500D03*
X123000000Y-100437500D03*
%TD*%
D14*
%TO.C,R79*%
X137787500Y-96850000D03*
X136212500Y-96850000D03*
%TD*%
%TO.C,R80*%
X137787500Y-94050000D03*
X136212500Y-94050000D03*
%TD*%
D15*
%TO.C,R81*%
X136700000Y-100387500D03*
X136700000Y-98812500D03*
%TD*%
%TO.C,R82*%
X125650000Y-100437500D03*
X125650000Y-98862500D03*
%TD*%
D14*
%TO.C,R83*%
X137787500Y-91950000D03*
X136212500Y-91950000D03*
%TD*%
D12*
%TO.C,R84*%
X164112500Y-87650000D03*
X165687500Y-87650000D03*
%TD*%
%TO.C,R85*%
X164112500Y-85750000D03*
X165687500Y-85750000D03*
%TD*%
D20*
%TO.C,R86*%
X173400000Y-69862500D03*
X173400000Y-71437500D03*
%TD*%
D12*
%TO.C,R87*%
X175612500Y-70950000D03*
X177187500Y-70950000D03*
%TD*%
%TO.C,R88*%
X163312500Y-76950000D03*
X164887500Y-76950000D03*
%TD*%
%TO.C,R89*%
X163312500Y-80150000D03*
X164887500Y-80150000D03*
%TD*%
D24*
%TO.C,U2*%
X120100000Y-79400000D03*
X120100000Y-80350000D03*
X120100000Y-81300000D03*
X122300000Y-81300000D03*
X122300000Y-79400000D03*
%TD*%
D25*
%TO.C,U3*%
X129850000Y-105987500D03*
X129350000Y-105987500D03*
X128850000Y-105987500D03*
X128350000Y-105987500D03*
D26*
X127637500Y-106700000D03*
X127637500Y-107200000D03*
X127637500Y-107700000D03*
X127637500Y-108200000D03*
D25*
X128350000Y-108912500D03*
X128850000Y-108912500D03*
X129350000Y-108912500D03*
X129850000Y-108912500D03*
D26*
X130562500Y-108200000D03*
X130562500Y-107700000D03*
X130562500Y-107200000D03*
X130562500Y-106700000D03*
D27*
X129100000Y-107450000D03*
%TD*%
D28*
%TO.C,U6*%
X171950000Y-83600000D03*
X171950000Y-82950000D03*
X171950000Y-82300000D03*
X170050000Y-82300000D03*
X170050000Y-82950000D03*
X170050000Y-83600000D03*
%TD*%
D29*
%TO.C,U7*%
X167350000Y-74400000D03*
X167350000Y-75050000D03*
X167350000Y-75700000D03*
X169250000Y-75700000D03*
X169250000Y-75050000D03*
X169250000Y-74400000D03*
%TD*%
D30*
%TO.C,U8*%
X155700000Y-92500000D03*
X155050000Y-92500000D03*
X154400000Y-92500000D03*
X154400000Y-94400000D03*
X155050000Y-94400000D03*
X155700000Y-94400000D03*
%TD*%
D29*
%TO.C,U9*%
X167350000Y-78000000D03*
X167350000Y-78650000D03*
X167350000Y-79300000D03*
X169250000Y-79300000D03*
X169250000Y-78650000D03*
X169250000Y-78000000D03*
%TD*%
D30*
%TO.C,U11*%
X175950000Y-73700000D03*
X175300000Y-73700000D03*
X174650000Y-73700000D03*
X174650000Y-75600000D03*
X175300000Y-75600000D03*
X175950000Y-75600000D03*
%TD*%
%TO.C,U15*%
X159300000Y-92500000D03*
X158650000Y-92500000D03*
X158000000Y-92500000D03*
X158000000Y-94400000D03*
X158650000Y-94400000D03*
X159300000Y-94400000D03*
%TD*%
D31*
%TO.C,U16*%
X161600000Y-94400000D03*
X162250000Y-94400000D03*
X162900000Y-94400000D03*
X162900000Y-92500000D03*
X162250000Y-92500000D03*
X161600000Y-92500000D03*
%TD*%
D30*
%TO.C,U19*%
X171550000Y-85900000D03*
X170900000Y-85900000D03*
X170250000Y-85900000D03*
X170250000Y-87800000D03*
X170900000Y-87800000D03*
X171550000Y-87800000D03*
%TD*%
D21*
%TO.C,H3*%
X114800000Y-64750000D03*
%TD*%
D15*
%TO.C,R8*%
X125200000Y-72037500D03*
X125200000Y-70462500D03*
%TD*%
%TO.C,R90*%
X151600000Y-101850000D03*
X151600000Y-100275000D03*
%TD*%
%TO.C,R91*%
X155100000Y-101837500D03*
X155100000Y-100262500D03*
%TD*%
D32*
%TO.C,U1*%
X143137500Y-104375000D03*
X143137500Y-105025000D03*
X143137500Y-105675000D03*
X143137500Y-106325000D03*
X143137500Y-106975000D03*
X143137500Y-107625000D03*
X143137500Y-108275000D03*
X143137500Y-108925000D03*
X143137500Y-109575000D03*
X143137500Y-110225000D03*
X143137500Y-110875000D03*
X143137500Y-111525000D03*
X148862500Y-111525000D03*
X148862500Y-110875000D03*
X148862500Y-110225000D03*
X148862500Y-109575000D03*
X148862500Y-108925000D03*
X148862500Y-108275000D03*
X148862500Y-107625000D03*
X148862500Y-106975000D03*
X148862500Y-106325000D03*
X148862500Y-105675000D03*
X148862500Y-105025000D03*
X148862500Y-104375000D03*
%TD*%
D15*
%TO.C,R50*%
X143800000Y-122137500D03*
X143800000Y-120562500D03*
%TD*%
%TO.C,R47*%
X142400000Y-118737500D03*
X142400000Y-117162500D03*
%TD*%
D12*
%TO.C,R27*%
X152725000Y-108950000D03*
X154300000Y-108950000D03*
%TD*%
%TO.C,R26*%
X152712500Y-117650000D03*
X154287500Y-117650000D03*
%TD*%
%TO.C,R5*%
X123512500Y-118250000D03*
X125087500Y-118250000D03*
%TD*%
D15*
%TO.C,R56*%
X150700000Y-97337500D03*
X150700000Y-95762500D03*
%TD*%
%TO.C,R43*%
X140900000Y-122137500D03*
X140900000Y-120562500D03*
%TD*%
%TO.C,R31*%
X131600000Y-122137500D03*
X131600000Y-120562500D03*
%TD*%
D12*
%TO.C,R28*%
X152712500Y-115450000D03*
X154287500Y-115450000D03*
%TD*%
D15*
%TO.C,R58*%
X143500000Y-97337500D03*
X143500000Y-95762500D03*
%TD*%
%TO.C,R3*%
X120200000Y-122237500D03*
X120200000Y-120662500D03*
%TD*%
D12*
%TO.C,R22*%
X152700000Y-119950000D03*
X154275000Y-119950000D03*
%TD*%
D15*
%TO.C,R40*%
X150700000Y-93637500D03*
X150700000Y-92062500D03*
%TD*%
%TO.C,R11*%
X125900000Y-122137500D03*
X125900000Y-120562500D03*
%TD*%
D12*
%TO.C,R20*%
X131812500Y-118850000D03*
X133387500Y-118850000D03*
%TD*%
D15*
%TO.C,R54*%
X145200000Y-118737500D03*
X145200000Y-117162500D03*
%TD*%
%TO.C,R41*%
X147000000Y-93650000D03*
X147000000Y-92075000D03*
%TD*%
%TO.C,R57*%
X147000000Y-97337500D03*
X147000000Y-95762500D03*
%TD*%
D12*
%TO.C,R59*%
X142312500Y-101950000D03*
X143887500Y-101950000D03*
%TD*%
D15*
%TO.C,R34*%
X138000000Y-122137500D03*
X138000000Y-120562500D03*
%TD*%
%TO.C,R38*%
X139500000Y-118737500D03*
X139500000Y-117162500D03*
%TD*%
D14*
%TO.C,C1*%
X148887500Y-101950000D03*
X147312500Y-101950000D03*
%TD*%
D15*
%TO.C,R60*%
X148000000Y-118737500D03*
X148000000Y-117162500D03*
%TD*%
%TO.C,R55*%
X146600000Y-122150000D03*
X146600000Y-120575000D03*
%TD*%
D12*
%TO.C,R24*%
X154112500Y-122150000D03*
X155687500Y-122150000D03*
%TD*%
%TO.C,R23*%
X152725000Y-113250000D03*
X154300000Y-113250000D03*
%TD*%
D15*
%TO.C,R42*%
X143500000Y-93637500D03*
X143500000Y-92062500D03*
%TD*%
D12*
%TO.C,R14*%
X127912500Y-118150000D03*
X129487500Y-118150000D03*
%TD*%
D15*
%TO.C,R18*%
X128800000Y-122137500D03*
X128800000Y-120562500D03*
%TD*%
D12*
%TO.C,R25*%
X152712500Y-111050000D03*
X154287500Y-111050000D03*
%TD*%
D22*
%TO.C,J16*%
X174900000Y-128850000D03*
X172400000Y-128850000D03*
X169900000Y-128850000D03*
X167400000Y-128850000D03*
%TD*%
D33*
%TO.C,Q2*%
X169350000Y-104850000D03*
X167450000Y-104850000D03*
X168400000Y-106850000D03*
%TD*%
%TO.C,Q3*%
X164450000Y-104850000D03*
X162550000Y-104850000D03*
X163500000Y-106850000D03*
%TD*%
D20*
%TO.C,R92*%
X159600000Y-105175000D03*
X159600000Y-106750000D03*
%TD*%
%TO.C,R93*%
X156800000Y-105162500D03*
X156800000Y-106737500D03*
%TD*%
D15*
%TO.C,R94*%
X158600000Y-121237500D03*
X158600000Y-119662500D03*
%TD*%
%TO.C,R95*%
X161300000Y-121237500D03*
X161300000Y-119662500D03*
%TD*%
%TO.C,R96*%
X165900000Y-102637500D03*
X165900000Y-101062500D03*
%TD*%
D12*
%TO.C,R97*%
X170412500Y-108950000D03*
X171987500Y-108950000D03*
%TD*%
D15*
%TO.C,R98*%
X168300000Y-121137500D03*
X168300000Y-119562500D03*
%TD*%
%TO.C,R99*%
X165400000Y-121237500D03*
X165400000Y-119662500D03*
%TD*%
D34*
%TO.C,U12*%
X157495000Y-116025000D03*
X158765000Y-116025000D03*
X160035000Y-116025000D03*
X161305000Y-116025000D03*
X161305000Y-111075000D03*
X160035000Y-111075000D03*
X158765000Y-111075000D03*
X157495000Y-111075000D03*
%TD*%
D35*
%TO.C,U13*%
X167970000Y-111100000D03*
X166700000Y-111100000D03*
X165430000Y-111100000D03*
X164160000Y-111100000D03*
X164160000Y-116050000D03*
X165430000Y-116050000D03*
X166700000Y-116050000D03*
X167970000Y-116050000D03*
%TD*%
D12*
%TO.C,C35*%
X114112500Y-104150000D03*
X115687500Y-104150000D03*
%TD*%
%TO.C,C37*%
X114212500Y-121450000D03*
X115787500Y-121450000D03*
%TD*%
%TO.C,C38*%
X114112500Y-101750000D03*
X115687500Y-101750000D03*
%TD*%
%TO.C,C44*%
X114212500Y-119150000D03*
X115787500Y-119150000D03*
%TD*%
%TO.C,C45*%
X114112500Y-99150000D03*
X115687500Y-99150000D03*
%TD*%
%TO.C,C46*%
X121812500Y-114350000D03*
X123387500Y-114350000D03*
%TD*%
%TO.C,C47*%
X114212500Y-96650000D03*
X115787500Y-96650000D03*
%TD*%
D20*
%TO.C,C48*%
X119900000Y-109062500D03*
X119900000Y-110637500D03*
%TD*%
D12*
%TO.C,C49*%
X112412500Y-93350000D03*
X113987500Y-93350000D03*
%TD*%
%TO.C,C50*%
X114100000Y-106650000D03*
X115675000Y-106650000D03*
%TD*%
D22*
%TO.C,J15*%
X183300000Y-99050000D03*
X183300000Y-101550000D03*
X183300000Y-104050000D03*
X183300000Y-106550000D03*
%TD*%
D15*
%TO.C,R7*%
X123100000Y-122137500D03*
X123100000Y-120562500D03*
%TD*%
D30*
%TO.C,U10*%
X175950000Y-92400000D03*
X175300000Y-92400000D03*
X174650000Y-92400000D03*
X174650000Y-94300000D03*
X175300000Y-94300000D03*
X175950000Y-94300000D03*
%TD*%
D36*
%TO.C,U18*%
X173250000Y-101987500D03*
X174200000Y-101987500D03*
X175150000Y-101987500D03*
X175150000Y-99712500D03*
X174200000Y-99712500D03*
X173250000Y-99712500D03*
%TD*%
D37*
%TO.C,U20*%
X176137500Y-121500000D03*
X176137500Y-120550000D03*
X176137500Y-119600000D03*
X173862500Y-119600000D03*
X173862500Y-120550000D03*
X173862500Y-121500000D03*
%TD*%
D29*
%TO.C,U5*%
X169950000Y-89900000D03*
X169950000Y-90550000D03*
X169950000Y-91200000D03*
X171850000Y-91200000D03*
X171850000Y-90550000D03*
X171850000Y-89900000D03*
%TD*%
D30*
%TO.C,U17*%
X175850000Y-105900000D03*
X175200000Y-105900000D03*
X174550000Y-105900000D03*
X174550000Y-107800000D03*
X175200000Y-107800000D03*
X175850000Y-107800000D03*
%TD*%
D20*
%TO.C,C28*%
X171700000Y-74562500D03*
X171700000Y-76137500D03*
%TD*%
%TO.C,C41*%
X164700000Y-92362500D03*
X164700000Y-93937500D03*
%TD*%
D12*
%TO.C,R2*%
X126512500Y-77450000D03*
X128087500Y-77450000D03*
%TD*%
D21*
%TO.C,H5*%
X102000000Y-130750000D03*
%TD*%
D32*
%TO.C,U4*%
X126537500Y-89025000D03*
X126537500Y-89675000D03*
X126537500Y-90325000D03*
X126537500Y-90975000D03*
X126537500Y-91625000D03*
X126537500Y-92275000D03*
X126537500Y-92925000D03*
X126537500Y-93575000D03*
X126537500Y-94225000D03*
X126537500Y-94875000D03*
X132262500Y-94875000D03*
X132262500Y-94225000D03*
X132262500Y-93575000D03*
X132262500Y-92925000D03*
X132262500Y-92275000D03*
X132262500Y-91625000D03*
X132262500Y-90975000D03*
X132262500Y-90325000D03*
X132262500Y-89675000D03*
X132262500Y-89025000D03*
%TD*%
M02*
